ARM GAS  C:\Users\Akil\AppData\Local\Temp\ccKhHrr3.s 			page 1


   1              		.syntax unified
   2              		.cpu cortex-m3
   3              		.fpu softvfp
   4              		.eabi_attribute 20, 1	@ Tag_ABI_FP_denormal
   5              		.eabi_attribute 21, 1	@ Tag_ABI_FP_exceptions
   6              		.eabi_attribute 23, 3	@ Tag_ABI_FP_number_model
   7              		.eabi_attribute 24, 1	@ Tag_ABI_align8_needed
   8              		.eabi_attribute 25, 1	@ Tag_ABI_align8_preserved
   9              		.eabi_attribute 26, 1	@ Tag_ABI_enum_size
  10              		.eabi_attribute 30, 6	@ Tag_ABI_optimization_goals
  11              		.eabi_attribute 34, 1	@ Tag_CPU_unaligned_access
  12              		.eabi_attribute 18, 4	@ Tag_ABI_PCS_wchar_t
  13              		.file	"crt.c"
  14              	@ GNU C (GNU Tools for ARM Embedded Processors) version 4.8.4 20140526 (release) [ARM/embedded-4_8-
  15              	@	compiled by GNU C version 4.6.4, GMP version 4.3.2, MPFR version 2.4.2, MPC version 0.8.1
  16              	@ GGC heuristics: --param ggc-min-expand=100 --param ggc-min-heapsize=131072
  17              	@ options passed:  -I . -I ./include -I ./cmsis/core -I ./cmsis/device
  18              	@ -I ./prime-framework -I ./prime-framework/include
  19              	@ -I ./prime-framework/arch/arm/cortex-m3/lpc1768/include
  20              	@ -I ./prime-framework/common/include -I ./prime-framework/utils/include
  21              	@ -I ./prime-framework/nativehardware/lpc1768/include
  22              	@ -I ./prime-framework/device/include
  23              	@ -I ./prime-framework/extensions/CANopenARM/include -imultilib armv7-m
  24              	@ -iprefix h:\arm-non-eabi\bin\../lib/gcc/arm-none-eabi/4.8.4/
  25              	@ -isysroot h:\arm-non-eabi\bin\../arm-none-eabi -MD src/crt.d
  26              	@ -MF .dep/crt.o.d -MP -MQ src/crt.o -D__USES_INITFINI__ -D CORE_FAMILY_arm
  27              	@ -D MCU_CHIP_lpc1768 -D PRIME_DEBUG -D RUN_FROM_FLASH=1 src/crt.c
  28              	@ -mcpu=cortex-m3 -mthumb -auxbase-strip src/crt.o -gdwarf-2 -O0 -Wall
  29              	@ -Wstrict-prototypes -fomit-frame-pointer -fverbose-asm
  30              	@ options enabled:  -faggressive-loop-optimizations -fauto-inc-dec
  31              	@ -fbranch-count-reg -fcommon -fdelete-null-pointer-checks -fdwarf2-cfi-asm
  32              	@ -fearly-inlining -feliminate-unused-debug-types -ffunction-cse -fgcse-lm
  33              	@ -fgnu-runtime -fident -finline-atomics -fira-hoist-pressure
  34              	@ -fira-share-save-slots -fira-share-spill-slots -fivopts
  35              	@ -fkeep-static-consts -fleading-underscore -fmath-errno
  36              	@ -fmerge-debug-strings -fmove-loop-invariants -fomit-frame-pointer
  37              	@ -fpeephole -fprefetch-loop-arrays -freg-struct-return
  38              	@ -fsched-critical-path-heuristic -fsched-dep-count-heuristic
  39              	@ -fsched-group-heuristic -fsched-interblock -fsched-last-insn-heuristic
  40              	@ -fsched-rank-heuristic -fsched-spec -fsched-spec-insn-heuristic
  41              	@ -fsched-stalled-insns-dep -fshow-column -fsigned-zeros
  42              	@ -fsplit-ivs-in-unroller -fstrict-volatile-bitfields -fsync-libcalls
  43              	@ -ftrapping-math -ftree-coalesce-vars -ftree-cselim -ftree-forwprop
  44              	@ -ftree-loop-if-convert -ftree-loop-im -ftree-loop-ivcanon
  45              	@ -ftree-loop-optimize -ftree-parallelize-loops= -ftree-phiprop -ftree-pta
  46              	@ -ftree-reassoc -ftree-scev-cprop -ftree-slp-vectorize
  47              	@ -ftree-vect-loop-version -funit-at-a-time -fverbose-asm
  48              	@ -fzero-initialized-in-bss -mfix-cortex-m3-ldrd -mlittle-endian
  49              	@ -mpic-data-is-text-relative -msched-prolog -mthumb -munaligned-access
  50              	@ -mvectorize-with-neon-quad
  51              	
  52              		.text
  53              	.Ltext0:
  54              		.cfi_sections	.debug_frame
  55              		.align	2
  56              		.weak	SystemInit
  57              		.thumb
ARM GAS  C:\Users\Akil\AppData\Local\Temp\ccKhHrr3.s 			page 2


  58              		.thumb_func
  59              		.type	SystemInit, %function
  60              	SystemInit:
  61              	.LFB0:
  62              		.file 1 "src/crt.c"
   1:src/crt.c     **** /****************************************************************************
   2:src/crt.c     **** *  Copyright (c) 2011 by Michael Fischer. All rights reserved.
   3:src/crt.c     **** *
   4:src/crt.c     **** *  Redistribution and use in source and binary forms, with or without 
   5:src/crt.c     **** *  modification, are permitted provided that the following conditions 
   6:src/crt.c     **** *  are met:
   7:src/crt.c     **** *  
   8:src/crt.c     **** *  1. Redistributions of source code must retain the above copyright 
   9:src/crt.c     **** *     notice, this list of conditions and the following disclaimer.
  10:src/crt.c     **** *  2. Redistributions in binary form must reproduce the above copyright
  11:src/crt.c     **** *     notice, this list of conditions and the following disclaimer in the 
  12:src/crt.c     **** *     documentation and/or other materials provided with the distribution.
  13:src/crt.c     **** *  3. Neither the name of the author nor the names of its contributors may 
  14:src/crt.c     **** *     be used to endorse or promote products derived from this software 
  15:src/crt.c     **** *     without specific prior written permission.
  16:src/crt.c     **** *
  17:src/crt.c     **** *  THIS SOFTWARE IS PROVIDED BY THE COPYRIGHT HOLDERS AND CONTRIBUTORS 
  18:src/crt.c     **** *  "AS IS" AND ANY EXPRESS OR IMPLIED WARRANTIES, INCLUDING, BUT NOT 
  19:src/crt.c     **** *  LIMITED TO, THE IMPLIED WARRANTIES OF MERCHANTABILITY AND FITNESS 
  20:src/crt.c     **** *  FOR A PARTICULAR PURPOSE ARE DISCLAIMED. IN NO EVENT SHALL 
  21:src/crt.c     **** *  THE COPYRIGHT OWNER OR CONTRIBUTORS BE LIABLE FOR ANY DIRECT, INDIRECT, 
  22:src/crt.c     **** *  INCIDENTAL, SPECIAL, EXEMPLARY, OR CONSEQUENTIAL DAMAGES (INCLUDING, 
  23:src/crt.c     **** *  BUT NOT LIMITED TO, PROCUREMENT OF SUBSTITUTE GOODS OR SERVICES; LOSS 
  24:src/crt.c     **** *  OF USE, DATA, OR PROFITS; OR BUSINESS INTERRUPTION) HOWEVER CAUSED 
  25:src/crt.c     **** *  AND ON ANY THEORY OF LIABILITY, WHETHER IN CONTRACT, STRICT LIABILITY, 
  26:src/crt.c     **** *  OR TORT (INCLUDING NEGLIGENCE OR OTHERWISE) ARISING IN ANY WAY OUT OF 
  27:src/crt.c     **** *  THE USE OF THIS SOFTWARE, EVEN IF ADVISED OF THE POSSIBILITY OF 
  28:src/crt.c     **** *  SUCH DAMAGE.
  29:src/crt.c     **** *
  30:src/crt.c     **** ****************************************************************************
  31:src/crt.c     **** *  History:
  32:src/crt.c     **** *
  33:src/crt.c     **** *  09.04.2011  mifi  First Version
  34:src/crt.c     **** *  29.04.2011  mifi  Call SystemInit, and set the Vector Table Offset
  35:src/crt.c     **** *                    before copy of data and bss segment.
  36:src/crt.c     **** ****************************************************************************/
  37:src/crt.c     **** #define __CRT_C__
  38:src/crt.c     **** 
  39:src/crt.c     **** #include <stdint.h>
  40:src/crt.c     **** 
  41:src/crt.c     **** /*=========================================================================*/
  42:src/crt.c     **** /*  DEFINE: All extern Data                                                */
  43:src/crt.c     **** /*=========================================================================*/
  44:src/crt.c     **** /*
  45:src/crt.c     ****  * The next data are defined by the linker script.
  46:src/crt.c     ****  */
  47:src/crt.c     **** extern unsigned long _stext;
  48:src/crt.c     **** extern unsigned long _etext;
  49:src/crt.c     **** extern unsigned long _sdata;
  50:src/crt.c     **** extern unsigned long _edata;
  51:src/crt.c     **** extern unsigned long _sbss;
  52:src/crt.c     **** extern unsigned long _ebss;
ARM GAS  C:\Users\Akil\AppData\Local\Temp\ccKhHrr3.s 			page 3


  53:src/crt.c     **** extern unsigned long _estack;
  54:src/crt.c     **** 
  55:src/crt.c     **** /* This is the main */
  56:src/crt.c     **** extern int main (void);
  57:src/crt.c     **** 
  58:src/crt.c     **** /*=========================================================================*/
  59:src/crt.c     **** /*  DEFINE: Prototypes                                                     */
  60:src/crt.c     **** /*=========================================================================*/
  61:src/crt.c     **** void SystemInit (void) __attribute__((weak));
  62:src/crt.c     **** 
  63:src/crt.c     **** /*=========================================================================*/
  64:src/crt.c     **** /*  DEFINE: All code exported                                              */
  65:src/crt.c     **** /*=========================================================================*/
  66:src/crt.c     **** 
  67:src/crt.c     **** /***************************************************************************/
  68:src/crt.c     **** /*  SystemInit                                                             */
  69:src/crt.c     **** /*                                                                         */
  70:src/crt.c     **** /*  SystemInit is a function which is provided by the CMSIS interface.     */
  71:src/crt.c     **** /*  If this function is not available, we need a function here to prevent  */
  72:src/crt.c     **** /*  an error of the linker. Therefore this function is declared as weak.   */
  73:src/crt.c     **** /***************************************************************************/
  74:src/crt.c     **** void SystemInit (void)
  75:src/crt.c     **** {
  63              		.loc 1 75 0
  64              		.cfi_startproc
  65              		@ args = 0, pretend = 0, frame = 0
  66              		@ frame_needed = 0, uses_anonymous_args = 0
  67              		@ link register save eliminated.
  76:src/crt.c     **** } /* SystemInit */
  68              		.loc 1 76 0
  69 0000 7047     		bx	lr	@
  70              		.cfi_endproc
  71              	.LFE0:
  72              		.size	SystemInit, .-SystemInit
  73 0002 00BF     		.align	2
  74              		.global	ResetHandler
  75              		.thumb
  76              		.thumb_func
  77              		.type	ResetHandler, %function
  78              	ResetHandler:
  79              	.LFB1:
  77:src/crt.c     **** 
  78:src/crt.c     **** /***************************************************************************/
  79:src/crt.c     **** /*  ResetHandler                                                           */
  80:src/crt.c     **** /*                                                                         */
  81:src/crt.c     **** /*  This function is used for the C runtime initialisation,                */
  82:src/crt.c     **** /*  for handling the .data and .bss segments.                              */
  83:src/crt.c     **** /***************************************************************************/
  84:src/crt.c     **** void ResetHandler (void)
  85:src/crt.c     **** {
  80              		.loc 1 85 0
  81              		.cfi_startproc
  82              		@ args = 0, pretend = 0, frame = 8
  83              		@ frame_needed = 0, uses_anonymous_args = 0
  84 0004 00B5     		push	{lr}	@
  85              	.LCFI0:
  86              		.cfi_def_cfa_offset 4
ARM GAS  C:\Users\Akil\AppData\Local\Temp\ccKhHrr3.s 			page 4


  87              		.cfi_offset 14, -4
  88 0006 83B0     		sub	sp, sp, #12	@,,
  89              	.LCFI1:
  90              		.cfi_def_cfa_offset 16
  86:src/crt.c     ****    uint32_t *pSrc;
  87:src/crt.c     ****    uint32_t *pDest;
  88:src/crt.c     ****    
  89:src/crt.c     ****    /*
  90:src/crt.c     ****     * Call the SystemInit code from CMSIS interface if available.
  91:src/crt.c     ****     * SystemInit is a week function which can be override
  92:src/crt.c     ****     * by an external function.
  93:src/crt.c     ****     */
  94:src/crt.c     ****    SystemInit();    
  91              		.loc 1 94 0
  92 0008 FFF7FEFF 		bl	SystemInit	@
  95:src/crt.c     ****    
  96:src/crt.c     ****    /*
  97:src/crt.c     ****     * Set the "Vector Table Offset Register". From the ARM
  98:src/crt.c     ****     * documentation, we got the following information:
  99:src/crt.c     ****     *
 100:src/crt.c     ****     * Use the Vector Table Offset Register to determine:
 101:src/crt.c     ****     *  - if the vector table is in RAM or code memory
 102:src/crt.c     ****     *  - the vector table offset.    
 103:src/crt.c     ****     */
 104:src/crt.c     ****    *((uint32_t*)0xE000ED08) = (uint32_t)&_stext;
  93              		.loc 1 104 0
  94 000c 114B     		ldr	r3, .L8	@ D.4143,
  95 000e 124A     		ldr	r2, .L8+4	@ _stext.0,
  96 0010 1A60     		str	r2, [r3]	@ _stext.0, *_4
 105:src/crt.c     ****    
 106:src/crt.c     ****    /*
 107:src/crt.c     ****     * Copy the initialized data of the ".data" segment
 108:src/crt.c     ****     * from the flash to the are in the ram.
 109:src/crt.c     ****     */
 110:src/crt.c     ****    pSrc  = &_etext;
  97              		.loc 1 110 0
  98 0012 124B     		ldr	r3, .L8+8	@ tmp116,
  99 0014 0193     		str	r3, [sp, #4]	@ tmp116, pSrc
 111:src/crt.c     ****    pDest = &_sdata;
 100              		.loc 1 111 0
 101 0016 124B     		ldr	r3, .L8+12	@ tmp117,
 102 0018 0093     		str	r3, [sp]	@ tmp117, pDest
 112:src/crt.c     ****    while(pDest < &_edata)
 103              		.loc 1 112 0
 104 001a 07E0     		b	.L3	@
 105              	.L4:
 113:src/crt.c     ****    {
 114:src/crt.c     ****       *pDest++ = *pSrc++;
 106              		.loc 1 114 0
 107 001c 009B     		ldr	r3, [sp]	@ pDest.1, pDest
 108 001e 1A1D     		adds	r2, r3, #4	@ tmp118, pDest.1,
 109 0020 0092     		str	r2, [sp]	@ tmp118, pDest
 110 0022 019A     		ldr	r2, [sp, #4]	@ pSrc.2, pSrc
 111 0024 111D     		adds	r1, r2, #4	@ tmp119, pSrc.2,
 112 0026 0191     		str	r1, [sp, #4]	@ tmp119, pSrc
 113 0028 1268     		ldr	r2, [r2]	@ D.4144, *pSrc.2_10
 114 002a 1A60     		str	r2, [r3]	@ D.4144, *pDest.1_8
ARM GAS  C:\Users\Akil\AppData\Local\Temp\ccKhHrr3.s 			page 5


 115              	.L3:
 112:src/crt.c     ****    while(pDest < &_edata)
 116              		.loc 1 112 0 discriminator 1
 117 002c 009A     		ldr	r2, [sp]	@ tmp120, pDest
 118 002e 0D4B     		ldr	r3, .L8+16	@ tmp121,
 119 0030 9A42     		cmp	r2, r3	@ tmp120, tmp121
 120 0032 F3D3     		bcc	.L4	@,
 115:src/crt.c     ****    }
 116:src/crt.c     ****    
 117:src/crt.c     ****    /*
 118:src/crt.c     ****     * Clear the ".bss" segment.
 119:src/crt.c     ****     */
 120:src/crt.c     ****    pDest = &_sbss;
 121              		.loc 1 120 0
 122 0034 0C4B     		ldr	r3, .L8+20	@ tmp122,
 123 0036 0093     		str	r3, [sp]	@ tmp122, pDest
 121:src/crt.c     ****    while(pDest < &_ebss)
 124              		.loc 1 121 0
 125 0038 04E0     		b	.L5	@
 126              	.L6:
 122:src/crt.c     ****    {
 123:src/crt.c     ****       *pDest++ = 0;
 127              		.loc 1 123 0
 128 003a 009B     		ldr	r3, [sp]	@ pDest.3, pDest
 129 003c 1A1D     		adds	r2, r3, #4	@ tmp123, pDest.3,
 130 003e 0092     		str	r2, [sp]	@ tmp123, pDest
 131 0040 0022     		movs	r2, #0	@ tmp124,
 132 0042 1A60     		str	r2, [r3]	@ tmp124, *pDest.3_14
 133              	.L5:
 121:src/crt.c     ****    while(pDest < &_ebss)
 134              		.loc 1 121 0 discriminator 1
 135 0044 009A     		ldr	r2, [sp]	@ tmp125, pDest
 136 0046 094B     		ldr	r3, .L8+24	@ tmp126,
 137 0048 9A42     		cmp	r2, r3	@ tmp125, tmp126
 138 004a F6D3     		bcc	.L6	@,
 124:src/crt.c     ****    }
 125:src/crt.c     ****    
 126:src/crt.c     ****    /*
 127:src/crt.c     ****     * And now the main function can be called.
 128:src/crt.c     ****     * Scotty, energie...
 129:src/crt.c     ****     */       
 130:src/crt.c     ****    main();    
 139              		.loc 1 130 0
 140 004c FFF7FEFF 		bl	main	@
 141              	.L7:
 131:src/crt.c     ****    
 132:src/crt.c     ****    /*
 133:src/crt.c     ****     * In case there are problems with the
 134:src/crt.c     ****     * "warp drive", stop here.
 135:src/crt.c     ****     */
 136:src/crt.c     ****    while(1) {};    
 142              		.loc 1 136 0 discriminator 1
 143 0050 FEE7     		b	.L7	@
 144              	.L9:
 145 0052 00BF     		.align	2
 146              	.L8:
 147 0054 08ED00E0 		.word	-536810232
ARM GAS  C:\Users\Akil\AppData\Local\Temp\ccKhHrr3.s 			page 6


 148 0058 00000000 		.word	_stext
 149 005c 00000000 		.word	_etext
 150 0060 00000000 		.word	_sdata
 151 0064 00000000 		.word	_edata
 152 0068 00000000 		.word	_sbss
 153 006c 00000000 		.word	_ebss
 154              		.cfi_endproc
 155              	.LFE1:
 156              		.size	ResetHandler, .-ResetHandler
 157              	.Letext0:
 158              		.file 2 "h:\\arm-non-eabi\\arm-none-eabi\\include\\machine\\_default_types.h"
 159              		.file 3 "h:\\arm-non-eabi\\arm-none-eabi\\include\\stdint.h"
 160              		.section	.debug_info,"",%progbits
 161              	.Ldebug_info0:
 162 0000 1E010000 		.4byte	0x11e
 163 0004 0200     		.2byte	0x2
 164 0006 00000000 		.4byte	.Ldebug_abbrev0
 165 000a 04       		.byte	0x4
 166 000b 01       		.uleb128 0x1
 167 000c 6A000000 		.4byte	.LASF19
 168 0010 01       		.byte	0x1
 169 0011 0D000000 		.4byte	.LASF20
 170 0015 2A000000 		.4byte	.LASF21
 171 0019 00000000 		.4byte	.Ltext0
 172 001d 70000000 		.4byte	.Letext0
 173 0021 00000000 		.4byte	.Ldebug_line0
 174 0025 02       		.uleb128 0x2
 175 0026 01       		.byte	0x1
 176 0027 06       		.byte	0x6
 177 0028 8B010000 		.4byte	.LASF0
 178 002c 02       		.uleb128 0x2
 179 002d 01       		.byte	0x1
 180 002e 08       		.byte	0x8
 181 002f 55000000 		.4byte	.LASF1
 182 0033 02       		.uleb128 0x2
 183 0034 02       		.byte	0x2
 184 0035 05       		.byte	0x5
 185 0036 6F010000 		.4byte	.LASF2
 186 003a 02       		.uleb128 0x2
 187 003b 02       		.byte	0x2
 188 003c 07       		.byte	0x7
 189 003d 0D010000 		.4byte	.LASF3
 190 0041 02       		.uleb128 0x2
 191 0042 04       		.byte	0x4
 192 0043 05       		.byte	0x5
 193 0044 82010000 		.4byte	.LASF4
 194 0048 03       		.uleb128 0x3
 195 0049 20010000 		.4byte	.LASF9
 196 004d 02       		.byte	0x2
 197 004e 38       		.byte	0x38
 198 004f 53000000 		.4byte	0x53
 199 0053 02       		.uleb128 0x2
 200 0054 04       		.byte	0x4
 201 0055 07       		.byte	0x7
 202 0056 EE000000 		.4byte	.LASF5
 203 005a 02       		.uleb128 0x2
 204 005b 08       		.byte	0x8
ARM GAS  C:\Users\Akil\AppData\Local\Temp\ccKhHrr3.s 			page 7


 205 005c 05       		.byte	0x5
 206 005d 61010000 		.4byte	.LASF6
 207 0061 02       		.uleb128 0x2
 208 0062 08       		.byte	0x8
 209 0063 07       		.byte	0x7
 210 0064 38010000 		.4byte	.LASF7
 211 0068 04       		.uleb128 0x4
 212 0069 04       		.byte	0x4
 213 006a 05       		.byte	0x5
 214 006b 696E7400 		.ascii	"int\000"
 215 006f 02       		.uleb128 0x2
 216 0070 04       		.byte	0x4
 217 0071 07       		.byte	0x7
 218 0072 2B010000 		.4byte	.LASF8
 219 0076 03       		.uleb128 0x3
 220 0077 79010000 		.4byte	.LASF10
 221 007b 03       		.byte	0x3
 222 007c 42       		.byte	0x42
 223 007d 48000000 		.4byte	0x48
 224 0081 05       		.uleb128 0x5
 225 0082 01       		.byte	0x1
 226 0083 56010000 		.4byte	.LASF22
 227 0087 01       		.byte	0x1
 228 0088 4A       		.byte	0x4a
 229 0089 01       		.byte	0x1
 230 008a 00000000 		.4byte	.LFB0
 231 008e 02000000 		.4byte	.LFE0
 232 0092 02       		.byte	0x2
 233 0093 7D       		.byte	0x7d
 234 0094 00       		.sleb128 0
 235 0095 01       		.byte	0x1
 236 0096 06       		.uleb128 0x6
 237 0097 01       		.byte	0x1
 238 0098 00010000 		.4byte	.LASF23
 239 009c 01       		.byte	0x1
 240 009d 54       		.byte	0x54
 241 009e 01       		.byte	0x1
 242 009f 04000000 		.4byte	.LFB1
 243 00a3 70000000 		.4byte	.LFE1
 244 00a7 00000000 		.4byte	.LLST0
 245 00ab 01       		.byte	0x1
 246 00ac CD000000 		.4byte	0xcd
 247 00b0 07       		.uleb128 0x7
 248 00b1 97010000 		.4byte	.LASF11
 249 00b5 01       		.byte	0x1
 250 00b6 56       		.byte	0x56
 251 00b7 CD000000 		.4byte	0xcd
 252 00bb 02       		.byte	0x2
 253 00bc 91       		.byte	0x91
 254 00bd 74       		.sleb128 -12
 255 00be 07       		.uleb128 0x7
 256 00bf 24000000 		.4byte	.LASF12
 257 00c3 01       		.byte	0x1
 258 00c4 57       		.byte	0x57
 259 00c5 CD000000 		.4byte	0xcd
 260 00c9 02       		.byte	0x2
 261 00ca 91       		.byte	0x91
ARM GAS  C:\Users\Akil\AppData\Local\Temp\ccKhHrr3.s 			page 8


 262 00cb 70       		.sleb128 -16
 263 00cc 00       		.byte	0
 264 00cd 08       		.uleb128 0x8
 265 00ce 04       		.byte	0x4
 266 00cf 76000000 		.4byte	0x76
 267 00d3 09       		.uleb128 0x9
 268 00d4 1D000000 		.4byte	.LASF13
 269 00d8 01       		.byte	0x1
 270 00d9 2F       		.byte	0x2f
 271 00da 53000000 		.4byte	0x53
 272 00de 01       		.byte	0x1
 273 00df 01       		.byte	0x1
 274 00e0 09       		.uleb128 0x9
 275 00e1 4F010000 		.4byte	.LASF14
 276 00e5 01       		.byte	0x1
 277 00e6 30       		.byte	0x30
 278 00e7 53000000 		.4byte	0x53
 279 00eb 01       		.byte	0x1
 280 00ec 01       		.byte	0x1
 281 00ed 09       		.uleb128 0x9
 282 00ee 00000000 		.4byte	.LASF15
 283 00f2 01       		.byte	0x1
 284 00f3 31       		.byte	0x31
 285 00f4 53000000 		.4byte	0x53
 286 00f8 01       		.byte	0x1
 287 00f9 01       		.byte	0x1
 288 00fa 09       		.uleb128 0x9
 289 00fb 63000000 		.4byte	.LASF16
 290 00ff 01       		.byte	0x1
 291 0100 32       		.byte	0x32
 292 0101 53000000 		.4byte	0x53
 293 0105 01       		.byte	0x1
 294 0106 01       		.byte	0x1
 295 0107 09       		.uleb128 0x9
 296 0108 07000000 		.4byte	.LASF17
 297 010c 01       		.byte	0x1
 298 010d 33       		.byte	0x33
 299 010e 53000000 		.4byte	0x53
 300 0112 01       		.byte	0x1
 301 0113 01       		.byte	0x1
 302 0114 09       		.uleb128 0x9
 303 0115 17000000 		.4byte	.LASF18
 304 0119 01       		.byte	0x1
 305 011a 34       		.byte	0x34
 306 011b 53000000 		.4byte	0x53
 307 011f 01       		.byte	0x1
 308 0120 01       		.byte	0x1
 309 0121 00       		.byte	0
 310              		.section	.debug_abbrev,"",%progbits
 311              	.Ldebug_abbrev0:
 312 0000 01       		.uleb128 0x1
 313 0001 11       		.uleb128 0x11
 314 0002 01       		.byte	0x1
 315 0003 25       		.uleb128 0x25
 316 0004 0E       		.uleb128 0xe
 317 0005 13       		.uleb128 0x13
 318 0006 0B       		.uleb128 0xb
ARM GAS  C:\Users\Akil\AppData\Local\Temp\ccKhHrr3.s 			page 9


 319 0007 03       		.uleb128 0x3
 320 0008 0E       		.uleb128 0xe
 321 0009 1B       		.uleb128 0x1b
 322 000a 0E       		.uleb128 0xe
 323 000b 11       		.uleb128 0x11
 324 000c 01       		.uleb128 0x1
 325 000d 12       		.uleb128 0x12
 326 000e 01       		.uleb128 0x1
 327 000f 10       		.uleb128 0x10
 328 0010 06       		.uleb128 0x6
 329 0011 00       		.byte	0
 330 0012 00       		.byte	0
 331 0013 02       		.uleb128 0x2
 332 0014 24       		.uleb128 0x24
 333 0015 00       		.byte	0
 334 0016 0B       		.uleb128 0xb
 335 0017 0B       		.uleb128 0xb
 336 0018 3E       		.uleb128 0x3e
 337 0019 0B       		.uleb128 0xb
 338 001a 03       		.uleb128 0x3
 339 001b 0E       		.uleb128 0xe
 340 001c 00       		.byte	0
 341 001d 00       		.byte	0
 342 001e 03       		.uleb128 0x3
 343 001f 16       		.uleb128 0x16
 344 0020 00       		.byte	0
 345 0021 03       		.uleb128 0x3
 346 0022 0E       		.uleb128 0xe
 347 0023 3A       		.uleb128 0x3a
 348 0024 0B       		.uleb128 0xb
 349 0025 3B       		.uleb128 0x3b
 350 0026 0B       		.uleb128 0xb
 351 0027 49       		.uleb128 0x49
 352 0028 13       		.uleb128 0x13
 353 0029 00       		.byte	0
 354 002a 00       		.byte	0
 355 002b 04       		.uleb128 0x4
 356 002c 24       		.uleb128 0x24
 357 002d 00       		.byte	0
 358 002e 0B       		.uleb128 0xb
 359 002f 0B       		.uleb128 0xb
 360 0030 3E       		.uleb128 0x3e
 361 0031 0B       		.uleb128 0xb
 362 0032 03       		.uleb128 0x3
 363 0033 08       		.uleb128 0x8
 364 0034 00       		.byte	0
 365 0035 00       		.byte	0
 366 0036 05       		.uleb128 0x5
 367 0037 2E       		.uleb128 0x2e
 368 0038 00       		.byte	0
 369 0039 3F       		.uleb128 0x3f
 370 003a 0C       		.uleb128 0xc
 371 003b 03       		.uleb128 0x3
 372 003c 0E       		.uleb128 0xe
 373 003d 3A       		.uleb128 0x3a
 374 003e 0B       		.uleb128 0xb
 375 003f 3B       		.uleb128 0x3b
ARM GAS  C:\Users\Akil\AppData\Local\Temp\ccKhHrr3.s 			page 10


 376 0040 0B       		.uleb128 0xb
 377 0041 27       		.uleb128 0x27
 378 0042 0C       		.uleb128 0xc
 379 0043 11       		.uleb128 0x11
 380 0044 01       		.uleb128 0x1
 381 0045 12       		.uleb128 0x12
 382 0046 01       		.uleb128 0x1
 383 0047 40       		.uleb128 0x40
 384 0048 0A       		.uleb128 0xa
 385 0049 9742     		.uleb128 0x2117
 386 004b 0C       		.uleb128 0xc
 387 004c 00       		.byte	0
 388 004d 00       		.byte	0
 389 004e 06       		.uleb128 0x6
 390 004f 2E       		.uleb128 0x2e
 391 0050 01       		.byte	0x1
 392 0051 3F       		.uleb128 0x3f
 393 0052 0C       		.uleb128 0xc
 394 0053 03       		.uleb128 0x3
 395 0054 0E       		.uleb128 0xe
 396 0055 3A       		.uleb128 0x3a
 397 0056 0B       		.uleb128 0xb
 398 0057 3B       		.uleb128 0x3b
 399 0058 0B       		.uleb128 0xb
 400 0059 27       		.uleb128 0x27
 401 005a 0C       		.uleb128 0xc
 402 005b 11       		.uleb128 0x11
 403 005c 01       		.uleb128 0x1
 404 005d 12       		.uleb128 0x12
 405 005e 01       		.uleb128 0x1
 406 005f 40       		.uleb128 0x40
 407 0060 06       		.uleb128 0x6
 408 0061 9642     		.uleb128 0x2116
 409 0063 0C       		.uleb128 0xc
 410 0064 01       		.uleb128 0x1
 411 0065 13       		.uleb128 0x13
 412 0066 00       		.byte	0
 413 0067 00       		.byte	0
 414 0068 07       		.uleb128 0x7
 415 0069 34       		.uleb128 0x34
 416 006a 00       		.byte	0
 417 006b 03       		.uleb128 0x3
 418 006c 0E       		.uleb128 0xe
 419 006d 3A       		.uleb128 0x3a
 420 006e 0B       		.uleb128 0xb
 421 006f 3B       		.uleb128 0x3b
 422 0070 0B       		.uleb128 0xb
 423 0071 49       		.uleb128 0x49
 424 0072 13       		.uleb128 0x13
 425 0073 02       		.uleb128 0x2
 426 0074 0A       		.uleb128 0xa
 427 0075 00       		.byte	0
 428 0076 00       		.byte	0
 429 0077 08       		.uleb128 0x8
 430 0078 0F       		.uleb128 0xf
 431 0079 00       		.byte	0
 432 007a 0B       		.uleb128 0xb
ARM GAS  C:\Users\Akil\AppData\Local\Temp\ccKhHrr3.s 			page 11


 433 007b 0B       		.uleb128 0xb
 434 007c 49       		.uleb128 0x49
 435 007d 13       		.uleb128 0x13
 436 007e 00       		.byte	0
 437 007f 00       		.byte	0
 438 0080 09       		.uleb128 0x9
 439 0081 34       		.uleb128 0x34
 440 0082 00       		.byte	0
 441 0083 03       		.uleb128 0x3
 442 0084 0E       		.uleb128 0xe
 443 0085 3A       		.uleb128 0x3a
 444 0086 0B       		.uleb128 0xb
 445 0087 3B       		.uleb128 0x3b
 446 0088 0B       		.uleb128 0xb
 447 0089 49       		.uleb128 0x49
 448 008a 13       		.uleb128 0x13
 449 008b 3F       		.uleb128 0x3f
 450 008c 0C       		.uleb128 0xc
 451 008d 3C       		.uleb128 0x3c
 452 008e 0C       		.uleb128 0xc
 453 008f 00       		.byte	0
 454 0090 00       		.byte	0
 455 0091 00       		.byte	0
 456              		.section	.debug_loc,"",%progbits
 457              	.Ldebug_loc0:
 458              	.LLST0:
 459 0000 04000000 		.4byte	.LFB1-.Ltext0
 460 0004 06000000 		.4byte	.LCFI0-.Ltext0
 461 0008 0200     		.2byte	0x2
 462 000a 7D       		.byte	0x7d
 463 000b 00       		.sleb128 0
 464 000c 06000000 		.4byte	.LCFI0-.Ltext0
 465 0010 08000000 		.4byte	.LCFI1-.Ltext0
 466 0014 0200     		.2byte	0x2
 467 0016 7D       		.byte	0x7d
 468 0017 04       		.sleb128 4
 469 0018 08000000 		.4byte	.LCFI1-.Ltext0
 470 001c 70000000 		.4byte	.LFE1-.Ltext0
 471 0020 0200     		.2byte	0x2
 472 0022 7D       		.byte	0x7d
 473 0023 10       		.sleb128 16
 474 0024 00000000 		.4byte	0
 475 0028 00000000 		.4byte	0
 476              		.section	.debug_aranges,"",%progbits
 477 0000 1C000000 		.4byte	0x1c
 478 0004 0200     		.2byte	0x2
 479 0006 00000000 		.4byte	.Ldebug_info0
 480 000a 04       		.byte	0x4
 481 000b 00       		.byte	0
 482 000c 0000     		.2byte	0
 483 000e 0000     		.2byte	0
 484 0010 00000000 		.4byte	.Ltext0
 485 0014 70000000 		.4byte	.Letext0-.Ltext0
 486 0018 00000000 		.4byte	0
 487 001c 00000000 		.4byte	0
 488              		.section	.debug_line,"",%progbits
 489              	.Ldebug_line0:
ARM GAS  C:\Users\Akil\AppData\Local\Temp\ccKhHrr3.s 			page 12


 490 0000 CD000000 		.section	.debug_str,"MS",%progbits,1
 490      02009400 
 490      00000201 
 490      FB0E0D00 
 490      01010101 
 491              	.LASF15:
 492 0000 5F736461 		.ascii	"_sdata\000"
 492      746100
 493              	.LASF17:
 494 0007 5F736273 		.ascii	"_sbss\000"
 494      7300
 495              	.LASF20:
 496 000d 7372632F 		.ascii	"src/crt.c\000"
 496      6372742E 
 496      6300
 497              	.LASF18:
 498 0017 5F656273 		.ascii	"_ebss\000"
 498      7300
 499              	.LASF13:
 500 001d 5F737465 		.ascii	"_stext\000"
 500      787400
 501              	.LASF12:
 502 0024 70446573 		.ascii	"pDest\000"
 502      7400
 503              	.LASF21:
 504 002a 643A5C54 		.ascii	"d:\\Testing\\canopen_make\\Application_Master\000"
 504      65737469 
 504      6E675C63 
 504      616E6F70 
 504      656E5F6D 
 505              	.LASF1:
 506 0055 756E7369 		.ascii	"unsigned char\000"
 506      676E6564 
 506      20636861 
 506      7200
 507              	.LASF16:
 508 0063 5F656461 		.ascii	"_edata\000"
 508      746100
 509              	.LASF19:
 510 006a 474E5520 		.ascii	"GNU C 4.8.4 20140526 (release) [ARM/embedded-4_8-br"
 510      4320342E 
 510      382E3420 
 510      32303134 
 510      30353236 
 511 009d 616E6368 		.ascii	"anch revision 211358] -mcpu=cortex-m3 -mthumb -gdwa"
 511      20726576 
 511      6973696F 
 511      6E203231 
 511      31333538 
 512 00d0 72662D32 		.ascii	"rf-2 -O0 -fomit-frame-pointer\000"
 512      202D4F30 
 512      202D666F 
 512      6D69742D 
 512      6672616D 
 513              	.LASF5:
 514 00ee 6C6F6E67 		.ascii	"long unsigned int\000"
 514      20756E73 
ARM GAS  C:\Users\Akil\AppData\Local\Temp\ccKhHrr3.s 			page 13


 514      69676E65 
 514      6420696E 
 514      7400
 515              	.LASF23:
 516 0100 52657365 		.ascii	"ResetHandler\000"
 516      7448616E 
 516      646C6572 
 516      00
 517              	.LASF3:
 518 010d 73686F72 		.ascii	"short unsigned int\000"
 518      7420756E 
 518      7369676E 
 518      65642069 
 518      6E7400
 519              	.LASF9:
 520 0120 5F5F7569 		.ascii	"__uint32_t\000"
 520      6E743332 
 520      5F7400
 521              	.LASF8:
 522 012b 756E7369 		.ascii	"unsigned int\000"
 522      676E6564 
 522      20696E74 
 522      00
 523              	.LASF7:
 524 0138 6C6F6E67 		.ascii	"long long unsigned int\000"
 524      206C6F6E 
 524      6720756E 
 524      7369676E 
 524      65642069 
 525              	.LASF14:
 526 014f 5F657465 		.ascii	"_etext\000"
 526      787400
 527              	.LASF22:
 528 0156 53797374 		.ascii	"SystemInit\000"
 528      656D496E 
 528      697400
 529              	.LASF6:
 530 0161 6C6F6E67 		.ascii	"long long int\000"
 530      206C6F6E 
 530      6720696E 
 530      7400
 531              	.LASF2:
 532 016f 73686F72 		.ascii	"short int\000"
 532      7420696E 
 532      7400
 533              	.LASF10:
 534 0179 75696E74 		.ascii	"uint32_t\000"
 534      33325F74 
 534      00
 535              	.LASF4:
 536 0182 6C6F6E67 		.ascii	"long int\000"
 536      20696E74 
 536      00
 537              	.LASF0:
 538 018b 7369676E 		.ascii	"signed char\000"
 538      65642063 
 538      68617200 
ARM GAS  C:\Users\Akil\AppData\Local\Temp\ccKhHrr3.s 			page 14


 539              	.LASF11:
 540 0197 70537263 		.ascii	"pSrc\000"
 540      00
 541              		.ident	"GCC: (GNU Tools for ARM Embedded Processors) 4.8.4 20140526 (release) [ARM/embedded-4_8-br
ARM GAS  C:\Users\Akil\AppData\Local\Temp\ccKhHrr3.s 			page 15


DEFINED SYMBOLS
                            *ABS*:00000000 crt.c
C:\Users\Akil\AppData\Local\Temp\ccKhHrr3.s:55     .text:00000000 $t
C:\Users\Akil\AppData\Local\Temp\ccKhHrr3.s:60     .text:00000000 SystemInit
C:\Users\Akil\AppData\Local\Temp\ccKhHrr3.s:78     .text:00000004 ResetHandler
C:\Users\Akil\AppData\Local\Temp\ccKhHrr3.s:147    .text:00000054 $d
                     .debug_frame:00000010 $d

UNDEFINED SYMBOLS
main
_stext
_etext
_sdata
_edata
_sbss
_ebss
