ARM GAS  C:\Users\Akil\AppData\Local\Temp\ccYyRyEf.s 			page 1


   1              		.syntax unified
   2              		.cpu cortex-m3
   3              		.fpu softvfp
   4              		.eabi_attribute 20, 1	@ Tag_ABI_FP_denormal
   5              		.eabi_attribute 21, 1	@ Tag_ABI_FP_exceptions
   6              		.eabi_attribute 23, 3	@ Tag_ABI_FP_number_model
   7              		.eabi_attribute 24, 1	@ Tag_ABI_align8_needed
   8              		.eabi_attribute 25, 1	@ Tag_ABI_align8_preserved
   9              		.eabi_attribute 26, 1	@ Tag_ABI_enum_size
  10              		.eabi_attribute 30, 6	@ Tag_ABI_optimization_goals
  11              		.eabi_attribute 34, 1	@ Tag_CPU_unaligned_access
  12              		.eabi_attribute 18, 4	@ Tag_ABI_PCS_wchar_t
  13              		.file	"vectors_lpc1768.c"
  14              	@ GNU C (GNU Tools for ARM Embedded Processors) version 4.8.4 20140526 (release) [ARM/embedded-4_8-
  15              	@	compiled by GNU C version 4.6.4, GMP version 4.3.2, MPFR version 2.4.2, MPC version 0.8.1
  16              	@ GGC heuristics: --param ggc-min-expand=100 --param ggc-min-heapsize=131072
  17              	@ options passed:  -I . -I ./include -I ./cmsis/core -I ./cmsis/device
  18              	@ -I ./prime-framework -I ./prime-framework/include
  19              	@ -I ./prime-framework/arch/arm/cortex-m3/lpc1768/include
  20              	@ -I ./prime-framework/common/include -I ./prime-framework/utils/include
  21              	@ -I ./prime-framework/nativehardware/lpc1768/include
  22              	@ -I ./prime-framework/device/include
  23              	@ -I ./prime-framework/extensions/CANopenARM/include -imultilib armv7-m
  24              	@ -iprefix h:\arm-non-eabi\bin\../lib/gcc/arm-none-eabi/4.8.4/
  25              	@ -isysroot h:\arm-non-eabi\bin\../arm-none-eabi -MD src/vectors_lpc1768.d
  26              	@ -MF .dep/vectors_lpc1768.o.d -MP -MQ src/vectors_lpc1768.o
  27              	@ -D__USES_INITFINI__ -D CORE_FAMILY_arm -D MCU_CHIP_lpc1768 -D PRIME_DEBUG
  28              	@ -D RUN_FROM_FLASH=1 src/vectors_lpc1768.c -mcpu=cortex-m3 -mthumb
  29              	@ -auxbase-strip src/vectors_lpc1768.o -gdwarf-2 -O0 -Wall
  30              	@ -Wstrict-prototypes -fomit-frame-pointer -fverbose-asm
  31              	@ options enabled:  -faggressive-loop-optimizations -fauto-inc-dec
  32              	@ -fbranch-count-reg -fcommon -fdelete-null-pointer-checks -fdwarf2-cfi-asm
  33              	@ -fearly-inlining -feliminate-unused-debug-types -ffunction-cse -fgcse-lm
  34              	@ -fgnu-runtime -fident -finline-atomics -fira-hoist-pressure
  35              	@ -fira-share-save-slots -fira-share-spill-slots -fivopts
  36              	@ -fkeep-static-consts -fleading-underscore -fmath-errno
  37              	@ -fmerge-debug-strings -fmove-loop-invariants -fomit-frame-pointer
  38              	@ -fpeephole -fprefetch-loop-arrays -freg-struct-return
  39              	@ -fsched-critical-path-heuristic -fsched-dep-count-heuristic
  40              	@ -fsched-group-heuristic -fsched-interblock -fsched-last-insn-heuristic
  41              	@ -fsched-rank-heuristic -fsched-spec -fsched-spec-insn-heuristic
  42              	@ -fsched-stalled-insns-dep -fshow-column -fsigned-zeros
  43              	@ -fsplit-ivs-in-unroller -fstrict-volatile-bitfields -fsync-libcalls
  44              	@ -ftrapping-math -ftree-coalesce-vars -ftree-cselim -ftree-forwprop
  45              	@ -ftree-loop-if-convert -ftree-loop-im -ftree-loop-ivcanon
  46              	@ -ftree-loop-optimize -ftree-parallelize-loops= -ftree-phiprop -ftree-pta
  47              	@ -ftree-reassoc -ftree-scev-cprop -ftree-slp-vectorize
  48              	@ -ftree-vect-loop-version -funit-at-a-time -fverbose-asm
  49              	@ -fzero-initialized-in-bss -mfix-cortex-m3-ldrd -mlittle-endian
  50              	@ -mpic-data-is-text-relative -msched-prolog -mthumb -munaligned-access
  51              	@ -mvectorize-with-neon-quad
  52              	
  53              		.text
  54              	.Ltext0:
  55              		.cfi_sections	.debug_frame
  56              		.global	gVectors
  57              		.section	.vectors,"a",%progbits
ARM GAS  C:\Users\Akil\AppData\Local\Temp\ccYyRyEf.s 			page 2


  58              		.align	2
  59              		.type	gVectors, %object
  60              		.size	gVectors, 192
  61              	gVectors:
  62 0000 00000000 		.word	_estack
  63 0004 00000000 		.word	ResetHandler
  64 0008 00000000 		.word	NMI_Handler
  65 000c 00000000 		.word	HardFault_Handler
  66 0010 00000000 		.word	MemManage_Handler
  67 0014 00000000 		.word	BusFault_Handler
  68 0018 00000000 		.word	UsageFault_Handler
  69 001c 00000000 		.word	0
  70 0020 00000000 		.word	0
  71 0024 00000000 		.word	0
  72 0028 00000000 		.word	0
  73 002c 00000000 		.word	SVC_Handler
  74 0030 00000000 		.word	DebugMon_Handler
  75 0034 00000000 		.word	0
  76 0038 00000000 		.word	PendSV_Handler
  77 003c 00000000 		.word	SysTick_Handler
  78 0040 00000000 		.word	WDT_IRQHandler
  79 0044 00000000 		.word	TIMER0_IRQHandler
  80 0048 00000000 		.word	TIMER1_IRQHandler
  81 004c 00000000 		.word	TIMER2_IRQHandler
  82 0050 00000000 		.word	TIMER3_IRQHandler
  83 0054 00000000 		.word	UART0_IRQHandler
  84 0058 00000000 		.word	UART1_IRQHandler
  85 005c 00000000 		.word	UART2_IRQHandler
  86 0060 00000000 		.word	UART3_IRQHandler
  87 0064 00000000 		.word	PWM_IRQHandler
  88 0068 00000000 		.word	I2C0_IRQHandler
  89 006c 00000000 		.word	I2C1_IRQHandler
  90 0070 00000000 		.word	I2C2_IRQHandler
  91 0074 00000000 		.word	SPI_IRQHandler
  92 0078 00000000 		.word	SSP0_IRQHandler
  93 007c 00000000 		.word	SSP1_IRQHandler
  94 0080 00000000 		.word	PLL0_IRQHandler
  95 0084 00000000 		.word	RTC_IRQHandler
  96 0088 00000000 		.word	EINT0_IRQHandler
  97 008c 00000000 		.word	EINT1_IRQHandler
  98 0090 00000000 		.word	EINT2_IRQHandler
  99 0094 00000000 		.word	EINT3_IRQHandler
 100 0098 00000000 		.word	ADC_IRQHandler
 101 009c 00000000 		.word	BOD_IRQHandler
 102 00a0 00000000 		.word	USB_IRQHandler
 103 00a4 00000000 		.word	CAN_IRQHandler
 104 00a8 00000000 		.word	DMA_IRQHandler
 105 00ac 00000000 		.word	I2S_IRQHandler
 106 00b0 00000000 		.word	ENET_IRQHandler
 107 00b4 00000000 		.word	RIT_IRQHandler
 108 00b8 00000000 		.word	MCPWM_IRQHandler
 109 00bc 00000000 		.word	QEI_IRQHandler
 110              		.text
 111              		.align	2
 112              		.weak	NMI_Handler
 113              		.thumb
 114              		.thumb_func
ARM GAS  C:\Users\Akil\AppData\Local\Temp\ccYyRyEf.s 			page 3


 115              		.type	NMI_Handler, %function
 116              	NMI_Handler:
 117              	.LFB0:
 118              		.file 1 "src/vectors_lpc1768.c"
   1:src/vectors_lpc1768.c **** /****************************************************************************
   2:src/vectors_lpc1768.c **** *  Copyright (c) 2011 by Michael Fischer. All rights reserved.
   3:src/vectors_lpc1768.c **** *
   4:src/vectors_lpc1768.c **** *  Redistribution and use in source and binary forms, with or without 
   5:src/vectors_lpc1768.c **** *  modification, are permitted provided that the following conditions 
   6:src/vectors_lpc1768.c **** *  are met:
   7:src/vectors_lpc1768.c **** *  
   8:src/vectors_lpc1768.c **** *  1. Redistributions of source code must retain the above copyright 
   9:src/vectors_lpc1768.c **** *     notice, this list of conditions and the following disclaimer.
  10:src/vectors_lpc1768.c **** *  2. Redistributions in binary form must reproduce the above copyright
  11:src/vectors_lpc1768.c **** *     notice, this list of conditions and the following disclaimer in the 
  12:src/vectors_lpc1768.c **** *     documentation and/or other materials provided with the distribution.
  13:src/vectors_lpc1768.c **** *  3. Neither the name of the author nor the names of its contributors may 
  14:src/vectors_lpc1768.c **** *     be used to endorse or promote products derived from this software 
  15:src/vectors_lpc1768.c **** *     without specific prior written permission.
  16:src/vectors_lpc1768.c **** *
  17:src/vectors_lpc1768.c **** *  THIS SOFTWARE IS PROVIDED BY THE COPYRIGHT HOLDERS AND CONTRIBUTORS 
  18:src/vectors_lpc1768.c **** *  "AS IS" AND ANY EXPRESS OR IMPLIED WARRANTIES, INCLUDING, BUT NOT 
  19:src/vectors_lpc1768.c **** *  LIMITED TO, THE IMPLIED WARRANTIES OF MERCHANTABILITY AND FITNESS 
  20:src/vectors_lpc1768.c **** *  FOR A PARTICULAR PURPOSE ARE DISCLAIMED. IN NO EVENT SHALL 
  21:src/vectors_lpc1768.c **** *  THE COPYRIGHT OWNER OR CONTRIBUTORS BE LIABLE FOR ANY DIRECT, INDIRECT, 
  22:src/vectors_lpc1768.c **** *  INCIDENTAL, SPECIAL, EXEMPLARY, OR CONSEQUENTIAL DAMAGES (INCLUDING, 
  23:src/vectors_lpc1768.c **** *  BUT NOT LIMITED TO, PROCUREMENT OF SUBSTITUTE GOODS OR SERVICES; LOSS 
  24:src/vectors_lpc1768.c **** *  OF USE, DATA, OR PROFITS; OR BUSINESS INTERRUPTION) HOWEVER CAUSED 
  25:src/vectors_lpc1768.c **** *  AND ON ANY THEORY OF LIABILITY, WHETHER IN CONTRACT, STRICT LIABILITY, 
  26:src/vectors_lpc1768.c **** *  OR TORT (INCLUDING NEGLIGENCE OR OTHERWISE) ARISING IN ANY WAY OUT OF 
  27:src/vectors_lpc1768.c **** *  THE USE OF THIS SOFTWARE, EVEN IF ADVISED OF THE POSSIBILITY OF 
  28:src/vectors_lpc1768.c **** *  SUCH DAMAGE.
  29:src/vectors_lpc1768.c **** *
  30:src/vectors_lpc1768.c **** ****************************************************************************
  31:src/vectors_lpc1768.c **** *  History:
  32:src/vectors_lpc1768.c **** *
  33:src/vectors_lpc1768.c **** *  09.04.2011  mifi  First Version for the LPC1768
  34:src/vectors_lpc1768.c **** ****************************************************************************/
  35:src/vectors_lpc1768.c **** #define __VECTORS_LPC1768_C__
  36:src/vectors_lpc1768.c **** 
  37:src/vectors_lpc1768.c **** /*=========================================================================*/
  38:src/vectors_lpc1768.c **** /*  DEFINE: All extern Data                                                */
  39:src/vectors_lpc1768.c **** /*=========================================================================*/
  40:src/vectors_lpc1768.c **** extern unsigned long _estack;
  41:src/vectors_lpc1768.c **** 
  42:src/vectors_lpc1768.c **** /*=========================================================================*/
  43:src/vectors_lpc1768.c **** /*  DEFINE: Prototypes                                                     */
  44:src/vectors_lpc1768.c **** /*=========================================================================*/
  45:src/vectors_lpc1768.c **** void ResetHandler(void);
  46:src/vectors_lpc1768.c **** 
  47:src/vectors_lpc1768.c **** void NMI_Handler (void) __attribute__((weak));
  48:src/vectors_lpc1768.c **** void HardFault_Handler (void) __attribute__((weak));
  49:src/vectors_lpc1768.c **** void MemManage_Handler (void) __attribute__((weak));
  50:src/vectors_lpc1768.c **** void BusFault_Handler (void) __attribute__((weak));
  51:src/vectors_lpc1768.c **** void UsageFault_Handler (void) __attribute__((weak));
  52:src/vectors_lpc1768.c **** void SVC_Handler (void) __attribute__((weak));
  53:src/vectors_lpc1768.c **** void DebugMon_Handler (void) __attribute__((weak));
ARM GAS  C:\Users\Akil\AppData\Local\Temp\ccYyRyEf.s 			page 4


  54:src/vectors_lpc1768.c **** void PendSV_Handler (void) __attribute__((weak));
  55:src/vectors_lpc1768.c **** void SysTick_Handler (void) __attribute__((weak));
  56:src/vectors_lpc1768.c **** 
  57:src/vectors_lpc1768.c **** void WDT_IRQHandler (void) __attribute__((weak));
  58:src/vectors_lpc1768.c **** void TIMER0_IRQHandler (void) __attribute__((weak));
  59:src/vectors_lpc1768.c **** void TIMER1_IRQHandler (void) __attribute__((weak));
  60:src/vectors_lpc1768.c **** void TIMER2_IRQHandler (void) __attribute__((weak));
  61:src/vectors_lpc1768.c **** void TIMER3_IRQHandler (void) __attribute__((weak));
  62:src/vectors_lpc1768.c **** void UART0_IRQHandler (void) __attribute__((weak));
  63:src/vectors_lpc1768.c **** void UART1_IRQHandler (void) __attribute__((weak));
  64:src/vectors_lpc1768.c **** void UART2_IRQHandler (void) __attribute__((weak));
  65:src/vectors_lpc1768.c **** void UART3_IRQHandler (void) __attribute__((weak));
  66:src/vectors_lpc1768.c **** void PWM_IRQHandler (void) __attribute__((weak));
  67:src/vectors_lpc1768.c **** void I2C0_IRQHandler (void) __attribute__((weak));
  68:src/vectors_lpc1768.c **** void I2C1_IRQHandler (void) __attribute__((weak));
  69:src/vectors_lpc1768.c **** void I2C2_IRQHandler (void) __attribute__((weak));
  70:src/vectors_lpc1768.c **** void SPI_IRQHandler (void) __attribute__((weak));
  71:src/vectors_lpc1768.c **** void SSP0_IRQHandler (void) __attribute__((weak));
  72:src/vectors_lpc1768.c **** void SSP1_IRQHandler (void) __attribute__((weak));
  73:src/vectors_lpc1768.c **** void PLL0_IRQHandler (void) __attribute__((weak));
  74:src/vectors_lpc1768.c **** void RTC_IRQHandler (void) __attribute__((weak));
  75:src/vectors_lpc1768.c **** void EINT0_IRQHandler (void) __attribute__((weak));
  76:src/vectors_lpc1768.c **** void EINT1_IRQHandler (void) __attribute__((weak));
  77:src/vectors_lpc1768.c **** void EINT2_IRQHandler (void) __attribute__((weak));
  78:src/vectors_lpc1768.c **** void EINT3_IRQHandler (void) __attribute__((weak));
  79:src/vectors_lpc1768.c **** void ADC_IRQHandler (void) __attribute__((weak));
  80:src/vectors_lpc1768.c **** void BOD_IRQHandler (void) __attribute__((weak));
  81:src/vectors_lpc1768.c **** void USB_IRQHandler (void) __attribute__((weak));
  82:src/vectors_lpc1768.c **** void CAN_IRQHandler (void) __attribute__((weak));
  83:src/vectors_lpc1768.c **** void DMA_IRQHandler (void) __attribute__((weak));
  84:src/vectors_lpc1768.c **** void I2S_IRQHandler (void) __attribute__((weak));
  85:src/vectors_lpc1768.c **** void ENET_IRQHandler (void) __attribute__((weak));
  86:src/vectors_lpc1768.c **** void RIT_IRQHandler (void) __attribute__((weak));
  87:src/vectors_lpc1768.c **** void MCPWM_IRQHandler (void) __attribute__((weak));
  88:src/vectors_lpc1768.c **** void QEI_IRQHandler (void) __attribute__((weak));
  89:src/vectors_lpc1768.c **** 
  90:src/vectors_lpc1768.c **** /*=========================================================================*/
  91:src/vectors_lpc1768.c **** /*  DEFINE: All code exported                                              */
  92:src/vectors_lpc1768.c **** /*=========================================================================*/
  93:src/vectors_lpc1768.c **** /*
  94:src/vectors_lpc1768.c ****  * This is our vector table.
  95:src/vectors_lpc1768.c ****  */
  96:src/vectors_lpc1768.c **** __attribute__ ((section(".vectors"), used))
  97:src/vectors_lpc1768.c **** void (* const gVectors[])(void) = 
  98:src/vectors_lpc1768.c **** {
  99:src/vectors_lpc1768.c ****    (void (*)(void))((unsigned long)&_estack),
 100:src/vectors_lpc1768.c ****    ResetHandler,
 101:src/vectors_lpc1768.c ****    NMI_Handler,
 102:src/vectors_lpc1768.c ****    HardFault_Handler,
 103:src/vectors_lpc1768.c ****    MemManage_Handler,
 104:src/vectors_lpc1768.c ****    BusFault_Handler,
 105:src/vectors_lpc1768.c ****    UsageFault_Handler,
 106:src/vectors_lpc1768.c ****    0, 0, 0, 0,
 107:src/vectors_lpc1768.c ****    SVC_Handler,
 108:src/vectors_lpc1768.c ****    DebugMon_Handler,
 109:src/vectors_lpc1768.c ****    0,
 110:src/vectors_lpc1768.c ****    PendSV_Handler,
ARM GAS  C:\Users\Akil\AppData\Local\Temp\ccYyRyEf.s 			page 5


 111:src/vectors_lpc1768.c ****    SysTick_Handler,
 112:src/vectors_lpc1768.c ****    
 113:src/vectors_lpc1768.c ****    WDT_IRQHandler,
 114:src/vectors_lpc1768.c ****    TIMER0_IRQHandler,
 115:src/vectors_lpc1768.c ****    TIMER1_IRQHandler,
 116:src/vectors_lpc1768.c ****    TIMER2_IRQHandler,
 117:src/vectors_lpc1768.c ****    TIMER3_IRQHandler,
 118:src/vectors_lpc1768.c ****    UART0_IRQHandler,
 119:src/vectors_lpc1768.c ****    UART1_IRQHandler,
 120:src/vectors_lpc1768.c ****    UART2_IRQHandler,
 121:src/vectors_lpc1768.c ****    UART3_IRQHandler,
 122:src/vectors_lpc1768.c ****    PWM_IRQHandler,
 123:src/vectors_lpc1768.c ****    I2C0_IRQHandler,
 124:src/vectors_lpc1768.c ****    I2C1_IRQHandler,
 125:src/vectors_lpc1768.c ****    I2C2_IRQHandler,
 126:src/vectors_lpc1768.c ****    SPI_IRQHandler,
 127:src/vectors_lpc1768.c ****    SSP0_IRQHandler,
 128:src/vectors_lpc1768.c ****    SSP1_IRQHandler,
 129:src/vectors_lpc1768.c ****    PLL0_IRQHandler,
 130:src/vectors_lpc1768.c ****    RTC_IRQHandler,
 131:src/vectors_lpc1768.c ****    EINT0_IRQHandler,
 132:src/vectors_lpc1768.c ****    EINT1_IRQHandler,
 133:src/vectors_lpc1768.c ****    EINT2_IRQHandler,
 134:src/vectors_lpc1768.c ****    EINT3_IRQHandler,
 135:src/vectors_lpc1768.c ****    ADC_IRQHandler,
 136:src/vectors_lpc1768.c ****    BOD_IRQHandler,
 137:src/vectors_lpc1768.c ****    USB_IRQHandler,
 138:src/vectors_lpc1768.c ****    CAN_IRQHandler,
 139:src/vectors_lpc1768.c ****    DMA_IRQHandler,
 140:src/vectors_lpc1768.c ****    I2S_IRQHandler,
 141:src/vectors_lpc1768.c ****    ENET_IRQHandler,
 142:src/vectors_lpc1768.c ****    RIT_IRQHandler,
 143:src/vectors_lpc1768.c ****    MCPWM_IRQHandler,
 144:src/vectors_lpc1768.c ****    QEI_IRQHandler
 145:src/vectors_lpc1768.c **** }; /* gVectors */
 146:src/vectors_lpc1768.c **** 
 147:src/vectors_lpc1768.c **** /*
 148:src/vectors_lpc1768.c ****  * And here are the weak interrupt handlers.
 149:src/vectors_lpc1768.c ****  */
 150:src/vectors_lpc1768.c **** void NMI_Handler (void) { while(1); }
 119              		.loc 1 150 0
 120              		.cfi_startproc
 121              		@ args = 0, pretend = 0, frame = 0
 122              		@ frame_needed = 0, uses_anonymous_args = 0
 123              		@ link register save eliminated.
 124              	.L2:
 125              		.loc 1 150 0 discriminator 1
 126 0000 FEE7     		b	.L2	@
 127              		.cfi_endproc
 128              	.LFE0:
 129              		.size	NMI_Handler, .-NMI_Handler
 130 0002 00BF     		.align	2
 131              		.weak	HardFault_Handler
 132              		.thumb
 133              		.thumb_func
 134              		.type	HardFault_Handler, %function
 135              	HardFault_Handler:
ARM GAS  C:\Users\Akil\AppData\Local\Temp\ccYyRyEf.s 			page 6


 136              	.LFB1:
 151:src/vectors_lpc1768.c **** void HardFault_Handler (void) { while(1); }
 137              		.loc 1 151 0
 138              		.cfi_startproc
 139              		@ args = 0, pretend = 0, frame = 0
 140              		@ frame_needed = 0, uses_anonymous_args = 0
 141              		@ link register save eliminated.
 142              	.L4:
 143              		.loc 1 151 0 discriminator 1
 144 0004 FEE7     		b	.L4	@
 145              		.cfi_endproc
 146              	.LFE1:
 147              		.size	HardFault_Handler, .-HardFault_Handler
 148 0006 00BF     		.align	2
 149              		.weak	MemManage_Handler
 150              		.thumb
 151              		.thumb_func
 152              		.type	MemManage_Handler, %function
 153              	MemManage_Handler:
 154              	.LFB2:
 152:src/vectors_lpc1768.c **** void MemManage_Handler (void) { while(1); }
 155              		.loc 1 152 0
 156              		.cfi_startproc
 157              		@ args = 0, pretend = 0, frame = 0
 158              		@ frame_needed = 0, uses_anonymous_args = 0
 159              		@ link register save eliminated.
 160              	.L6:
 161              		.loc 1 152 0 discriminator 1
 162 0008 FEE7     		b	.L6	@
 163              		.cfi_endproc
 164              	.LFE2:
 165              		.size	MemManage_Handler, .-MemManage_Handler
 166 000a 00BF     		.align	2
 167              		.weak	BusFault_Handler
 168              		.thumb
 169              		.thumb_func
 170              		.type	BusFault_Handler, %function
 171              	BusFault_Handler:
 172              	.LFB3:
 153:src/vectors_lpc1768.c **** void BusFault_Handler (void) { while(1); }
 173              		.loc 1 153 0
 174              		.cfi_startproc
 175              		@ args = 0, pretend = 0, frame = 0
 176              		@ frame_needed = 0, uses_anonymous_args = 0
 177              		@ link register save eliminated.
 178              	.L8:
 179              		.loc 1 153 0 discriminator 1
 180 000c FEE7     		b	.L8	@
 181              		.cfi_endproc
 182              	.LFE3:
 183              		.size	BusFault_Handler, .-BusFault_Handler
 184 000e 00BF     		.align	2
 185              		.weak	UsageFault_Handler
 186              		.thumb
 187              		.thumb_func
 188              		.type	UsageFault_Handler, %function
 189              	UsageFault_Handler:
ARM GAS  C:\Users\Akil\AppData\Local\Temp\ccYyRyEf.s 			page 7


 190              	.LFB4:
 154:src/vectors_lpc1768.c **** void UsageFault_Handler (void) { while(1); }
 191              		.loc 1 154 0
 192              		.cfi_startproc
 193              		@ args = 0, pretend = 0, frame = 0
 194              		@ frame_needed = 0, uses_anonymous_args = 0
 195              		@ link register save eliminated.
 196              	.L10:
 197              		.loc 1 154 0 discriminator 1
 198 0010 FEE7     		b	.L10	@
 199              		.cfi_endproc
 200              	.LFE4:
 201              		.size	UsageFault_Handler, .-UsageFault_Handler
 202 0012 00BF     		.align	2
 203              		.weak	SVC_Handler
 204              		.thumb
 205              		.thumb_func
 206              		.type	SVC_Handler, %function
 207              	SVC_Handler:
 208              	.LFB5:
 155:src/vectors_lpc1768.c **** void SVC_Handler (void) { while(1); }
 209              		.loc 1 155 0
 210              		.cfi_startproc
 211              		@ args = 0, pretend = 0, frame = 0
 212              		@ frame_needed = 0, uses_anonymous_args = 0
 213              		@ link register save eliminated.
 214              	.L12:
 215              		.loc 1 155 0 discriminator 1
 216 0014 FEE7     		b	.L12	@
 217              		.cfi_endproc
 218              	.LFE5:
 219              		.size	SVC_Handler, .-SVC_Handler
 220 0016 00BF     		.align	2
 221              		.weak	DebugMon_Handler
 222              		.thumb
 223              		.thumb_func
 224              		.type	DebugMon_Handler, %function
 225              	DebugMon_Handler:
 226              	.LFB6:
 156:src/vectors_lpc1768.c **** void DebugMon_Handler (void) { while(1); }
 227              		.loc 1 156 0
 228              		.cfi_startproc
 229              		@ args = 0, pretend = 0, frame = 0
 230              		@ frame_needed = 0, uses_anonymous_args = 0
 231              		@ link register save eliminated.
 232              	.L14:
 233              		.loc 1 156 0 discriminator 1
 234 0018 FEE7     		b	.L14	@
 235              		.cfi_endproc
 236              	.LFE6:
 237              		.size	DebugMon_Handler, .-DebugMon_Handler
 238 001a 00BF     		.align	2
 239              		.weak	PendSV_Handler
 240              		.thumb
 241              		.thumb_func
 242              		.type	PendSV_Handler, %function
 243              	PendSV_Handler:
ARM GAS  C:\Users\Akil\AppData\Local\Temp\ccYyRyEf.s 			page 8


 244              	.LFB7:
 157:src/vectors_lpc1768.c **** void PendSV_Handler (void) { while(1); }
 245              		.loc 1 157 0
 246              		.cfi_startproc
 247              		@ args = 0, pretend = 0, frame = 0
 248              		@ frame_needed = 0, uses_anonymous_args = 0
 249              		@ link register save eliminated.
 250              	.L16:
 251              		.loc 1 157 0 discriminator 1
 252 001c FEE7     		b	.L16	@
 253              		.cfi_endproc
 254              	.LFE7:
 255              		.size	PendSV_Handler, .-PendSV_Handler
 256 001e 00BF     		.align	2
 257              		.weak	SysTick_Handler
 258              		.thumb
 259              		.thumb_func
 260              		.type	SysTick_Handler, %function
 261              	SysTick_Handler:
 262              	.LFB8:
 158:src/vectors_lpc1768.c **** void SysTick_Handler (void) { while(1); }
 263              		.loc 1 158 0
 264              		.cfi_startproc
 265              		@ args = 0, pretend = 0, frame = 0
 266              		@ frame_needed = 0, uses_anonymous_args = 0
 267              		@ link register save eliminated.
 268              	.L18:
 269              		.loc 1 158 0 discriminator 1
 270 0020 FEE7     		b	.L18	@
 271              		.cfi_endproc
 272              	.LFE8:
 273              		.size	SysTick_Handler, .-SysTick_Handler
 274 0022 00BF     		.align	2
 275              		.weak	WDT_IRQHandler
 276              		.thumb
 277              		.thumb_func
 278              		.type	WDT_IRQHandler, %function
 279              	WDT_IRQHandler:
 280              	.LFB9:
 159:src/vectors_lpc1768.c **** 
 160:src/vectors_lpc1768.c **** void WDT_IRQHandler (void) { while(1); }
 281              		.loc 1 160 0
 282              		.cfi_startproc
 283              		@ args = 0, pretend = 0, frame = 0
 284              		@ frame_needed = 0, uses_anonymous_args = 0
 285              		@ link register save eliminated.
 286              	.L20:
 287              		.loc 1 160 0 discriminator 1
 288 0024 FEE7     		b	.L20	@
 289              		.cfi_endproc
 290              	.LFE9:
 291              		.size	WDT_IRQHandler, .-WDT_IRQHandler
 292 0026 00BF     		.align	2
 293              		.weak	TIMER0_IRQHandler
 294              		.thumb
 295              		.thumb_func
 296              		.type	TIMER0_IRQHandler, %function
ARM GAS  C:\Users\Akil\AppData\Local\Temp\ccYyRyEf.s 			page 9


 297              	TIMER0_IRQHandler:
 298              	.LFB10:
 161:src/vectors_lpc1768.c **** void TIMER0_IRQHandler (void) { while(1); }
 299              		.loc 1 161 0
 300              		.cfi_startproc
 301              		@ args = 0, pretend = 0, frame = 0
 302              		@ frame_needed = 0, uses_anonymous_args = 0
 303              		@ link register save eliminated.
 304              	.L22:
 305              		.loc 1 161 0 discriminator 1
 306 0028 FEE7     		b	.L22	@
 307              		.cfi_endproc
 308              	.LFE10:
 309              		.size	TIMER0_IRQHandler, .-TIMER0_IRQHandler
 310 002a 00BF     		.align	2
 311              		.weak	TIMER1_IRQHandler
 312              		.thumb
 313              		.thumb_func
 314              		.type	TIMER1_IRQHandler, %function
 315              	TIMER1_IRQHandler:
 316              	.LFB11:
 162:src/vectors_lpc1768.c **** void TIMER1_IRQHandler (void) { while(1); }
 317              		.loc 1 162 0
 318              		.cfi_startproc
 319              		@ args = 0, pretend = 0, frame = 0
 320              		@ frame_needed = 0, uses_anonymous_args = 0
 321              		@ link register save eliminated.
 322              	.L24:
 323              		.loc 1 162 0 discriminator 1
 324 002c FEE7     		b	.L24	@
 325              		.cfi_endproc
 326              	.LFE11:
 327              		.size	TIMER1_IRQHandler, .-TIMER1_IRQHandler
 328 002e 00BF     		.align	2
 329              		.weak	TIMER2_IRQHandler
 330              		.thumb
 331              		.thumb_func
 332              		.type	TIMER2_IRQHandler, %function
 333              	TIMER2_IRQHandler:
 334              	.LFB12:
 163:src/vectors_lpc1768.c **** void TIMER2_IRQHandler (void) { while(1); }
 335              		.loc 1 163 0
 336              		.cfi_startproc
 337              		@ args = 0, pretend = 0, frame = 0
 338              		@ frame_needed = 0, uses_anonymous_args = 0
 339              		@ link register save eliminated.
 340              	.L26:
 341              		.loc 1 163 0 discriminator 1
 342 0030 FEE7     		b	.L26	@
 343              		.cfi_endproc
 344              	.LFE12:
 345              		.size	TIMER2_IRQHandler, .-TIMER2_IRQHandler
 346 0032 00BF     		.align	2
 347              		.weak	TIMER3_IRQHandler
 348              		.thumb
 349              		.thumb_func
 350              		.type	TIMER3_IRQHandler, %function
ARM GAS  C:\Users\Akil\AppData\Local\Temp\ccYyRyEf.s 			page 10


 351              	TIMER3_IRQHandler:
 352              	.LFB13:
 164:src/vectors_lpc1768.c **** void TIMER3_IRQHandler (void) { while(1); }
 353              		.loc 1 164 0
 354              		.cfi_startproc
 355              		@ args = 0, pretend = 0, frame = 0
 356              		@ frame_needed = 0, uses_anonymous_args = 0
 357              		@ link register save eliminated.
 358              	.L28:
 359              		.loc 1 164 0 discriminator 1
 360 0034 FEE7     		b	.L28	@
 361              		.cfi_endproc
 362              	.LFE13:
 363              		.size	TIMER3_IRQHandler, .-TIMER3_IRQHandler
 364 0036 00BF     		.align	2
 365              		.weak	UART0_IRQHandler
 366              		.thumb
 367              		.thumb_func
 368              		.type	UART0_IRQHandler, %function
 369              	UART0_IRQHandler:
 370              	.LFB14:
 165:src/vectors_lpc1768.c **** void UART0_IRQHandler (void) { while(1); }
 371              		.loc 1 165 0
 372              		.cfi_startproc
 373              		@ args = 0, pretend = 0, frame = 0
 374              		@ frame_needed = 0, uses_anonymous_args = 0
 375              		@ link register save eliminated.
 376              	.L30:
 377              		.loc 1 165 0 discriminator 1
 378 0038 FEE7     		b	.L30	@
 379              		.cfi_endproc
 380              	.LFE14:
 381              		.size	UART0_IRQHandler, .-UART0_IRQHandler
 382 003a 00BF     		.align	2
 383              		.weak	UART1_IRQHandler
 384              		.thumb
 385              		.thumb_func
 386              		.type	UART1_IRQHandler, %function
 387              	UART1_IRQHandler:
 388              	.LFB15:
 166:src/vectors_lpc1768.c **** void UART1_IRQHandler (void) { while(1); }
 389              		.loc 1 166 0
 390              		.cfi_startproc
 391              		@ args = 0, pretend = 0, frame = 0
 392              		@ frame_needed = 0, uses_anonymous_args = 0
 393              		@ link register save eliminated.
 394              	.L32:
 395              		.loc 1 166 0 discriminator 1
 396 003c FEE7     		b	.L32	@
 397              		.cfi_endproc
 398              	.LFE15:
 399              		.size	UART1_IRQHandler, .-UART1_IRQHandler
 400 003e 00BF     		.align	2
 401              		.weak	UART2_IRQHandler
 402              		.thumb
 403              		.thumb_func
 404              		.type	UART2_IRQHandler, %function
ARM GAS  C:\Users\Akil\AppData\Local\Temp\ccYyRyEf.s 			page 11


 405              	UART2_IRQHandler:
 406              	.LFB16:
 167:src/vectors_lpc1768.c **** void UART2_IRQHandler (void) { while(1); }
 407              		.loc 1 167 0
 408              		.cfi_startproc
 409              		@ args = 0, pretend = 0, frame = 0
 410              		@ frame_needed = 0, uses_anonymous_args = 0
 411              		@ link register save eliminated.
 412              	.L34:
 413              		.loc 1 167 0 discriminator 1
 414 0040 FEE7     		b	.L34	@
 415              		.cfi_endproc
 416              	.LFE16:
 417              		.size	UART2_IRQHandler, .-UART2_IRQHandler
 418 0042 00BF     		.align	2
 419              		.weak	UART3_IRQHandler
 420              		.thumb
 421              		.thumb_func
 422              		.type	UART3_IRQHandler, %function
 423              	UART3_IRQHandler:
 424              	.LFB17:
 168:src/vectors_lpc1768.c **** void UART3_IRQHandler (void) { while(1); }
 425              		.loc 1 168 0
 426              		.cfi_startproc
 427              		@ args = 0, pretend = 0, frame = 0
 428              		@ frame_needed = 0, uses_anonymous_args = 0
 429              		@ link register save eliminated.
 430              	.L36:
 431              		.loc 1 168 0 discriminator 1
 432 0044 FEE7     		b	.L36	@
 433              		.cfi_endproc
 434              	.LFE17:
 435              		.size	UART3_IRQHandler, .-UART3_IRQHandler
 436 0046 00BF     		.align	2
 437              		.weak	PWM_IRQHandler
 438              		.thumb
 439              		.thumb_func
 440              		.type	PWM_IRQHandler, %function
 441              	PWM_IRQHandler:
 442              	.LFB18:
 169:src/vectors_lpc1768.c **** void PWM_IRQHandler (void) { while(1); }
 443              		.loc 1 169 0
 444              		.cfi_startproc
 445              		@ args = 0, pretend = 0, frame = 0
 446              		@ frame_needed = 0, uses_anonymous_args = 0
 447              		@ link register save eliminated.
 448              	.L38:
 449              		.loc 1 169 0 discriminator 1
 450 0048 FEE7     		b	.L38	@
 451              		.cfi_endproc
 452              	.LFE18:
 453              		.size	PWM_IRQHandler, .-PWM_IRQHandler
 454 004a 00BF     		.align	2
 455              		.weak	I2C0_IRQHandler
 456              		.thumb
 457              		.thumb_func
 458              		.type	I2C0_IRQHandler, %function
ARM GAS  C:\Users\Akil\AppData\Local\Temp\ccYyRyEf.s 			page 12


 459              	I2C0_IRQHandler:
 460              	.LFB19:
 170:src/vectors_lpc1768.c **** void I2C0_IRQHandler (void) { while(1); }
 461              		.loc 1 170 0
 462              		.cfi_startproc
 463              		@ args = 0, pretend = 0, frame = 0
 464              		@ frame_needed = 0, uses_anonymous_args = 0
 465              		@ link register save eliminated.
 466              	.L40:
 467              		.loc 1 170 0 discriminator 1
 468 004c FEE7     		b	.L40	@
 469              		.cfi_endproc
 470              	.LFE19:
 471              		.size	I2C0_IRQHandler, .-I2C0_IRQHandler
 472 004e 00BF     		.align	2
 473              		.weak	I2C1_IRQHandler
 474              		.thumb
 475              		.thumb_func
 476              		.type	I2C1_IRQHandler, %function
 477              	I2C1_IRQHandler:
 478              	.LFB20:
 171:src/vectors_lpc1768.c **** void I2C1_IRQHandler (void) { while(1); }
 479              		.loc 1 171 0
 480              		.cfi_startproc
 481              		@ args = 0, pretend = 0, frame = 0
 482              		@ frame_needed = 0, uses_anonymous_args = 0
 483              		@ link register save eliminated.
 484              	.L42:
 485              		.loc 1 171 0 discriminator 1
 486 0050 FEE7     		b	.L42	@
 487              		.cfi_endproc
 488              	.LFE20:
 489              		.size	I2C1_IRQHandler, .-I2C1_IRQHandler
 490 0052 00BF     		.align	2
 491              		.weak	I2C2_IRQHandler
 492              		.thumb
 493              		.thumb_func
 494              		.type	I2C2_IRQHandler, %function
 495              	I2C2_IRQHandler:
 496              	.LFB21:
 172:src/vectors_lpc1768.c **** void I2C2_IRQHandler (void) { while(1); }
 497              		.loc 1 172 0
 498              		.cfi_startproc
 499              		@ args = 0, pretend = 0, frame = 0
 500              		@ frame_needed = 0, uses_anonymous_args = 0
 501              		@ link register save eliminated.
 502              	.L44:
 503              		.loc 1 172 0 discriminator 1
 504 0054 FEE7     		b	.L44	@
 505              		.cfi_endproc
 506              	.LFE21:
 507              		.size	I2C2_IRQHandler, .-I2C2_IRQHandler
 508 0056 00BF     		.align	2
 509              		.weak	SPI_IRQHandler
 510              		.thumb
 511              		.thumb_func
 512              		.type	SPI_IRQHandler, %function
ARM GAS  C:\Users\Akil\AppData\Local\Temp\ccYyRyEf.s 			page 13


 513              	SPI_IRQHandler:
 514              	.LFB22:
 173:src/vectors_lpc1768.c **** void SPI_IRQHandler (void) { while(1); }
 515              		.loc 1 173 0
 516              		.cfi_startproc
 517              		@ args = 0, pretend = 0, frame = 0
 518              		@ frame_needed = 0, uses_anonymous_args = 0
 519              		@ link register save eliminated.
 520              	.L46:
 521              		.loc 1 173 0 discriminator 1
 522 0058 FEE7     		b	.L46	@
 523              		.cfi_endproc
 524              	.LFE22:
 525              		.size	SPI_IRQHandler, .-SPI_IRQHandler
 526 005a 00BF     		.align	2
 527              		.weak	SSP0_IRQHandler
 528              		.thumb
 529              		.thumb_func
 530              		.type	SSP0_IRQHandler, %function
 531              	SSP0_IRQHandler:
 532              	.LFB23:
 174:src/vectors_lpc1768.c **** void SSP0_IRQHandler (void) { while(1); }
 533              		.loc 1 174 0
 534              		.cfi_startproc
 535              		@ args = 0, pretend = 0, frame = 0
 536              		@ frame_needed = 0, uses_anonymous_args = 0
 537              		@ link register save eliminated.
 538              	.L48:
 539              		.loc 1 174 0 discriminator 1
 540 005c FEE7     		b	.L48	@
 541              		.cfi_endproc
 542              	.LFE23:
 543              		.size	SSP0_IRQHandler, .-SSP0_IRQHandler
 544 005e 00BF     		.align	2
 545              		.weak	SSP1_IRQHandler
 546              		.thumb
 547              		.thumb_func
 548              		.type	SSP1_IRQHandler, %function
 549              	SSP1_IRQHandler:
 550              	.LFB24:
 175:src/vectors_lpc1768.c **** void SSP1_IRQHandler (void) { while(1); }
 551              		.loc 1 175 0
 552              		.cfi_startproc
 553              		@ args = 0, pretend = 0, frame = 0
 554              		@ frame_needed = 0, uses_anonymous_args = 0
 555              		@ link register save eliminated.
 556              	.L50:
 557              		.loc 1 175 0 discriminator 1
 558 0060 FEE7     		b	.L50	@
 559              		.cfi_endproc
 560              	.LFE24:
 561              		.size	SSP1_IRQHandler, .-SSP1_IRQHandler
 562 0062 00BF     		.align	2
 563              		.weak	PLL0_IRQHandler
 564              		.thumb
 565              		.thumb_func
 566              		.type	PLL0_IRQHandler, %function
ARM GAS  C:\Users\Akil\AppData\Local\Temp\ccYyRyEf.s 			page 14


 567              	PLL0_IRQHandler:
 568              	.LFB25:
 176:src/vectors_lpc1768.c **** void PLL0_IRQHandler (void) { while(1); }
 569              		.loc 1 176 0
 570              		.cfi_startproc
 571              		@ args = 0, pretend = 0, frame = 0
 572              		@ frame_needed = 0, uses_anonymous_args = 0
 573              		@ link register save eliminated.
 574              	.L52:
 575              		.loc 1 176 0 discriminator 1
 576 0064 FEE7     		b	.L52	@
 577              		.cfi_endproc
 578              	.LFE25:
 579              		.size	PLL0_IRQHandler, .-PLL0_IRQHandler
 580 0066 00BF     		.align	2
 581              		.weak	RTC_IRQHandler
 582              		.thumb
 583              		.thumb_func
 584              		.type	RTC_IRQHandler, %function
 585              	RTC_IRQHandler:
 586              	.LFB26:
 177:src/vectors_lpc1768.c **** void RTC_IRQHandler (void) { while(1); }
 587              		.loc 1 177 0
 588              		.cfi_startproc
 589              		@ args = 0, pretend = 0, frame = 0
 590              		@ frame_needed = 0, uses_anonymous_args = 0
 591              		@ link register save eliminated.
 592              	.L54:
 593              		.loc 1 177 0 discriminator 1
 594 0068 FEE7     		b	.L54	@
 595              		.cfi_endproc
 596              	.LFE26:
 597              		.size	RTC_IRQHandler, .-RTC_IRQHandler
 598 006a 00BF     		.align	2
 599              		.weak	EINT0_IRQHandler
 600              		.thumb
 601              		.thumb_func
 602              		.type	EINT0_IRQHandler, %function
 603              	EINT0_IRQHandler:
 604              	.LFB27:
 178:src/vectors_lpc1768.c **** void EINT0_IRQHandler (void) { while(1); }
 605              		.loc 1 178 0
 606              		.cfi_startproc
 607              		@ args = 0, pretend = 0, frame = 0
 608              		@ frame_needed = 0, uses_anonymous_args = 0
 609              		@ link register save eliminated.
 610              	.L56:
 611              		.loc 1 178 0 discriminator 1
 612 006c FEE7     		b	.L56	@
 613              		.cfi_endproc
 614              	.LFE27:
 615              		.size	EINT0_IRQHandler, .-EINT0_IRQHandler
 616 006e 00BF     		.align	2
 617              		.weak	EINT1_IRQHandler
 618              		.thumb
 619              		.thumb_func
 620              		.type	EINT1_IRQHandler, %function
ARM GAS  C:\Users\Akil\AppData\Local\Temp\ccYyRyEf.s 			page 15


 621              	EINT1_IRQHandler:
 622              	.LFB28:
 179:src/vectors_lpc1768.c **** void EINT1_IRQHandler (void) { while(1); }
 623              		.loc 1 179 0
 624              		.cfi_startproc
 625              		@ args = 0, pretend = 0, frame = 0
 626              		@ frame_needed = 0, uses_anonymous_args = 0
 627              		@ link register save eliminated.
 628              	.L58:
 629              		.loc 1 179 0 discriminator 1
 630 0070 FEE7     		b	.L58	@
 631              		.cfi_endproc
 632              	.LFE28:
 633              		.size	EINT1_IRQHandler, .-EINT1_IRQHandler
 634 0072 00BF     		.align	2
 635              		.weak	EINT2_IRQHandler
 636              		.thumb
 637              		.thumb_func
 638              		.type	EINT2_IRQHandler, %function
 639              	EINT2_IRQHandler:
 640              	.LFB29:
 180:src/vectors_lpc1768.c **** void EINT2_IRQHandler (void) { while(1); }
 641              		.loc 1 180 0
 642              		.cfi_startproc
 643              		@ args = 0, pretend = 0, frame = 0
 644              		@ frame_needed = 0, uses_anonymous_args = 0
 645              		@ link register save eliminated.
 646              	.L60:
 647              		.loc 1 180 0 discriminator 1
 648 0074 FEE7     		b	.L60	@
 649              		.cfi_endproc
 650              	.LFE29:
 651              		.size	EINT2_IRQHandler, .-EINT2_IRQHandler
 652 0076 00BF     		.align	2
 653              		.weak	EINT3_IRQHandler
 654              		.thumb
 655              		.thumb_func
 656              		.type	EINT3_IRQHandler, %function
 657              	EINT3_IRQHandler:
 658              	.LFB30:
 181:src/vectors_lpc1768.c **** void EINT3_IRQHandler (void) { while(1); }
 659              		.loc 1 181 0
 660              		.cfi_startproc
 661              		@ args = 0, pretend = 0, frame = 0
 662              		@ frame_needed = 0, uses_anonymous_args = 0
 663              		@ link register save eliminated.
 664              	.L62:
 665              		.loc 1 181 0 discriminator 1
 666 0078 FEE7     		b	.L62	@
 667              		.cfi_endproc
 668              	.LFE30:
 669              		.size	EINT3_IRQHandler, .-EINT3_IRQHandler
 670 007a 00BF     		.align	2
 671              		.weak	ADC_IRQHandler
 672              		.thumb
 673              		.thumb_func
 674              		.type	ADC_IRQHandler, %function
ARM GAS  C:\Users\Akil\AppData\Local\Temp\ccYyRyEf.s 			page 16


 675              	ADC_IRQHandler:
 676              	.LFB31:
 182:src/vectors_lpc1768.c **** void ADC_IRQHandler (void) { while(1); }
 677              		.loc 1 182 0
 678              		.cfi_startproc
 679              		@ args = 0, pretend = 0, frame = 0
 680              		@ frame_needed = 0, uses_anonymous_args = 0
 681              		@ link register save eliminated.
 682              	.L64:
 683              		.loc 1 182 0 discriminator 1
 684 007c FEE7     		b	.L64	@
 685              		.cfi_endproc
 686              	.LFE31:
 687              		.size	ADC_IRQHandler, .-ADC_IRQHandler
 688 007e 00BF     		.align	2
 689              		.weak	BOD_IRQHandler
 690              		.thumb
 691              		.thumb_func
 692              		.type	BOD_IRQHandler, %function
 693              	BOD_IRQHandler:
 694              	.LFB32:
 183:src/vectors_lpc1768.c **** void BOD_IRQHandler (void) { while(1); }
 695              		.loc 1 183 0
 696              		.cfi_startproc
 697              		@ args = 0, pretend = 0, frame = 0
 698              		@ frame_needed = 0, uses_anonymous_args = 0
 699              		@ link register save eliminated.
 700              	.L66:
 701              		.loc 1 183 0 discriminator 1
 702 0080 FEE7     		b	.L66	@
 703              		.cfi_endproc
 704              	.LFE32:
 705              		.size	BOD_IRQHandler, .-BOD_IRQHandler
 706 0082 00BF     		.align	2
 707              		.weak	USB_IRQHandler
 708              		.thumb
 709              		.thumb_func
 710              		.type	USB_IRQHandler, %function
 711              	USB_IRQHandler:
 712              	.LFB33:
 184:src/vectors_lpc1768.c **** void USB_IRQHandler (void) { while(1); }
 713              		.loc 1 184 0
 714              		.cfi_startproc
 715              		@ args = 0, pretend = 0, frame = 0
 716              		@ frame_needed = 0, uses_anonymous_args = 0
 717              		@ link register save eliminated.
 718              	.L68:
 719              		.loc 1 184 0 discriminator 1
 720 0084 FEE7     		b	.L68	@
 721              		.cfi_endproc
 722              	.LFE33:
 723              		.size	USB_IRQHandler, .-USB_IRQHandler
 724 0086 00BF     		.align	2
 725              		.weak	CAN_IRQHandler
 726              		.thumb
 727              		.thumb_func
 728              		.type	CAN_IRQHandler, %function
ARM GAS  C:\Users\Akil\AppData\Local\Temp\ccYyRyEf.s 			page 17


 729              	CAN_IRQHandler:
 730              	.LFB34:
 185:src/vectors_lpc1768.c **** void CAN_IRQHandler (void) { while(1); }
 731              		.loc 1 185 0
 732              		.cfi_startproc
 733              		@ args = 0, pretend = 0, frame = 0
 734              		@ frame_needed = 0, uses_anonymous_args = 0
 735              		@ link register save eliminated.
 736              	.L70:
 737              		.loc 1 185 0 discriminator 1
 738 0088 FEE7     		b	.L70	@
 739              		.cfi_endproc
 740              	.LFE34:
 741              		.size	CAN_IRQHandler, .-CAN_IRQHandler
 742 008a 00BF     		.align	2
 743              		.weak	DMA_IRQHandler
 744              		.thumb
 745              		.thumb_func
 746              		.type	DMA_IRQHandler, %function
 747              	DMA_IRQHandler:
 748              	.LFB35:
 186:src/vectors_lpc1768.c **** void DMA_IRQHandler (void) { while(1); }
 749              		.loc 1 186 0
 750              		.cfi_startproc
 751              		@ args = 0, pretend = 0, frame = 0
 752              		@ frame_needed = 0, uses_anonymous_args = 0
 753              		@ link register save eliminated.
 754              	.L72:
 755              		.loc 1 186 0 discriminator 1
 756 008c FEE7     		b	.L72	@
 757              		.cfi_endproc
 758              	.LFE35:
 759              		.size	DMA_IRQHandler, .-DMA_IRQHandler
 760 008e 00BF     		.align	2
 761              		.weak	I2S_IRQHandler
 762              		.thumb
 763              		.thumb_func
 764              		.type	I2S_IRQHandler, %function
 765              	I2S_IRQHandler:
 766              	.LFB36:
 187:src/vectors_lpc1768.c **** void I2S_IRQHandler (void) { while(1); }
 767              		.loc 1 187 0
 768              		.cfi_startproc
 769              		@ args = 0, pretend = 0, frame = 0
 770              		@ frame_needed = 0, uses_anonymous_args = 0
 771              		@ link register save eliminated.
 772              	.L74:
 773              		.loc 1 187 0 discriminator 1
 774 0090 FEE7     		b	.L74	@
 775              		.cfi_endproc
 776              	.LFE36:
 777              		.size	I2S_IRQHandler, .-I2S_IRQHandler
 778 0092 00BF     		.align	2
 779              		.weak	ENET_IRQHandler
 780              		.thumb
 781              		.thumb_func
 782              		.type	ENET_IRQHandler, %function
ARM GAS  C:\Users\Akil\AppData\Local\Temp\ccYyRyEf.s 			page 18


 783              	ENET_IRQHandler:
 784              	.LFB37:
 188:src/vectors_lpc1768.c **** void ENET_IRQHandler (void) { while(1); }
 785              		.loc 1 188 0
 786              		.cfi_startproc
 787              		@ args = 0, pretend = 0, frame = 0
 788              		@ frame_needed = 0, uses_anonymous_args = 0
 789              		@ link register save eliminated.
 790              	.L76:
 791              		.loc 1 188 0 discriminator 1
 792 0094 FEE7     		b	.L76	@
 793              		.cfi_endproc
 794              	.LFE37:
 795              		.size	ENET_IRQHandler, .-ENET_IRQHandler
 796 0096 00BF     		.align	2
 797              		.weak	RIT_IRQHandler
 798              		.thumb
 799              		.thumb_func
 800              		.type	RIT_IRQHandler, %function
 801              	RIT_IRQHandler:
 802              	.LFB38:
 189:src/vectors_lpc1768.c **** void RIT_IRQHandler (void) { while(1); }
 803              		.loc 1 189 0
 804              		.cfi_startproc
 805              		@ args = 0, pretend = 0, frame = 0
 806              		@ frame_needed = 0, uses_anonymous_args = 0
 807              		@ link register save eliminated.
 808              	.L78:
 809              		.loc 1 189 0 discriminator 1
 810 0098 FEE7     		b	.L78	@
 811              		.cfi_endproc
 812              	.LFE38:
 813              		.size	RIT_IRQHandler, .-RIT_IRQHandler
 814 009a 00BF     		.align	2
 815              		.weak	MCPWM_IRQHandler
 816              		.thumb
 817              		.thumb_func
 818              		.type	MCPWM_IRQHandler, %function
 819              	MCPWM_IRQHandler:
 820              	.LFB39:
 190:src/vectors_lpc1768.c **** void MCPWM_IRQHandler (void) { while(1); }
 821              		.loc 1 190 0
 822              		.cfi_startproc
 823              		@ args = 0, pretend = 0, frame = 0
 824              		@ frame_needed = 0, uses_anonymous_args = 0
 825              		@ link register save eliminated.
 826              	.L80:
 827              		.loc 1 190 0 discriminator 1
 828 009c FEE7     		b	.L80	@
 829              		.cfi_endproc
 830              	.LFE39:
 831              		.size	MCPWM_IRQHandler, .-MCPWM_IRQHandler
 832 009e 00BF     		.align	2
 833              		.weak	QEI_IRQHandler
 834              		.thumb
 835              		.thumb_func
 836              		.type	QEI_IRQHandler, %function
ARM GAS  C:\Users\Akil\AppData\Local\Temp\ccYyRyEf.s 			page 19


 837              	QEI_IRQHandler:
 838              	.LFB40:
 191:src/vectors_lpc1768.c **** void QEI_IRQHandler (void) { while(1); }
 839              		.loc 1 191 0
 840              		.cfi_startproc
 841              		@ args = 0, pretend = 0, frame = 0
 842              		@ frame_needed = 0, uses_anonymous_args = 0
 843              		@ link register save eliminated.
 844              	.L82:
 845              		.loc 1 191 0 discriminator 1
 846 00a0 FEE7     		b	.L82	@
 847              		.cfi_endproc
 848              	.LFE40:
 849              		.size	QEI_IRQHandler, .-QEI_IRQHandler
 850              	.Letext0:
 851 00a2 00BF     		.section	.debug_info,"",%progbits
 852              	.Ldebug_info0:
 853 0000 C9030000 		.4byte	0x3c9
 854 0004 0200     		.2byte	0x2
 855 0006 00000000 		.4byte	.Ldebug_abbrev0
 856 000a 04       		.byte	0x4
 857 000b 01       		.uleb128 0x1
 858 000c 3F010000 		.4byte	.LASF45
 859 0010 01       		.byte	0x1
 860 0011 B1020000 		.4byte	.LASF46
 861 0015 F3000000 		.4byte	.LASF47
 862 0019 00000000 		.4byte	.Ltext0
 863 001d A2000000 		.4byte	.Letext0
 864 0021 00000000 		.4byte	.Ldebug_line0
 865 0025 02       		.uleb128 0x2
 866 0026 01       		.byte	0x1
 867 0027 62020000 		.4byte	.LASF0
 868 002b 01       		.byte	0x1
 869 002c 96       		.byte	0x96
 870 002d 01       		.byte	0x1
 871 002e 00000000 		.4byte	.LFB0
 872 0032 02000000 		.4byte	.LFE0
 873 0036 02       		.byte	0x2
 874 0037 7D       		.byte	0x7d
 875 0038 00       		.sleb128 0
 876 0039 01       		.byte	0x1
 877 003a 02       		.uleb128 0x2
 878 003b 01       		.byte	0x1
 879 003c D6020000 		.4byte	.LASF1
 880 0040 01       		.byte	0x1
 881 0041 97       		.byte	0x97
 882 0042 01       		.byte	0x1
 883 0043 04000000 		.4byte	.LFB1
 884 0047 06000000 		.4byte	.LFE1
 885 004b 02       		.byte	0x2
 886 004c 7D       		.byte	0x7d
 887 004d 00       		.sleb128 0
 888 004e 01       		.byte	0x1
 889 004f 02       		.uleb128 0x2
 890 0050 01       		.byte	0x1
 891 0051 1B030000 		.4byte	.LASF2
 892 0055 01       		.byte	0x1
ARM GAS  C:\Users\Akil\AppData\Local\Temp\ccYyRyEf.s 			page 20


 893 0056 98       		.byte	0x98
 894 0057 01       		.byte	0x1
 895 0058 08000000 		.4byte	.LFB2
 896 005c 0A000000 		.4byte	.LFE2
 897 0060 02       		.byte	0x2
 898 0061 7D       		.byte	0x7d
 899 0062 00       		.sleb128 0
 900 0063 01       		.byte	0x1
 901 0064 02       		.uleb128 0x2
 902 0065 01       		.byte	0x1
 903 0066 F1020000 		.4byte	.LASF3
 904 006a 01       		.byte	0x1
 905 006b 99       		.byte	0x99
 906 006c 01       		.byte	0x1
 907 006d 0C000000 		.4byte	.LFB3
 908 0071 0E000000 		.4byte	.LFE3
 909 0075 02       		.byte	0x2
 910 0076 7D       		.byte	0x7d
 911 0077 00       		.sleb128 0
 912 0078 01       		.byte	0x1
 913 0079 02       		.uleb128 0x2
 914 007a 01       		.byte	0x1
 915 007b 8F020000 		.4byte	.LASF4
 916 007f 01       		.byte	0x1
 917 0080 9A       		.byte	0x9a
 918 0081 01       		.byte	0x1
 919 0082 10000000 		.4byte	.LFB4
 920 0086 12000000 		.4byte	.LFE4
 921 008a 02       		.byte	0x2
 922 008b 7D       		.byte	0x7d
 923 008c 00       		.sleb128 0
 924 008d 01       		.byte	0x1
 925 008e 02       		.uleb128 0x2
 926 008f 01       		.byte	0x1
 927 0090 22020000 		.4byte	.LASF5
 928 0094 01       		.byte	0x1
 929 0095 9B       		.byte	0x9b
 930 0096 01       		.byte	0x1
 931 0097 14000000 		.4byte	.LFB5
 932 009b 16000000 		.4byte	.LFE5
 933 009f 02       		.byte	0x2
 934 00a0 7D       		.byte	0x7d
 935 00a1 00       		.sleb128 0
 936 00a2 01       		.byte	0x1
 937 00a3 02       		.uleb128 0x2
 938 00a4 01       		.byte	0x1
 939 00a5 50000000 		.4byte	.LASF6
 940 00a9 01       		.byte	0x1
 941 00aa 9C       		.byte	0x9c
 942 00ab 01       		.byte	0x1
 943 00ac 18000000 		.4byte	.LFB6
 944 00b0 1A000000 		.4byte	.LFE6
 945 00b4 02       		.byte	0x2
 946 00b5 7D       		.byte	0x7d
 947 00b6 00       		.sleb128 0
 948 00b7 01       		.byte	0x1
 949 00b8 02       		.uleb128 0x2
ARM GAS  C:\Users\Akil\AppData\Local\Temp\ccYyRyEf.s 			page 21


 950 00b9 01       		.byte	0x1
 951 00ba 4B030000 		.4byte	.LASF7
 952 00be 01       		.byte	0x1
 953 00bf 9D       		.byte	0x9d
 954 00c0 01       		.byte	0x1
 955 00c1 1C000000 		.4byte	.LFB7
 956 00c5 1E000000 		.4byte	.LFE7
 957 00c9 02       		.byte	0x2
 958 00ca 7D       		.byte	0x7d
 959 00cb 00       		.sleb128 0
 960 00cc 01       		.byte	0x1
 961 00cd 02       		.uleb128 0x2
 962 00ce 01       		.byte	0x1
 963 00cf 61000000 		.4byte	.LASF8
 964 00d3 01       		.byte	0x1
 965 00d4 9E       		.byte	0x9e
 966 00d5 01       		.byte	0x1
 967 00d6 20000000 		.4byte	.LFB8
 968 00da 22000000 		.4byte	.LFE8
 969 00de 02       		.byte	0x2
 970 00df 7D       		.byte	0x7d
 971 00e0 00       		.sleb128 0
 972 00e1 01       		.byte	0x1
 973 00e2 02       		.uleb128 0x2
 974 00e3 01       		.byte	0x1
 975 00e4 A2020000 		.4byte	.LASF9
 976 00e8 01       		.byte	0x1
 977 00e9 A0       		.byte	0xa0
 978 00ea 01       		.byte	0x1
 979 00eb 24000000 		.4byte	.LFB9
 980 00ef 26000000 		.4byte	.LFE9
 981 00f3 02       		.byte	0x2
 982 00f4 7D       		.byte	0x7d
 983 00f5 00       		.sleb128 0
 984 00f6 01       		.byte	0x1
 985 00f7 02       		.uleb128 0x2
 986 00f8 01       		.byte	0x1
 987 00f9 63030000 		.4byte	.LASF10
 988 00fd 01       		.byte	0x1
 989 00fe A1       		.byte	0xa1
 990 00ff 01       		.byte	0x1
 991 0100 28000000 		.4byte	.LFB10
 992 0104 2A000000 		.4byte	.LFE10
 993 0108 02       		.byte	0x2
 994 0109 7D       		.byte	0x7d
 995 010a 00       		.sleb128 0
 996 010b 01       		.byte	0x1
 997 010c 02       		.uleb128 0x2
 998 010d 01       		.byte	0x1
 999 010e 1E010000 		.4byte	.LASF11
 1000 0112 01       		.byte	0x1
 1001 0113 A2       		.byte	0xa2
 1002 0114 01       		.byte	0x1
 1003 0115 2C000000 		.4byte	.LFB11
 1004 0119 2E000000 		.4byte	.LFE11
 1005 011d 02       		.byte	0x2
 1006 011e 7D       		.byte	0x7d
ARM GAS  C:\Users\Akil\AppData\Local\Temp\ccYyRyEf.s 			page 22


 1007 011f 00       		.sleb128 0
 1008 0120 01       		.byte	0x1
 1009 0121 02       		.uleb128 0x2
 1010 0122 01       		.byte	0x1
 1011 0123 E1010000 		.4byte	.LASF12
 1012 0127 01       		.byte	0x1
 1013 0128 A3       		.byte	0xa3
 1014 0129 01       		.byte	0x1
 1015 012a 30000000 		.4byte	.LFB12
 1016 012e 32000000 		.4byte	.LFE12
 1017 0132 02       		.byte	0x2
 1018 0133 7D       		.byte	0x7d
 1019 0134 00       		.sleb128 0
 1020 0135 01       		.byte	0x1
 1021 0136 02       		.uleb128 0x2
 1022 0137 01       		.byte	0x1
 1023 0138 E1000000 		.4byte	.LASF13
 1024 013c 01       		.byte	0x1
 1025 013d A4       		.byte	0xa4
 1026 013e 01       		.byte	0x1
 1027 013f 34000000 		.4byte	.LFB13
 1028 0143 36000000 		.4byte	.LFE13
 1029 0147 02       		.byte	0x2
 1030 0148 7D       		.byte	0x7d
 1031 0149 00       		.sleb128 0
 1032 014a 01       		.byte	0x1
 1033 014b 02       		.uleb128 0x2
 1034 014c 01       		.byte	0x1
 1035 014d 71000000 		.4byte	.LASF14
 1036 0151 01       		.byte	0x1
 1037 0152 A5       		.byte	0xa5
 1038 0153 01       		.byte	0x1
 1039 0154 38000000 		.4byte	.LFB14
 1040 0158 3A000000 		.4byte	.LFE14
 1041 015c 02       		.byte	0x2
 1042 015d 7D       		.byte	0x7d
 1043 015e 00       		.sleb128 0
 1044 015f 01       		.byte	0x1
 1045 0160 02       		.uleb128 0x2
 1046 0161 01       		.byte	0x1
 1047 0162 51020000 		.4byte	.LASF15
 1048 0166 01       		.byte	0x1
 1049 0167 A6       		.byte	0xa6
 1050 0168 01       		.byte	0x1
 1051 0169 3C000000 		.4byte	.LFB15
 1052 016d 3E000000 		.4byte	.LFE15
 1053 0171 02       		.byte	0x2
 1054 0172 7D       		.byte	0x7d
 1055 0173 00       		.sleb128 0
 1056 0174 01       		.byte	0x1
 1057 0175 02       		.uleb128 0x2
 1058 0176 01       		.byte	0x1
 1059 0177 3F000000 		.4byte	.LASF16
 1060 017b 01       		.byte	0x1
 1061 017c A7       		.byte	0xa7
 1062 017d 01       		.byte	0x1
 1063 017e 40000000 		.4byte	.LFB16
ARM GAS  C:\Users\Akil\AppData\Local\Temp\ccYyRyEf.s 			page 23


 1064 0182 42000000 		.4byte	.LFE16
 1065 0186 02       		.byte	0x2
 1066 0187 7D       		.byte	0x7d
 1067 0188 00       		.sleb128 0
 1068 0189 01       		.byte	0x1
 1069 018a 02       		.uleb128 0x2
 1070 018b 01       		.byte	0x1
 1071 018c 2E020000 		.4byte	.LASF17
 1072 0190 01       		.byte	0x1
 1073 0191 A8       		.byte	0xa8
 1074 0192 01       		.byte	0x1
 1075 0193 44000000 		.4byte	.LFB17
 1076 0197 46000000 		.4byte	.LFE17
 1077 019b 02       		.byte	0x2
 1078 019c 7D       		.byte	0x7d
 1079 019d 00       		.sleb128 0
 1080 019e 01       		.byte	0x1
 1081 019f 02       		.uleb128 0x2
 1082 01a0 01       		.byte	0x1
 1083 01a1 00000000 		.4byte	.LASF18
 1084 01a5 01       		.byte	0x1
 1085 01a6 A9       		.byte	0xa9
 1086 01a7 01       		.byte	0x1
 1087 01a8 48000000 		.4byte	.LFB18
 1088 01ac 4A000000 		.4byte	.LFE18
 1089 01b0 02       		.byte	0x2
 1090 01b1 7D       		.byte	0x7d
 1091 01b2 00       		.sleb128 0
 1092 01b3 01       		.byte	0x1
 1093 01b4 02       		.uleb128 0x2
 1094 01b5 01       		.byte	0x1
 1095 01b6 0F000000 		.4byte	.LASF19
 1096 01ba 01       		.byte	0x1
 1097 01bb AA       		.byte	0xaa
 1098 01bc 01       		.byte	0x1
 1099 01bd 4C000000 		.4byte	.LFB19
 1100 01c1 4E000000 		.4byte	.LFE19
 1101 01c5 02       		.byte	0x2
 1102 01c6 7D       		.byte	0x7d
 1103 01c7 00       		.sleb128 0
 1104 01c8 01       		.byte	0x1
 1105 01c9 02       		.uleb128 0x2
 1106 01ca 01       		.byte	0x1
 1107 01cb 12020000 		.4byte	.LASF20
 1108 01cf 01       		.byte	0x1
 1109 01d0 AB       		.byte	0xab
 1110 01d1 01       		.byte	0x1
 1111 01d2 50000000 		.4byte	.LFB20
 1112 01d6 52000000 		.4byte	.LFE20
 1113 01da 02       		.byte	0x2
 1114 01db 7D       		.byte	0x7d
 1115 01dc 00       		.sleb128 0
 1116 01dd 01       		.byte	0x1
 1117 01de 02       		.uleb128 0x2
 1118 01df 01       		.byte	0x1
 1119 01e0 91000000 		.4byte	.LASF21
 1120 01e4 01       		.byte	0x1
ARM GAS  C:\Users\Akil\AppData\Local\Temp\ccYyRyEf.s 			page 24


 1121 01e5 AC       		.byte	0xac
 1122 01e6 01       		.byte	0x1
 1123 01e7 54000000 		.4byte	.LFB21
 1124 01eb 56000000 		.4byte	.LFE21
 1125 01ef 02       		.byte	0x2
 1126 01f0 7D       		.byte	0x7d
 1127 01f1 00       		.sleb128 0
 1128 01f2 01       		.byte	0x1
 1129 01f3 02       		.uleb128 0x2
 1130 01f4 01       		.byte	0x1
 1131 01f5 3C030000 		.4byte	.LASF22
 1132 01f9 01       		.byte	0x1
 1133 01fa AD       		.byte	0xad
 1134 01fb 01       		.byte	0x1
 1135 01fc 58000000 		.4byte	.LFB22
 1136 0200 5A000000 		.4byte	.LFE22
 1137 0204 02       		.byte	0x2
 1138 0205 7D       		.byte	0x7d
 1139 0206 00       		.sleb128 0
 1140 0207 01       		.byte	0x1
 1141 0208 02       		.uleb128 0x2
 1142 0209 01       		.byte	0x1
 1143 020a 7F020000 		.4byte	.LASF23
 1144 020e 01       		.byte	0x1
 1145 020f AE       		.byte	0xae
 1146 0210 01       		.byte	0x1
 1147 0211 5C000000 		.4byte	.LFB23
 1148 0215 5E000000 		.4byte	.LFE23
 1149 0219 02       		.byte	0x2
 1150 021a 7D       		.byte	0x7d
 1151 021b 00       		.sleb128 0
 1152 021c 01       		.byte	0x1
 1153 021d 02       		.uleb128 0x2
 1154 021e 01       		.byte	0x1
 1155 021f 1F000000 		.4byte	.LASF24
 1156 0223 01       		.byte	0x1
 1157 0224 AF       		.byte	0xaf
 1158 0225 01       		.byte	0x1
 1159 0226 60000000 		.4byte	.LFB24
 1160 022a 62000000 		.4byte	.LFE24
 1161 022e 02       		.byte	0x2
 1162 022f 7D       		.byte	0x7d
 1163 0230 00       		.sleb128 0
 1164 0231 01       		.byte	0x1
 1165 0232 02       		.uleb128 0x2
 1166 0233 01       		.byte	0x1
 1167 0234 2F000000 		.4byte	.LASF25
 1168 0238 01       		.byte	0x1
 1169 0239 B0       		.byte	0xb0
 1170 023a 01       		.byte	0x1
 1171 023b 64000000 		.4byte	.LFB25
 1172 023f 66000000 		.4byte	.LFE25
 1173 0243 02       		.byte	0x2
 1174 0244 7D       		.byte	0x7d
 1175 0245 00       		.sleb128 0
 1176 0246 01       		.byte	0x1
 1177 0247 02       		.uleb128 0x2
ARM GAS  C:\Users\Akil\AppData\Local\Temp\ccYyRyEf.s 			page 25


 1178 0248 01       		.byte	0x1
 1179 0249 C3010000 		.4byte	.LASF26
 1180 024d 01       		.byte	0x1
 1181 024e B1       		.byte	0xb1
 1182 024f 01       		.byte	0x1
 1183 0250 68000000 		.4byte	.LFB26
 1184 0254 6A000000 		.4byte	.LFE26
 1185 0258 02       		.byte	0x2
 1186 0259 7D       		.byte	0x7d
 1187 025a 00       		.sleb128 0
 1188 025b 01       		.byte	0x1
 1189 025c 02       		.uleb128 0x2
 1190 025d 01       		.byte	0x1
 1191 025e 75030000 		.4byte	.LASF27
 1192 0262 01       		.byte	0x1
 1193 0263 B2       		.byte	0xb2
 1194 0264 01       		.byte	0x1
 1195 0265 6C000000 		.4byte	.LFB27
 1196 0269 6E000000 		.4byte	.LFE27
 1197 026d 02       		.byte	0x2
 1198 026e 7D       		.byte	0x7d
 1199 026f 00       		.sleb128 0
 1200 0270 01       		.byte	0x1
 1201 0271 02       		.uleb128 0x2
 1202 0272 01       		.byte	0x1
 1203 0273 02030000 		.4byte	.LASF28
 1204 0277 01       		.byte	0x1
 1205 0278 B3       		.byte	0xb3
 1206 0279 01       		.byte	0x1
 1207 027a 70000000 		.4byte	.LFB28
 1208 027e 72000000 		.4byte	.LFE28
 1209 0282 02       		.byte	0x2
 1210 0283 7D       		.byte	0x7d
 1211 0284 00       		.sleb128 0
 1212 0285 01       		.byte	0x1
 1213 0286 02       		.uleb128 0x2
 1214 0287 01       		.byte	0x1
 1215 0288 B2000000 		.4byte	.LASF29
 1216 028c 01       		.byte	0x1
 1217 028d B4       		.byte	0xb4
 1218 028e 01       		.byte	0x1
 1219 028f 74000000 		.4byte	.LFB29
 1220 0293 76000000 		.4byte	.LFE29
 1221 0297 02       		.byte	0x2
 1222 0298 7D       		.byte	0x7d
 1223 0299 00       		.sleb128 0
 1224 029a 01       		.byte	0x1
 1225 029b 02       		.uleb128 0x2
 1226 029c 01       		.byte	0x1
 1227 029d 6E020000 		.4byte	.LASF30
 1228 02a1 01       		.byte	0x1
 1229 02a2 B5       		.byte	0xb5
 1230 02a3 01       		.byte	0x1
 1231 02a4 78000000 		.4byte	.LFB30
 1232 02a8 7A000000 		.4byte	.LFE30
 1233 02ac 02       		.byte	0x2
 1234 02ad 7D       		.byte	0x7d
ARM GAS  C:\Users\Akil\AppData\Local\Temp\ccYyRyEf.s 			page 26


 1235 02ae 00       		.sleb128 0
 1236 02af 01       		.byte	0x1
 1237 02b0 02       		.uleb128 0x2
 1238 02b1 01       		.byte	0x1
 1239 02b2 30010000 		.4byte	.LASF31
 1240 02b6 01       		.byte	0x1
 1241 02b7 B6       		.byte	0xb6
 1242 02b8 01       		.byte	0x1
 1243 02b9 7C000000 		.4byte	.LFB31
 1244 02bd 7E000000 		.4byte	.LFE31
 1245 02c1 02       		.byte	0x2
 1246 02c2 7D       		.byte	0x7d
 1247 02c3 00       		.sleb128 0
 1248 02c4 01       		.byte	0x1
 1249 02c5 02       		.uleb128 0x2
 1250 02c6 01       		.byte	0x1
 1251 02c7 C7020000 		.4byte	.LASF32
 1252 02cb 01       		.byte	0x1
 1253 02cc B7       		.byte	0xb7
 1254 02cd 01       		.byte	0x1
 1255 02ce 80000000 		.4byte	.LFB32
 1256 02d2 82000000 		.4byte	.LFE32
 1257 02d6 02       		.byte	0x2
 1258 02d7 7D       		.byte	0x7d
 1259 02d8 00       		.sleb128 0
 1260 02d9 01       		.byte	0x1
 1261 02da 02       		.uleb128 0x2
 1262 02db 01       		.byte	0x1
 1263 02dc 2D030000 		.4byte	.LASF33
 1264 02e0 01       		.byte	0x1
 1265 02e1 B8       		.byte	0xb8
 1266 02e2 01       		.byte	0x1
 1267 02e3 84000000 		.4byte	.LFB33
 1268 02e7 86000000 		.4byte	.LFE33
 1269 02eb 02       		.byte	0x2
 1270 02ec 7D       		.byte	0x7d
 1271 02ed 00       		.sleb128 0
 1272 02ee 01       		.byte	0x1
 1273 02ef 02       		.uleb128 0x2
 1274 02f0 01       		.byte	0x1
 1275 02f1 D2000000 		.4byte	.LASF34
 1276 02f5 01       		.byte	0x1
 1277 02f6 B9       		.byte	0xb9
 1278 02f7 01       		.byte	0x1
 1279 02f8 88000000 		.4byte	.LFB34
 1280 02fc 8A000000 		.4byte	.LFE34
 1281 0300 02       		.byte	0x2
 1282 0301 7D       		.byte	0x7d
 1283 0302 00       		.sleb128 0
 1284 0303 01       		.byte	0x1
 1285 0304 02       		.uleb128 0x2
 1286 0305 01       		.byte	0x1
 1287 0306 82000000 		.4byte	.LASF35
 1288 030a 01       		.byte	0x1
 1289 030b BA       		.byte	0xba
 1290 030c 01       		.byte	0x1
 1291 030d 8C000000 		.4byte	.LFB35
ARM GAS  C:\Users\Akil\AppData\Local\Temp\ccYyRyEf.s 			page 27


 1292 0311 8E000000 		.4byte	.LFE35
 1293 0315 02       		.byte	0x2
 1294 0316 7D       		.byte	0x7d
 1295 0317 00       		.sleb128 0
 1296 0318 01       		.byte	0x1
 1297 0319 02       		.uleb128 0x2
 1298 031a 01       		.byte	0x1
 1299 031b 03020000 		.4byte	.LASF36
 1300 031f 01       		.byte	0x1
 1301 0320 BB       		.byte	0xbb
 1302 0321 01       		.byte	0x1
 1303 0322 90000000 		.4byte	.LFB36
 1304 0326 92000000 		.4byte	.LFE36
 1305 032a 02       		.byte	0x2
 1306 032b 7D       		.byte	0x7d
 1307 032c 00       		.sleb128 0
 1308 032d 01       		.byte	0x1
 1309 032e 02       		.uleb128 0x2
 1310 032f 01       		.byte	0x1
 1311 0330 F3010000 		.4byte	.LASF37
 1312 0334 01       		.byte	0x1
 1313 0335 BC       		.byte	0xbc
 1314 0336 01       		.byte	0x1
 1315 0337 94000000 		.4byte	.LFB37
 1316 033b 96000000 		.4byte	.LFE37
 1317 033f 02       		.byte	0x2
 1318 0340 7D       		.byte	0x7d
 1319 0341 00       		.sleb128 0
 1320 0342 01       		.byte	0x1
 1321 0343 02       		.uleb128 0x2
 1322 0344 01       		.byte	0x1
 1323 0345 D2010000 		.4byte	.LASF38
 1324 0349 01       		.byte	0x1
 1325 034a BD       		.byte	0xbd
 1326 034b 01       		.byte	0x1
 1327 034c 98000000 		.4byte	.LFB38
 1328 0350 9A000000 		.4byte	.LFE38
 1329 0354 02       		.byte	0x2
 1330 0355 7D       		.byte	0x7d
 1331 0356 00       		.sleb128 0
 1332 0357 01       		.byte	0x1
 1333 0358 02       		.uleb128 0x2
 1334 0359 01       		.byte	0x1
 1335 035a A1000000 		.4byte	.LASF39
 1336 035e 01       		.byte	0x1
 1337 035f BE       		.byte	0xbe
 1338 0360 01       		.byte	0x1
 1339 0361 9C000000 		.4byte	.LFB39
 1340 0365 9E000000 		.4byte	.LFE39
 1341 0369 02       		.byte	0x2
 1342 036a 7D       		.byte	0x7d
 1343 036b 00       		.sleb128 0
 1344 036c 01       		.byte	0x1
 1345 036d 02       		.uleb128 0x2
 1346 036e 01       		.byte	0x1
 1347 036f C3000000 		.4byte	.LASF40
 1348 0373 01       		.byte	0x1
ARM GAS  C:\Users\Akil\AppData\Local\Temp\ccYyRyEf.s 			page 28


 1349 0374 BF       		.byte	0xbf
 1350 0375 01       		.byte	0x1
 1351 0376 A0000000 		.4byte	.LFB40
 1352 037a A2000000 		.4byte	.LFE40
 1353 037e 02       		.byte	0x2
 1354 037f 7D       		.byte	0x7d
 1355 0380 00       		.sleb128 0
 1356 0381 01       		.byte	0x1
 1357 0382 03       		.uleb128 0x3
 1358 0383 13030000 		.4byte	.LASF43
 1359 0387 01       		.byte	0x1
 1360 0388 28       		.byte	0x28
 1361 0389 8F030000 		.4byte	0x38f
 1362 038d 01       		.byte	0x1
 1363 038e 01       		.byte	0x1
 1364 038f 04       		.uleb128 0x4
 1365 0390 04       		.byte	0x4
 1366 0391 07       		.byte	0x7
 1367 0392 3F020000 		.4byte	.LASF41
 1368 0396 05       		.uleb128 0x5
 1369 0397 AD030000 		.4byte	0x3ad
 1370 039b A6030000 		.4byte	0x3a6
 1371 039f 06       		.uleb128 0x6
 1372 03a0 A6030000 		.4byte	0x3a6
 1373 03a4 2F       		.byte	0x2f
 1374 03a5 00       		.byte	0
 1375 03a6 04       		.uleb128 0x4
 1376 03a7 04       		.byte	0x4
 1377 03a8 07       		.byte	0x7
 1378 03a9 E8020000 		.4byte	.LASF42
 1379 03ad 07       		.uleb128 0x7
 1380 03ae 04       		.byte	0x4
 1381 03af B3030000 		.4byte	0x3b3
 1382 03b3 08       		.uleb128 0x8
 1383 03b4 01       		.byte	0x1
 1384 03b5 09       		.uleb128 0x9
 1385 03b6 5A030000 		.4byte	.LASF44
 1386 03ba 01       		.byte	0x1
 1387 03bb 61       		.byte	0x61
 1388 03bc C7030000 		.4byte	0x3c7
 1389 03c0 01       		.byte	0x1
 1390 03c1 05       		.byte	0x5
 1391 03c2 03       		.byte	0x3
 1392 03c3 00000000 		.4byte	gVectors
 1393 03c7 0A       		.uleb128 0xa
 1394 03c8 96030000 		.4byte	0x396
 1395 03cc 00       		.byte	0
 1396              		.section	.debug_abbrev,"",%progbits
 1397              	.Ldebug_abbrev0:
 1398 0000 01       		.uleb128 0x1
 1399 0001 11       		.uleb128 0x11
 1400 0002 01       		.byte	0x1
 1401 0003 25       		.uleb128 0x25
 1402 0004 0E       		.uleb128 0xe
 1403 0005 13       		.uleb128 0x13
 1404 0006 0B       		.uleb128 0xb
 1405 0007 03       		.uleb128 0x3
ARM GAS  C:\Users\Akil\AppData\Local\Temp\ccYyRyEf.s 			page 29


 1406 0008 0E       		.uleb128 0xe
 1407 0009 1B       		.uleb128 0x1b
 1408 000a 0E       		.uleb128 0xe
 1409 000b 11       		.uleb128 0x11
 1410 000c 01       		.uleb128 0x1
 1411 000d 12       		.uleb128 0x12
 1412 000e 01       		.uleb128 0x1
 1413 000f 10       		.uleb128 0x10
 1414 0010 06       		.uleb128 0x6
 1415 0011 00       		.byte	0
 1416 0012 00       		.byte	0
 1417 0013 02       		.uleb128 0x2
 1418 0014 2E       		.uleb128 0x2e
 1419 0015 00       		.byte	0
 1420 0016 3F       		.uleb128 0x3f
 1421 0017 0C       		.uleb128 0xc
 1422 0018 03       		.uleb128 0x3
 1423 0019 0E       		.uleb128 0xe
 1424 001a 3A       		.uleb128 0x3a
 1425 001b 0B       		.uleb128 0xb
 1426 001c 3B       		.uleb128 0x3b
 1427 001d 0B       		.uleb128 0xb
 1428 001e 27       		.uleb128 0x27
 1429 001f 0C       		.uleb128 0xc
 1430 0020 11       		.uleb128 0x11
 1431 0021 01       		.uleb128 0x1
 1432 0022 12       		.uleb128 0x12
 1433 0023 01       		.uleb128 0x1
 1434 0024 40       		.uleb128 0x40
 1435 0025 0A       		.uleb128 0xa
 1436 0026 9742     		.uleb128 0x2117
 1437 0028 0C       		.uleb128 0xc
 1438 0029 00       		.byte	0
 1439 002a 00       		.byte	0
 1440 002b 03       		.uleb128 0x3
 1441 002c 34       		.uleb128 0x34
 1442 002d 00       		.byte	0
 1443 002e 03       		.uleb128 0x3
 1444 002f 0E       		.uleb128 0xe
 1445 0030 3A       		.uleb128 0x3a
 1446 0031 0B       		.uleb128 0xb
 1447 0032 3B       		.uleb128 0x3b
 1448 0033 0B       		.uleb128 0xb
 1449 0034 49       		.uleb128 0x49
 1450 0035 13       		.uleb128 0x13
 1451 0036 3F       		.uleb128 0x3f
 1452 0037 0C       		.uleb128 0xc
 1453 0038 3C       		.uleb128 0x3c
 1454 0039 0C       		.uleb128 0xc
 1455 003a 00       		.byte	0
 1456 003b 00       		.byte	0
 1457 003c 04       		.uleb128 0x4
 1458 003d 24       		.uleb128 0x24
 1459 003e 00       		.byte	0
 1460 003f 0B       		.uleb128 0xb
 1461 0040 0B       		.uleb128 0xb
 1462 0041 3E       		.uleb128 0x3e
ARM GAS  C:\Users\Akil\AppData\Local\Temp\ccYyRyEf.s 			page 30


 1463 0042 0B       		.uleb128 0xb
 1464 0043 03       		.uleb128 0x3
 1465 0044 0E       		.uleb128 0xe
 1466 0045 00       		.byte	0
 1467 0046 00       		.byte	0
 1468 0047 05       		.uleb128 0x5
 1469 0048 01       		.uleb128 0x1
 1470 0049 01       		.byte	0x1
 1471 004a 49       		.uleb128 0x49
 1472 004b 13       		.uleb128 0x13
 1473 004c 01       		.uleb128 0x1
 1474 004d 13       		.uleb128 0x13
 1475 004e 00       		.byte	0
 1476 004f 00       		.byte	0
 1477 0050 06       		.uleb128 0x6
 1478 0051 21       		.uleb128 0x21
 1479 0052 00       		.byte	0
 1480 0053 49       		.uleb128 0x49
 1481 0054 13       		.uleb128 0x13
 1482 0055 2F       		.uleb128 0x2f
 1483 0056 0B       		.uleb128 0xb
 1484 0057 00       		.byte	0
 1485 0058 00       		.byte	0
 1486 0059 07       		.uleb128 0x7
 1487 005a 0F       		.uleb128 0xf
 1488 005b 00       		.byte	0
 1489 005c 0B       		.uleb128 0xb
 1490 005d 0B       		.uleb128 0xb
 1491 005e 49       		.uleb128 0x49
 1492 005f 13       		.uleb128 0x13
 1493 0060 00       		.byte	0
 1494 0061 00       		.byte	0
 1495 0062 08       		.uleb128 0x8
 1496 0063 15       		.uleb128 0x15
 1497 0064 00       		.byte	0
 1498 0065 27       		.uleb128 0x27
 1499 0066 0C       		.uleb128 0xc
 1500 0067 00       		.byte	0
 1501 0068 00       		.byte	0
 1502 0069 09       		.uleb128 0x9
 1503 006a 34       		.uleb128 0x34
 1504 006b 00       		.byte	0
 1505 006c 03       		.uleb128 0x3
 1506 006d 0E       		.uleb128 0xe
 1507 006e 3A       		.uleb128 0x3a
 1508 006f 0B       		.uleb128 0xb
 1509 0070 3B       		.uleb128 0x3b
 1510 0071 0B       		.uleb128 0xb
 1511 0072 49       		.uleb128 0x49
 1512 0073 13       		.uleb128 0x13
 1513 0074 3F       		.uleb128 0x3f
 1514 0075 0C       		.uleb128 0xc
 1515 0076 02       		.uleb128 0x2
 1516 0077 0A       		.uleb128 0xa
 1517 0078 00       		.byte	0
 1518 0079 00       		.byte	0
 1519 007a 0A       		.uleb128 0xa
ARM GAS  C:\Users\Akil\AppData\Local\Temp\ccYyRyEf.s 			page 31


 1520 007b 26       		.uleb128 0x26
 1521 007c 00       		.byte	0
 1522 007d 49       		.uleb128 0x49
 1523 007e 13       		.uleb128 0x13
 1524 007f 00       		.byte	0
 1525 0080 00       		.byte	0
 1526 0081 00       		.byte	0
 1527              		.section	.debug_aranges,"",%progbits
 1528 0000 1C000000 		.4byte	0x1c
 1529 0004 0200     		.2byte	0x2
 1530 0006 00000000 		.4byte	.Ldebug_info0
 1531 000a 04       		.byte	0x4
 1532 000b 00       		.byte	0
 1533 000c 0000     		.2byte	0
 1534 000e 0000     		.2byte	0
 1535 0010 00000000 		.4byte	.Ltext0
 1536 0014 A2000000 		.4byte	.Letext0-.Ltext0
 1537 0018 00000000 		.4byte	0
 1538 001c 00000000 		.4byte	0
 1539              		.section	.debug_line,"",%progbits
 1540              	.Ldebug_line0:
 1541 0000 37010000 		.section	.debug_str,"MS",%progbits,1
 1541      02002C00 
 1541      00000201 
 1541      FB0E0D00 
 1541      01010101 
 1542              	.LASF18:
 1543 0000 50574D5F 		.ascii	"PWM_IRQHandler\000"
 1543      49525148 
 1543      616E646C 
 1543      657200
 1544              	.LASF19:
 1545 000f 49324330 		.ascii	"I2C0_IRQHandler\000"
 1545      5F495251 
 1545      48616E64 
 1545      6C657200 
 1546              	.LASF24:
 1547 001f 53535031 		.ascii	"SSP1_IRQHandler\000"
 1547      5F495251 
 1547      48616E64 
 1547      6C657200 
 1548              	.LASF25:
 1549 002f 504C4C30 		.ascii	"PLL0_IRQHandler\000"
 1549      5F495251 
 1549      48616E64 
 1549      6C657200 
 1550              	.LASF16:
 1551 003f 55415254 		.ascii	"UART2_IRQHandler\000"
 1551      325F4952 
 1551      5148616E 
 1551      646C6572 
 1551      00
 1552              	.LASF6:
 1553 0050 44656275 		.ascii	"DebugMon_Handler\000"
 1553      674D6F6E 
 1553      5F48616E 
 1553      646C6572 
ARM GAS  C:\Users\Akil\AppData\Local\Temp\ccYyRyEf.s 			page 32


 1553      00
 1554              	.LASF8:
 1555 0061 53797354 		.ascii	"SysTick_Handler\000"
 1555      69636B5F 
 1555      48616E64 
 1555      6C657200 
 1556              	.LASF14:
 1557 0071 55415254 		.ascii	"UART0_IRQHandler\000"
 1557      305F4952 
 1557      5148616E 
 1557      646C6572 
 1557      00
 1558              	.LASF35:
 1559 0082 444D415F 		.ascii	"DMA_IRQHandler\000"
 1559      49525148 
 1559      616E646C 
 1559      657200
 1560              	.LASF21:
 1561 0091 49324332 		.ascii	"I2C2_IRQHandler\000"
 1561      5F495251 
 1561      48616E64 
 1561      6C657200 
 1562              	.LASF39:
 1563 00a1 4D435057 		.ascii	"MCPWM_IRQHandler\000"
 1563      4D5F4952 
 1563      5148616E 
 1563      646C6572 
 1563      00
 1564              	.LASF29:
 1565 00b2 45494E54 		.ascii	"EINT2_IRQHandler\000"
 1565      325F4952 
 1565      5148616E 
 1565      646C6572 
 1565      00
 1566              	.LASF40:
 1567 00c3 5145495F 		.ascii	"QEI_IRQHandler\000"
 1567      49525148 
 1567      616E646C 
 1567      657200
 1568              	.LASF34:
 1569 00d2 43414E5F 		.ascii	"CAN_IRQHandler\000"
 1569      49525148 
 1569      616E646C 
 1569      657200
 1570              	.LASF13:
 1571 00e1 54494D45 		.ascii	"TIMER3_IRQHandler\000"
 1571      52335F49 
 1571      52514861 
 1571      6E646C65 
 1571      7200
 1572              	.LASF47:
 1573 00f3 643A5C54 		.ascii	"d:\\Testing\\canopen_make\\Application_Master\000"
 1573      65737469 
 1573      6E675C63 
 1573      616E6F70 
 1573      656E5F6D 
 1574              	.LASF11:
ARM GAS  C:\Users\Akil\AppData\Local\Temp\ccYyRyEf.s 			page 33


 1575 011e 54494D45 		.ascii	"TIMER1_IRQHandler\000"
 1575      52315F49 
 1575      52514861 
 1575      6E646C65 
 1575      7200
 1576              	.LASF31:
 1577 0130 4144435F 		.ascii	"ADC_IRQHandler\000"
 1577      49525148 
 1577      616E646C 
 1577      657200
 1578              	.LASF45:
 1579 013f 474E5520 		.ascii	"GNU C 4.8.4 20140526 (release) [ARM/embedded-4_8-br"
 1579      4320342E 
 1579      382E3420 
 1579      32303134 
 1579      30353236 
 1580 0172 616E6368 		.ascii	"anch revision 211358] -mcpu=cortex-m3 -mthumb -gdwa"
 1580      20726576 
 1580      6973696F 
 1580      6E203231 
 1580      31333538 
 1581 01a5 72662D32 		.ascii	"rf-2 -O0 -fomit-frame-pointer\000"
 1581      202D4F30 
 1581      202D666F 
 1581      6D69742D 
 1581      6672616D 
 1582              	.LASF26:
 1583 01c3 5254435F 		.ascii	"RTC_IRQHandler\000"
 1583      49525148 
 1583      616E646C 
 1583      657200
 1584              	.LASF38:
 1585 01d2 5249545F 		.ascii	"RIT_IRQHandler\000"
 1585      49525148 
 1585      616E646C 
 1585      657200
 1586              	.LASF12:
 1587 01e1 54494D45 		.ascii	"TIMER2_IRQHandler\000"
 1587      52325F49 
 1587      52514861 
 1587      6E646C65 
 1587      7200
 1588              	.LASF37:
 1589 01f3 454E4554 		.ascii	"ENET_IRQHandler\000"
 1589      5F495251 
 1589      48616E64 
 1589      6C657200 
 1590              	.LASF36:
 1591 0203 4932535F 		.ascii	"I2S_IRQHandler\000"
 1591      49525148 
 1591      616E646C 
 1591      657200
 1592              	.LASF20:
 1593 0212 49324331 		.ascii	"I2C1_IRQHandler\000"
 1593      5F495251 
 1593      48616E64 
 1593      6C657200 
ARM GAS  C:\Users\Akil\AppData\Local\Temp\ccYyRyEf.s 			page 34


 1594              	.LASF5:
 1595 0222 5356435F 		.ascii	"SVC_Handler\000"
 1595      48616E64 
 1595      6C657200 
 1596              	.LASF17:
 1597 022e 55415254 		.ascii	"UART3_IRQHandler\000"
 1597      335F4952 
 1597      5148616E 
 1597      646C6572 
 1597      00
 1598              	.LASF41:
 1599 023f 6C6F6E67 		.ascii	"long unsigned int\000"
 1599      20756E73 
 1599      69676E65 
 1599      6420696E 
 1599      7400
 1600              	.LASF15:
 1601 0251 55415254 		.ascii	"UART1_IRQHandler\000"
 1601      315F4952 
 1601      5148616E 
 1601      646C6572 
 1601      00
 1602              	.LASF0:
 1603 0262 4E4D495F 		.ascii	"NMI_Handler\000"
 1603      48616E64 
 1603      6C657200 
 1604              	.LASF30:
 1605 026e 45494E54 		.ascii	"EINT3_IRQHandler\000"
 1605      335F4952 
 1605      5148616E 
 1605      646C6572 
 1605      00
 1606              	.LASF23:
 1607 027f 53535030 		.ascii	"SSP0_IRQHandler\000"
 1607      5F495251 
 1607      48616E64 
 1607      6C657200 
 1608              	.LASF4:
 1609 028f 55736167 		.ascii	"UsageFault_Handler\000"
 1609      65466175 
 1609      6C745F48 
 1609      616E646C 
 1609      657200
 1610              	.LASF9:
 1611 02a2 5744545F 		.ascii	"WDT_IRQHandler\000"
 1611      49525148 
 1611      616E646C 
 1611      657200
 1612              	.LASF46:
 1613 02b1 7372632F 		.ascii	"src/vectors_lpc1768.c\000"
 1613      76656374 
 1613      6F72735F 
 1613      6C706331 
 1613      3736382E 
 1614              	.LASF32:
 1615 02c7 424F445F 		.ascii	"BOD_IRQHandler\000"
 1615      49525148 
ARM GAS  C:\Users\Akil\AppData\Local\Temp\ccYyRyEf.s 			page 35


 1615      616E646C 
 1615      657200
 1616              	.LASF1:
 1617 02d6 48617264 		.ascii	"HardFault_Handler\000"
 1617      4661756C 
 1617      745F4861 
 1617      6E646C65 
 1617      7200
 1618              	.LASF42:
 1619 02e8 73697A65 		.ascii	"sizetype\000"
 1619      74797065 
 1619      00
 1620              	.LASF3:
 1621 02f1 42757346 		.ascii	"BusFault_Handler\000"
 1621      61756C74 
 1621      5F48616E 
 1621      646C6572 
 1621      00
 1622              	.LASF28:
 1623 0302 45494E54 		.ascii	"EINT1_IRQHandler\000"
 1623      315F4952 
 1623      5148616E 
 1623      646C6572 
 1623      00
 1624              	.LASF43:
 1625 0313 5F657374 		.ascii	"_estack\000"
 1625      61636B00 
 1626              	.LASF2:
 1627 031b 4D656D4D 		.ascii	"MemManage_Handler\000"
 1627      616E6167 
 1627      655F4861 
 1627      6E646C65 
 1627      7200
 1628              	.LASF33:
 1629 032d 5553425F 		.ascii	"USB_IRQHandler\000"
 1629      49525148 
 1629      616E646C 
 1629      657200
 1630              	.LASF22:
 1631 033c 5350495F 		.ascii	"SPI_IRQHandler\000"
 1631      49525148 
 1631      616E646C 
 1631      657200
 1632              	.LASF7:
 1633 034b 50656E64 		.ascii	"PendSV_Handler\000"
 1633      53565F48 
 1633      616E646C 
 1633      657200
 1634              	.LASF44:
 1635 035a 67566563 		.ascii	"gVectors\000"
 1635      746F7273 
 1635      00
 1636              	.LASF10:
 1637 0363 54494D45 		.ascii	"TIMER0_IRQHandler\000"
 1637      52305F49 
 1637      52514861 
 1637      6E646C65 
ARM GAS  C:\Users\Akil\AppData\Local\Temp\ccYyRyEf.s 			page 36


 1637      7200
 1638              	.LASF27:
 1639 0375 45494E54 		.ascii	"EINT0_IRQHandler\000"
 1639      305F4952 
 1639      5148616E 
 1639      646C6572 
 1639      00
 1640              		.ident	"GCC: (GNU Tools for ARM Embedded Processors) 4.8.4 20140526 (release) [ARM/embedded-4_8-br
ARM GAS  C:\Users\Akil\AppData\Local\Temp\ccYyRyEf.s 			page 37


DEFINED SYMBOLS
                            *ABS*:00000000 vectors_lpc1768.c
C:\Users\Akil\AppData\Local\Temp\ccYyRyEf.s:61     .vectors:00000000 gVectors
C:\Users\Akil\AppData\Local\Temp\ccYyRyEf.s:58     .vectors:00000000 $d
C:\Users\Akil\AppData\Local\Temp\ccYyRyEf.s:116    .text:00000000 NMI_Handler
C:\Users\Akil\AppData\Local\Temp\ccYyRyEf.s:135    .text:00000004 HardFault_Handler
C:\Users\Akil\AppData\Local\Temp\ccYyRyEf.s:153    .text:00000008 MemManage_Handler
C:\Users\Akil\AppData\Local\Temp\ccYyRyEf.s:171    .text:0000000c BusFault_Handler
C:\Users\Akil\AppData\Local\Temp\ccYyRyEf.s:189    .text:00000010 UsageFault_Handler
C:\Users\Akil\AppData\Local\Temp\ccYyRyEf.s:207    .text:00000014 SVC_Handler
C:\Users\Akil\AppData\Local\Temp\ccYyRyEf.s:225    .text:00000018 DebugMon_Handler
C:\Users\Akil\AppData\Local\Temp\ccYyRyEf.s:243    .text:0000001c PendSV_Handler
C:\Users\Akil\AppData\Local\Temp\ccYyRyEf.s:261    .text:00000020 SysTick_Handler
C:\Users\Akil\AppData\Local\Temp\ccYyRyEf.s:279    .text:00000024 WDT_IRQHandler
C:\Users\Akil\AppData\Local\Temp\ccYyRyEf.s:297    .text:00000028 TIMER0_IRQHandler
C:\Users\Akil\AppData\Local\Temp\ccYyRyEf.s:315    .text:0000002c TIMER1_IRQHandler
C:\Users\Akil\AppData\Local\Temp\ccYyRyEf.s:333    .text:00000030 TIMER2_IRQHandler
C:\Users\Akil\AppData\Local\Temp\ccYyRyEf.s:351    .text:00000034 TIMER3_IRQHandler
C:\Users\Akil\AppData\Local\Temp\ccYyRyEf.s:369    .text:00000038 UART0_IRQHandler
C:\Users\Akil\AppData\Local\Temp\ccYyRyEf.s:387    .text:0000003c UART1_IRQHandler
C:\Users\Akil\AppData\Local\Temp\ccYyRyEf.s:405    .text:00000040 UART2_IRQHandler
C:\Users\Akil\AppData\Local\Temp\ccYyRyEf.s:423    .text:00000044 UART3_IRQHandler
C:\Users\Akil\AppData\Local\Temp\ccYyRyEf.s:441    .text:00000048 PWM_IRQHandler
C:\Users\Akil\AppData\Local\Temp\ccYyRyEf.s:459    .text:0000004c I2C0_IRQHandler
C:\Users\Akil\AppData\Local\Temp\ccYyRyEf.s:477    .text:00000050 I2C1_IRQHandler
C:\Users\Akil\AppData\Local\Temp\ccYyRyEf.s:495    .text:00000054 I2C2_IRQHandler
C:\Users\Akil\AppData\Local\Temp\ccYyRyEf.s:513    .text:00000058 SPI_IRQHandler
C:\Users\Akil\AppData\Local\Temp\ccYyRyEf.s:531    .text:0000005c SSP0_IRQHandler
C:\Users\Akil\AppData\Local\Temp\ccYyRyEf.s:549    .text:00000060 SSP1_IRQHandler
C:\Users\Akil\AppData\Local\Temp\ccYyRyEf.s:567    .text:00000064 PLL0_IRQHandler
C:\Users\Akil\AppData\Local\Temp\ccYyRyEf.s:585    .text:00000068 RTC_IRQHandler
C:\Users\Akil\AppData\Local\Temp\ccYyRyEf.s:603    .text:0000006c EINT0_IRQHandler
C:\Users\Akil\AppData\Local\Temp\ccYyRyEf.s:621    .text:00000070 EINT1_IRQHandler
C:\Users\Akil\AppData\Local\Temp\ccYyRyEf.s:639    .text:00000074 EINT2_IRQHandler
C:\Users\Akil\AppData\Local\Temp\ccYyRyEf.s:657    .text:00000078 EINT3_IRQHandler
C:\Users\Akil\AppData\Local\Temp\ccYyRyEf.s:675    .text:0000007c ADC_IRQHandler
C:\Users\Akil\AppData\Local\Temp\ccYyRyEf.s:693    .text:00000080 BOD_IRQHandler
C:\Users\Akil\AppData\Local\Temp\ccYyRyEf.s:711    .text:00000084 USB_IRQHandler
C:\Users\Akil\AppData\Local\Temp\ccYyRyEf.s:729    .text:00000088 CAN_IRQHandler
C:\Users\Akil\AppData\Local\Temp\ccYyRyEf.s:747    .text:0000008c DMA_IRQHandler
C:\Users\Akil\AppData\Local\Temp\ccYyRyEf.s:765    .text:00000090 I2S_IRQHandler
C:\Users\Akil\AppData\Local\Temp\ccYyRyEf.s:783    .text:00000094 ENET_IRQHandler
C:\Users\Akil\AppData\Local\Temp\ccYyRyEf.s:801    .text:00000098 RIT_IRQHandler
C:\Users\Akil\AppData\Local\Temp\ccYyRyEf.s:819    .text:0000009c MCPWM_IRQHandler
C:\Users\Akil\AppData\Local\Temp\ccYyRyEf.s:837    .text:000000a0 QEI_IRQHandler
C:\Users\Akil\AppData\Local\Temp\ccYyRyEf.s:111    .text:00000000 $t
                     .debug_frame:00000010 $d

UNDEFINED SYMBOLS
_estack
ResetHandler
