ARM GAS  C:\Users\Akil\AppData\Local\Temp\ccQHvn3W.s 			page 1


   1              		.syntax unified
   2              		.cpu cortex-m3
   3              		.fpu softvfp
   4              		.eabi_attribute 20, 1	@ Tag_ABI_FP_denormal
   5              		.eabi_attribute 21, 1	@ Tag_ABI_FP_exceptions
   6              		.eabi_attribute 23, 3	@ Tag_ABI_FP_number_model
   7              		.eabi_attribute 24, 1	@ Tag_ABI_align8_needed
   8              		.eabi_attribute 25, 1	@ Tag_ABI_align8_preserved
   9              		.eabi_attribute 26, 1	@ Tag_ABI_enum_size
  10              		.eabi_attribute 30, 6	@ Tag_ABI_optimization_goals
  11              		.eabi_attribute 34, 1	@ Tag_CPU_unaligned_access
  12              		.eabi_attribute 18, 4	@ Tag_ABI_PCS_wchar_t
  13              		.file	"core_cm3.c"
  14              	@ GNU C (GNU Tools for ARM Embedded Processors) version 4.8.4 20140526 (release) [ARM/embedded-4_8-
  15              	@	compiled by GNU C version 4.6.4, GMP version 4.3.2, MPFR version 2.4.2, MPC version 0.8.1
  16              	@ GGC heuristics: --param ggc-min-expand=100 --param ggc-min-heapsize=131072
  17              	@ options passed:  -I . -I ./include -I ./cmsis/core -I ./cmsis/device
  18              	@ -I ./prime-framework -I ./prime-framework/include
  19              	@ -I ./prime-framework/arch/arm/cortex-m3/lpc1768/include
  20              	@ -I ./prime-framework/common/include -I ./prime-framework/utils/include
  21              	@ -I ./prime-framework/nativehardware/lpc1768/include
  22              	@ -I ./prime-framework/device/include
  23              	@ -I ./prime-framework/extensions/CANopenARM/include -imultilib armv7-m
  24              	@ -iprefix h:\arm-non-eabi\bin\../lib/gcc/arm-none-eabi/4.8.4/
  25              	@ -isysroot h:\arm-non-eabi\bin\../arm-none-eabi -MD cmsis/core/core_cm3.d
  26              	@ -MF .dep/core_cm3.o.d -MP -MQ cmsis/core/core_cm3.o -D__USES_INITFINI__
  27              	@ -D CORE_FAMILY_arm -D MCU_CHIP_lpc1768 -D PRIME_DEBUG -D RUN_FROM_FLASH=1
  28              	@ cmsis/core/core_cm3.c -mcpu=cortex-m3 -mthumb
  29              	@ -auxbase-strip cmsis/core/core_cm3.o -gdwarf-2 -O0 -Wall
  30              	@ -Wstrict-prototypes -fomit-frame-pointer -fverbose-asm
  31              	@ options enabled:  -faggressive-loop-optimizations -fauto-inc-dec
  32              	@ -fbranch-count-reg -fcommon -fdelete-null-pointer-checks -fdwarf2-cfi-asm
  33              	@ -fearly-inlining -feliminate-unused-debug-types -ffunction-cse -fgcse-lm
  34              	@ -fgnu-runtime -fident -finline-atomics -fira-hoist-pressure
  35              	@ -fira-share-save-slots -fira-share-spill-slots -fivopts
  36              	@ -fkeep-static-consts -fleading-underscore -fmath-errno
  37              	@ -fmerge-debug-strings -fmove-loop-invariants -fomit-frame-pointer
  38              	@ -fpeephole -fprefetch-loop-arrays -freg-struct-return
  39              	@ -fsched-critical-path-heuristic -fsched-dep-count-heuristic
  40              	@ -fsched-group-heuristic -fsched-interblock -fsched-last-insn-heuristic
  41              	@ -fsched-rank-heuristic -fsched-spec -fsched-spec-insn-heuristic
  42              	@ -fsched-stalled-insns-dep -fshow-column -fsigned-zeros
  43              	@ -fsplit-ivs-in-unroller -fstrict-volatile-bitfields -fsync-libcalls
  44              	@ -ftrapping-math -ftree-coalesce-vars -ftree-cselim -ftree-forwprop
  45              	@ -ftree-loop-if-convert -ftree-loop-im -ftree-loop-ivcanon
  46              	@ -ftree-loop-optimize -ftree-parallelize-loops= -ftree-phiprop -ftree-pta
  47              	@ -ftree-reassoc -ftree-scev-cprop -ftree-slp-vectorize
  48              	@ -ftree-vect-loop-version -funit-at-a-time -fverbose-asm
  49              	@ -fzero-initialized-in-bss -mfix-cortex-m3-ldrd -mlittle-endian
  50              	@ -mpic-data-is-text-relative -msched-prolog -mthumb -munaligned-access
  51              	@ -mvectorize-with-neon-quad
  52              	
  53              		.text
  54              	.Ltext0:
  55              		.cfi_sections	.debug_frame
  56              	.Letext0:
  57              		.section	.debug_info,"",%progbits
ARM GAS  C:\Users\Akil\AppData\Local\Temp\ccQHvn3W.s 			page 2


  58              	.Ldebug_info0:
  59 0000 60000000 		.4byte	0x60
  60 0004 0200     		.2byte	0x2
  61 0006 00000000 		.4byte	.Ldebug_abbrev0
  62 000a 04       		.byte	0x4
  63 000b 01       		.uleb128 0x1
  64 000c 48000000 		.4byte	.LASF9
  65 0010 01       		.byte	0x1
  66 0011 2C010000 		.4byte	.LASF10
  67 0015 CC000000 		.4byte	.LASF11
  68 0019 00000000 		.4byte	.Ldebug_line0
  69 001d 02       		.uleb128 0x2
  70 001e 01       		.byte	0x1
  71 001f 06       		.byte	0x6
  72 0020 1F000000 		.4byte	.LASF0
  73 0024 02       		.uleb128 0x2
  74 0025 01       		.byte	0x1
  75 0026 08       		.byte	0x8
  76 0027 15010000 		.4byte	.LASF1
  77 002b 02       		.uleb128 0x2
  78 002c 02       		.byte	0x2
  79 002d 05       		.byte	0x5
  80 002e 3E000000 		.4byte	.LASF2
  81 0032 02       		.uleb128 0x2
  82 0033 02       		.byte	0x2
  83 0034 07       		.byte	0x7
  84 0035 2B000000 		.4byte	.LASF3
  85 0039 02       		.uleb128 0x2
  86 003a 04       		.byte	0x4
  87 003b 05       		.byte	0x5
  88 003c 23010000 		.4byte	.LASF4
  89 0040 02       		.uleb128 0x2
  90 0041 04       		.byte	0x4
  91 0042 07       		.byte	0x7
  92 0043 0D000000 		.4byte	.LASF5
  93 0047 02       		.uleb128 0x2
  94 0048 08       		.byte	0x8
  95 0049 05       		.byte	0x5
  96 004a 42010000 		.4byte	.LASF6
  97 004e 02       		.uleb128 0x2
  98 004f 08       		.byte	0x8
  99 0050 07       		.byte	0x7
 100 0051 FE000000 		.4byte	.LASF7
 101 0055 03       		.uleb128 0x3
 102 0056 04       		.byte	0x4
 103 0057 05       		.byte	0x5
 104 0058 696E7400 		.ascii	"int\000"
 105 005c 02       		.uleb128 0x2
 106 005d 04       		.byte	0x4
 107 005e 07       		.byte	0x7
 108 005f 00000000 		.4byte	.LASF8
 109 0063 00       		.byte	0
 110              		.section	.debug_abbrev,"",%progbits
 111              	.Ldebug_abbrev0:
 112 0000 01       		.uleb128 0x1
 113 0001 11       		.uleb128 0x11
 114 0002 01       		.byte	0x1
ARM GAS  C:\Users\Akil\AppData\Local\Temp\ccQHvn3W.s 			page 3


 115 0003 25       		.uleb128 0x25
 116 0004 0E       		.uleb128 0xe
 117 0005 13       		.uleb128 0x13
 118 0006 0B       		.uleb128 0xb
 119 0007 03       		.uleb128 0x3
 120 0008 0E       		.uleb128 0xe
 121 0009 1B       		.uleb128 0x1b
 122 000a 0E       		.uleb128 0xe
 123 000b 10       		.uleb128 0x10
 124 000c 06       		.uleb128 0x6
 125 000d 00       		.byte	0
 126 000e 00       		.byte	0
 127 000f 02       		.uleb128 0x2
 128 0010 24       		.uleb128 0x24
 129 0011 00       		.byte	0
 130 0012 0B       		.uleb128 0xb
 131 0013 0B       		.uleb128 0xb
 132 0014 3E       		.uleb128 0x3e
 133 0015 0B       		.uleb128 0xb
 134 0016 03       		.uleb128 0x3
 135 0017 0E       		.uleb128 0xe
 136 0018 00       		.byte	0
 137 0019 00       		.byte	0
 138 001a 03       		.uleb128 0x3
 139 001b 24       		.uleb128 0x24
 140 001c 00       		.byte	0
 141 001d 0B       		.uleb128 0xb
 142 001e 0B       		.uleb128 0xb
 143 001f 3E       		.uleb128 0x3e
 144 0020 0B       		.uleb128 0xb
 145 0021 03       		.uleb128 0x3
 146 0022 08       		.uleb128 0x8
 147 0023 00       		.byte	0
 148 0024 00       		.byte	0
 149 0025 00       		.byte	0
 150              		.section	.debug_aranges,"",%progbits
 151 0000 14000000 		.4byte	0x14
 152 0004 0200     		.2byte	0x2
 153 0006 00000000 		.4byte	.Ldebug_info0
 154 000a 04       		.byte	0x4
 155 000b 00       		.byte	0
 156 000c 0000     		.2byte	0
 157 000e 0000     		.2byte	0
 158 0010 00000000 		.4byte	0
 159 0014 00000000 		.4byte	0
 160              		.section	.debug_line,"",%progbits
 161              	.Ldebug_line0:
 162 0000 19000000 		.section	.debug_str,"MS",%progbits,1
 162      02001300 
 162      00000201 
 162      FB0E0D00 
 162      01010101 
 163              	.LASF8:
 164 0000 756E7369 		.ascii	"unsigned int\000"
 164      676E6564 
 164      20696E74 
 164      00
ARM GAS  C:\Users\Akil\AppData\Local\Temp\ccQHvn3W.s 			page 4


 165              	.LASF5:
 166 000d 6C6F6E67 		.ascii	"long unsigned int\000"
 166      20756E73 
 166      69676E65 
 166      6420696E 
 166      7400
 167              	.LASF0:
 168 001f 7369676E 		.ascii	"signed char\000"
 168      65642063 
 168      68617200 
 169              	.LASF3:
 170 002b 73686F72 		.ascii	"short unsigned int\000"
 170      7420756E 
 170      7369676E 
 170      65642069 
 170      6E7400
 171              	.LASF2:
 172 003e 73686F72 		.ascii	"short int\000"
 172      7420696E 
 172      7400
 173              	.LASF9:
 174 0048 474E5520 		.ascii	"GNU C 4.8.4 20140526 (release) [ARM/embedded-4_8-br"
 174      4320342E 
 174      382E3420 
 174      32303134 
 174      30353236 
 175 007b 616E6368 		.ascii	"anch revision 211358] -mcpu=cortex-m3 -mthumb -gdwa"
 175      20726576 
 175      6973696F 
 175      6E203231 
 175      31333538 
 176 00ae 72662D32 		.ascii	"rf-2 -O0 -fomit-frame-pointer\000"
 176      202D4F30 
 176      202D666F 
 176      6D69742D 
 176      6672616D 
 177              	.LASF11:
 178 00cc 643A5C54 		.ascii	"d:\\Testing\\canopen_make\\Application_IO\\Example_"
 178      65737469 
 178      6E675C63 
 178      616E6F70 
 178      656E5F6D 
 179 00fb 494F00   		.ascii	"IO\000"
 180              	.LASF7:
 181 00fe 6C6F6E67 		.ascii	"long long unsigned int\000"
 181      206C6F6E 
 181      6720756E 
 181      7369676E 
 181      65642069 
 182              	.LASF1:
 183 0115 756E7369 		.ascii	"unsigned char\000"
 183      676E6564 
 183      20636861 
 183      7200
 184              	.LASF4:
 185 0123 6C6F6E67 		.ascii	"long int\000"
 185      20696E74 
ARM GAS  C:\Users\Akil\AppData\Local\Temp\ccQHvn3W.s 			page 5


 185      00
 186              	.LASF10:
 187 012c 636D7369 		.ascii	"cmsis/core/core_cm3.c\000"
 187      732F636F 
 187      72652F63 
 187      6F72655F 
 187      636D332E 
 188              	.LASF6:
 189 0142 6C6F6E67 		.ascii	"long long int\000"
 189      206C6F6E 
 189      6720696E 
 189      7400
 190              		.ident	"GCC: (GNU Tools for ARM Embedded Processors) 4.8.4 20140526 (release) [ARM/embedded-4_8-br
ARM GAS  C:\Users\Akil\AppData\Local\Temp\ccQHvn3W.s 			page 6


DEFINED SYMBOLS
                            *ABS*:00000000 core_cm3.c

NO UNDEFINED SYMBOLS
