ARM GAS  C:\Users\Akil\AppData\Local\Temp\ccXbK6FH.s 			page 1


   1              		.syntax unified
   2              		.cpu cortex-m3
   3              		.fpu softvfp
   4              		.eabi_attribute 20, 1	@ Tag_ABI_FP_denormal
   5              		.eabi_attribute 21, 1	@ Tag_ABI_FP_exceptions
   6              		.eabi_attribute 23, 3	@ Tag_ABI_FP_number_model
   7              		.eabi_attribute 24, 1	@ Tag_ABI_align8_needed
   8              		.eabi_attribute 25, 1	@ Tag_ABI_align8_preserved
   9              		.eabi_attribute 26, 1	@ Tag_ABI_enum_size
  10              		.eabi_attribute 30, 6	@ Tag_ABI_optimization_goals
  11              		.eabi_attribute 34, 1	@ Tag_CPU_unaligned_access
  12              		.eabi_attribute 18, 4	@ Tag_ABI_PCS_wchar_t
  13              		.file	"vectors_lpc1768.c"
  14              	@ GNU C (GNU Tools for ARM Embedded Processors) version 4.8.4 20140526 (release) [ARM/embedded-4_8-
  15              	@	compiled by GNU C version 4.6.4, GMP version 4.3.2, MPFR version 2.4.2, MPC version 0.8.1
  16              	@ GGC heuristics: --param ggc-min-expand=100 --param ggc-min-heapsize=131072
  17              	@ options passed:  -I . -I ./include -I ./cmsis/core -I ./cmsis/device
  18              	@ -I ./prime-framework -I ./prime-framework/include
  19              	@ -I ./prime-framework/arch/arm/cortex-m3/lpc1768/include
  20              	@ -I ./prime-framework/common/include -I ./prime-framework/utils/include
  21              	@ -I ./prime-framework/nativehardware/lpc1768/include
  22              	@ -I ./prime-framework/device/include
  23              	@ -I ./prime-framework/extensions/canopen/common/include
  24              	@ -I ./prime-framework/extensions/canopen/lpc1768/include
  25              	@ -imultilib armv7-m
  26              	@ -iprefix c:\program files\gnu tools arm embedded\4.8 2014q2\bin\../lib/gcc/arm-none-eabi/4.8.4/
  27              	@ -isysroot c:\program files\gnu tools arm embedded\4.8 2014q2\bin\../arm-none-eabi
  28              	@ -MD src/vectors_lpc1768.d -MF .dep/vectors_lpc1768.o.d -MP
  29              	@ -MQ src/vectors_lpc1768.o -D__USES_INITFINI__ -D CORE_FAMILY_arm
  30              	@ -D MCU_CHIP_lpc1768 -D PRIME_DEBUG -D RUN_FROM_FLASH=1
  31              	@ src/vectors_lpc1768.c -mcpu=cortex-m3 -mthumb
  32              	@ -auxbase-strip src/vectors_lpc1768.o -gdwarf-2 -O0 -Wall
  33              	@ -Wstrict-prototypes -fomit-frame-pointer -fverbose-asm
  34              	@ options enabled:  -faggressive-loop-optimizations -fauto-inc-dec
  35              	@ -fbranch-count-reg -fcommon -fdelete-null-pointer-checks -fdwarf2-cfi-asm
  36              	@ -fearly-inlining -feliminate-unused-debug-types -ffunction-cse -fgcse-lm
  37              	@ -fgnu-runtime -fident -finline-atomics -fira-hoist-pressure
  38              	@ -fira-share-save-slots -fira-share-spill-slots -fivopts
  39              	@ -fkeep-static-consts -fleading-underscore -fmath-errno
  40              	@ -fmerge-debug-strings -fmove-loop-invariants -fomit-frame-pointer
  41              	@ -fpeephole -fprefetch-loop-arrays -freg-struct-return
  42              	@ -fsched-critical-path-heuristic -fsched-dep-count-heuristic
  43              	@ -fsched-group-heuristic -fsched-interblock -fsched-last-insn-heuristic
  44              	@ -fsched-rank-heuristic -fsched-spec -fsched-spec-insn-heuristic
  45              	@ -fsched-stalled-insns-dep -fshow-column -fsigned-zeros
  46              	@ -fsplit-ivs-in-unroller -fstrict-volatile-bitfields -fsync-libcalls
  47              	@ -ftrapping-math -ftree-coalesce-vars -ftree-cselim -ftree-forwprop
  48              	@ -ftree-loop-if-convert -ftree-loop-im -ftree-loop-ivcanon
  49              	@ -ftree-loop-optimize -ftree-parallelize-loops= -ftree-phiprop -ftree-pta
  50              	@ -ftree-reassoc -ftree-scev-cprop -ftree-slp-vectorize
  51              	@ -ftree-vect-loop-version -funit-at-a-time -fverbose-asm
  52              	@ -fzero-initialized-in-bss -mfix-cortex-m3-ldrd -mlittle-endian
  53              	@ -mpic-data-is-text-relative -msched-prolog -mthumb -munaligned-access
  54              	@ -mvectorize-with-neon-quad
  55              	
  56              		.text
  57              	.Ltext0:
ARM GAS  C:\Users\Akil\AppData\Local\Temp\ccXbK6FH.s 			page 2


  58              		.cfi_sections	.debug_frame
  59              		.global	gVectors
  60              		.section	.vectors,"a",%progbits
  61              		.align	2
  62              		.type	gVectors, %object
  63              		.size	gVectors, 192
  64              	gVectors:
  65 0000 00000000 		.word	_estack
  66 0004 00000000 		.word	ResetHandler
  67 0008 00000000 		.word	NMI_Handler
  68 000c 00000000 		.word	HardFault_Handler
  69 0010 00000000 		.word	MemManage_Handler
  70 0014 00000000 		.word	BusFault_Handler
  71 0018 00000000 		.word	UsageFault_Handler
  72 001c 00000000 		.word	0
  73 0020 00000000 		.word	0
  74 0024 00000000 		.word	0
  75 0028 00000000 		.word	0
  76 002c 00000000 		.word	SVC_Handler
  77 0030 00000000 		.word	DebugMon_Handler
  78 0034 00000000 		.word	0
  79 0038 00000000 		.word	PendSV_Handler
  80 003c 00000000 		.word	SysTick_Handler
  81 0040 00000000 		.word	WDT_IRQHandler
  82 0044 00000000 		.word	TIMER0_IRQHandler
  83 0048 00000000 		.word	TIMER1_IRQHandler
  84 004c 00000000 		.word	TIMER2_IRQHandler
  85 0050 00000000 		.word	TIMER3_IRQHandler
  86 0054 00000000 		.word	UART0_IRQHandler
  87 0058 00000000 		.word	UART1_IRQHandler
  88 005c 00000000 		.word	UART2_IRQHandler
  89 0060 00000000 		.word	UART3_IRQHandler
  90 0064 00000000 		.word	PWM_IRQHandler
  91 0068 00000000 		.word	I2C0_IRQHandler
  92 006c 00000000 		.word	I2C1_IRQHandler
  93 0070 00000000 		.word	I2C2_IRQHandler
  94 0074 00000000 		.word	SPI_IRQHandler
  95 0078 00000000 		.word	SSP0_IRQHandler
  96 007c 00000000 		.word	SSP1_IRQHandler
  97 0080 00000000 		.word	PLL0_IRQHandler
  98 0084 00000000 		.word	RTC_IRQHandler
  99 0088 00000000 		.word	EINT0_IRQHandler
 100 008c 00000000 		.word	EINT1_IRQHandler
 101 0090 00000000 		.word	EINT2_IRQHandler
 102 0094 00000000 		.word	EINT3_IRQHandler
 103 0098 00000000 		.word	ADC_IRQHandler
 104 009c 00000000 		.word	BOD_IRQHandler
 105 00a0 00000000 		.word	USB_IRQHandler
 106 00a4 00000000 		.word	CAN_IRQHandler
 107 00a8 00000000 		.word	DMA_IRQHandler
 108 00ac 00000000 		.word	I2S_IRQHandler
 109 00b0 00000000 		.word	ENET_IRQHandler
 110 00b4 00000000 		.word	RIT_IRQHandler
 111 00b8 00000000 		.word	MCPWM_IRQHandler
 112 00bc 00000000 		.word	QEI_IRQHandler
 113              		.text
 114              		.align	2
ARM GAS  C:\Users\Akil\AppData\Local\Temp\ccXbK6FH.s 			page 3


 115              		.weak	NMI_Handler
 116              		.thumb
 117              		.thumb_func
 118              		.type	NMI_Handler, %function
 119              	NMI_Handler:
 120              	.LFB0:
 121              		.file 1 "src/vectors_lpc1768.c"
   1:src/vectors_lpc1768.c **** /****************************************************************************
   2:src/vectors_lpc1768.c **** *  Copyright (c) 2011 by Michael Fischer. All rights reserved.
   3:src/vectors_lpc1768.c **** *
   4:src/vectors_lpc1768.c **** *  Redistribution and use in source and binary forms, with or without 
   5:src/vectors_lpc1768.c **** *  modification, are permitted provided that the following conditions 
   6:src/vectors_lpc1768.c **** *  are met:
   7:src/vectors_lpc1768.c **** *  
   8:src/vectors_lpc1768.c **** *  1. Redistributions of source code must retain the above copyright 
   9:src/vectors_lpc1768.c **** *     notice, this list of conditions and the following disclaimer.
  10:src/vectors_lpc1768.c **** *  2. Redistributions in binary form must reproduce the above copyright
  11:src/vectors_lpc1768.c **** *     notice, this list of conditions and the following disclaimer in the 
  12:src/vectors_lpc1768.c **** *     documentation and/or other materials provided with the distribution.
  13:src/vectors_lpc1768.c **** *  3. Neither the name of the author nor the names of its contributors may 
  14:src/vectors_lpc1768.c **** *     be used to endorse or promote products derived from this software 
  15:src/vectors_lpc1768.c **** *     without specific prior written permission.
  16:src/vectors_lpc1768.c **** *
  17:src/vectors_lpc1768.c **** *  THIS SOFTWARE IS PROVIDED BY THE COPYRIGHT HOLDERS AND CONTRIBUTORS 
  18:src/vectors_lpc1768.c **** *  "AS IS" AND ANY EXPRESS OR IMPLIED WARRANTIES, INCLUDING, BUT NOT 
  19:src/vectors_lpc1768.c **** *  LIMITED TO, THE IMPLIED WARRANTIES OF MERCHANTABILITY AND FITNESS 
  20:src/vectors_lpc1768.c **** *  FOR A PARTICULAR PURPOSE ARE DISCLAIMED. IN NO EVENT SHALL 
  21:src/vectors_lpc1768.c **** *  THE COPYRIGHT OWNER OR CONTRIBUTORS BE LIABLE FOR ANY DIRECT, INDIRECT, 
  22:src/vectors_lpc1768.c **** *  INCIDENTAL, SPECIAL, EXEMPLARY, OR CONSEQUENTIAL DAMAGES (INCLUDING, 
  23:src/vectors_lpc1768.c **** *  BUT NOT LIMITED TO, PROCUREMENT OF SUBSTITUTE GOODS OR SERVICES; LOSS 
  24:src/vectors_lpc1768.c **** *  OF USE, DATA, OR PROFITS; OR BUSINESS INTERRUPTION) HOWEVER CAUSED 
  25:src/vectors_lpc1768.c **** *  AND ON ANY THEORY OF LIABILITY, WHETHER IN CONTRACT, STRICT LIABILITY, 
  26:src/vectors_lpc1768.c **** *  OR TORT (INCLUDING NEGLIGENCE OR OTHERWISE) ARISING IN ANY WAY OUT OF 
  27:src/vectors_lpc1768.c **** *  THE USE OF THIS SOFTWARE, EVEN IF ADVISED OF THE POSSIBILITY OF 
  28:src/vectors_lpc1768.c **** *  SUCH DAMAGE.
  29:src/vectors_lpc1768.c **** *
  30:src/vectors_lpc1768.c **** ****************************************************************************
  31:src/vectors_lpc1768.c **** *  History:
  32:src/vectors_lpc1768.c **** *
  33:src/vectors_lpc1768.c **** *  09.04.2011  mifi  First Version for the LPC1768
  34:src/vectors_lpc1768.c **** ****************************************************************************/
  35:src/vectors_lpc1768.c **** #define __VECTORS_LPC1768_C__
  36:src/vectors_lpc1768.c **** 
  37:src/vectors_lpc1768.c **** /*=========================================================================*/
  38:src/vectors_lpc1768.c **** /*  DEFINE: All extern Data                                                */
  39:src/vectors_lpc1768.c **** /*=========================================================================*/
  40:src/vectors_lpc1768.c **** extern unsigned long _estack;
  41:src/vectors_lpc1768.c **** 
  42:src/vectors_lpc1768.c **** /*=========================================================================*/
  43:src/vectors_lpc1768.c **** /*  DEFINE: Prototypes                                                     */
  44:src/vectors_lpc1768.c **** /*=========================================================================*/
  45:src/vectors_lpc1768.c **** void ResetHandler(void);
  46:src/vectors_lpc1768.c **** 
  47:src/vectors_lpc1768.c **** void NMI_Handler (void) __attribute__((weak));
  48:src/vectors_lpc1768.c **** void HardFault_Handler (void) __attribute__((weak));
  49:src/vectors_lpc1768.c **** void MemManage_Handler (void) __attribute__((weak));
  50:src/vectors_lpc1768.c **** void BusFault_Handler (void) __attribute__((weak));
ARM GAS  C:\Users\Akil\AppData\Local\Temp\ccXbK6FH.s 			page 4


  51:src/vectors_lpc1768.c **** void UsageFault_Handler (void) __attribute__((weak));
  52:src/vectors_lpc1768.c **** void SVC_Handler (void) __attribute__((weak));
  53:src/vectors_lpc1768.c **** void DebugMon_Handler (void) __attribute__((weak));
  54:src/vectors_lpc1768.c **** void PendSV_Handler (void) __attribute__((weak));
  55:src/vectors_lpc1768.c **** void SysTick_Handler (void) __attribute__((weak));
  56:src/vectors_lpc1768.c **** 
  57:src/vectors_lpc1768.c **** void WDT_IRQHandler (void) __attribute__((weak));
  58:src/vectors_lpc1768.c **** void TIMER0_IRQHandler (void) __attribute__((weak));
  59:src/vectors_lpc1768.c **** void TIMER1_IRQHandler (void) __attribute__((weak));
  60:src/vectors_lpc1768.c **** void TIMER2_IRQHandler (void) __attribute__((weak));
  61:src/vectors_lpc1768.c **** void TIMER3_IRQHandler (void) __attribute__((weak));
  62:src/vectors_lpc1768.c **** void UART0_IRQHandler (void) __attribute__((weak));
  63:src/vectors_lpc1768.c **** void UART1_IRQHandler (void) __attribute__((weak));
  64:src/vectors_lpc1768.c **** void UART2_IRQHandler (void) __attribute__((weak));
  65:src/vectors_lpc1768.c **** void UART3_IRQHandler (void) __attribute__((weak));
  66:src/vectors_lpc1768.c **** void PWM_IRQHandler (void) __attribute__((weak));
  67:src/vectors_lpc1768.c **** void I2C0_IRQHandler (void) __attribute__((weak));
  68:src/vectors_lpc1768.c **** void I2C1_IRQHandler (void) __attribute__((weak));
  69:src/vectors_lpc1768.c **** void I2C2_IRQHandler (void) __attribute__((weak));
  70:src/vectors_lpc1768.c **** void SPI_IRQHandler (void) __attribute__((weak));
  71:src/vectors_lpc1768.c **** void SSP0_IRQHandler (void) __attribute__((weak));
  72:src/vectors_lpc1768.c **** void SSP1_IRQHandler (void) __attribute__((weak));
  73:src/vectors_lpc1768.c **** void PLL0_IRQHandler (void) __attribute__((weak));
  74:src/vectors_lpc1768.c **** void RTC_IRQHandler (void) __attribute__((weak));
  75:src/vectors_lpc1768.c **** void EINT0_IRQHandler (void) __attribute__((weak));
  76:src/vectors_lpc1768.c **** void EINT1_IRQHandler (void) __attribute__((weak));
  77:src/vectors_lpc1768.c **** void EINT2_IRQHandler (void) __attribute__((weak));
  78:src/vectors_lpc1768.c **** void EINT3_IRQHandler (void) __attribute__((weak));
  79:src/vectors_lpc1768.c **** void ADC_IRQHandler (void) __attribute__((weak));
  80:src/vectors_lpc1768.c **** void BOD_IRQHandler (void) __attribute__((weak));
  81:src/vectors_lpc1768.c **** void USB_IRQHandler (void) __attribute__((weak));
  82:src/vectors_lpc1768.c **** void CAN_IRQHandler (void) __attribute__((weak));
  83:src/vectors_lpc1768.c **** void DMA_IRQHandler (void) __attribute__((weak));
  84:src/vectors_lpc1768.c **** void I2S_IRQHandler (void) __attribute__((weak));
  85:src/vectors_lpc1768.c **** void ENET_IRQHandler (void) __attribute__((weak));
  86:src/vectors_lpc1768.c **** void RIT_IRQHandler (void) __attribute__((weak));
  87:src/vectors_lpc1768.c **** void MCPWM_IRQHandler (void) __attribute__((weak));
  88:src/vectors_lpc1768.c **** void QEI_IRQHandler (void) __attribute__((weak));
  89:src/vectors_lpc1768.c **** 
  90:src/vectors_lpc1768.c **** /*=========================================================================*/
  91:src/vectors_lpc1768.c **** /*  DEFINE: All code exported                                              */
  92:src/vectors_lpc1768.c **** /*=========================================================================*/
  93:src/vectors_lpc1768.c **** /*
  94:src/vectors_lpc1768.c ****  * This is our vector table.
  95:src/vectors_lpc1768.c ****  */
  96:src/vectors_lpc1768.c **** __attribute__ ((section(".vectors"), used))
  97:src/vectors_lpc1768.c **** void (* const gVectors[])(void) = 
  98:src/vectors_lpc1768.c **** {
  99:src/vectors_lpc1768.c ****    (void (*)(void))((unsigned long)&_estack),
 100:src/vectors_lpc1768.c ****    ResetHandler,
 101:src/vectors_lpc1768.c ****    NMI_Handler,
 102:src/vectors_lpc1768.c ****    HardFault_Handler,
 103:src/vectors_lpc1768.c ****    MemManage_Handler,
 104:src/vectors_lpc1768.c ****    BusFault_Handler,
 105:src/vectors_lpc1768.c ****    UsageFault_Handler,
 106:src/vectors_lpc1768.c ****    0, 0, 0, 0,
 107:src/vectors_lpc1768.c ****    SVC_Handler,
ARM GAS  C:\Users\Akil\AppData\Local\Temp\ccXbK6FH.s 			page 5


 108:src/vectors_lpc1768.c ****    DebugMon_Handler,
 109:src/vectors_lpc1768.c ****    0,
 110:src/vectors_lpc1768.c ****    PendSV_Handler,
 111:src/vectors_lpc1768.c ****    SysTick_Handler,
 112:src/vectors_lpc1768.c ****    
 113:src/vectors_lpc1768.c ****    WDT_IRQHandler,
 114:src/vectors_lpc1768.c ****    TIMER0_IRQHandler,
 115:src/vectors_lpc1768.c ****    TIMER1_IRQHandler,
 116:src/vectors_lpc1768.c ****    TIMER2_IRQHandler,
 117:src/vectors_lpc1768.c ****    TIMER3_IRQHandler,
 118:src/vectors_lpc1768.c ****    UART0_IRQHandler,
 119:src/vectors_lpc1768.c ****    UART1_IRQHandler,
 120:src/vectors_lpc1768.c ****    UART2_IRQHandler,
 121:src/vectors_lpc1768.c ****    UART3_IRQHandler,
 122:src/vectors_lpc1768.c ****    PWM_IRQHandler,
 123:src/vectors_lpc1768.c ****    I2C0_IRQHandler,
 124:src/vectors_lpc1768.c ****    I2C1_IRQHandler,
 125:src/vectors_lpc1768.c ****    I2C2_IRQHandler,
 126:src/vectors_lpc1768.c ****    SPI_IRQHandler,
 127:src/vectors_lpc1768.c ****    SSP0_IRQHandler,
 128:src/vectors_lpc1768.c ****    SSP1_IRQHandler,
 129:src/vectors_lpc1768.c ****    PLL0_IRQHandler,
 130:src/vectors_lpc1768.c ****    RTC_IRQHandler,
 131:src/vectors_lpc1768.c ****    EINT0_IRQHandler,
 132:src/vectors_lpc1768.c ****    EINT1_IRQHandler,
 133:src/vectors_lpc1768.c ****    EINT2_IRQHandler,
 134:src/vectors_lpc1768.c ****    EINT3_IRQHandler,
 135:src/vectors_lpc1768.c ****    ADC_IRQHandler,
 136:src/vectors_lpc1768.c ****    BOD_IRQHandler,
 137:src/vectors_lpc1768.c ****    USB_IRQHandler,
 138:src/vectors_lpc1768.c ****    CAN_IRQHandler,
 139:src/vectors_lpc1768.c ****    DMA_IRQHandler,
 140:src/vectors_lpc1768.c ****    I2S_IRQHandler,
 141:src/vectors_lpc1768.c ****    ENET_IRQHandler,
 142:src/vectors_lpc1768.c ****    RIT_IRQHandler,
 143:src/vectors_lpc1768.c ****    MCPWM_IRQHandler,
 144:src/vectors_lpc1768.c ****    QEI_IRQHandler
 145:src/vectors_lpc1768.c **** }; /* gVectors */
 146:src/vectors_lpc1768.c **** 
 147:src/vectors_lpc1768.c **** /*
 148:src/vectors_lpc1768.c ****  * And here are the weak interrupt handlers.
 149:src/vectors_lpc1768.c ****  */
 150:src/vectors_lpc1768.c **** void NMI_Handler (void) { while(1); }
 122              		.loc 1 150 0
 123              		.cfi_startproc
 124              		@ args = 0, pretend = 0, frame = 0
 125              		@ frame_needed = 0, uses_anonymous_args = 0
 126              		@ link register save eliminated.
 127              	.L2:
 128              		.loc 1 150 0 discriminator 1
 129 0000 FEE7     		b	.L2	@
 130              		.cfi_endproc
 131              	.LFE0:
 132              		.size	NMI_Handler, .-NMI_Handler
 133 0002 00BF     		.align	2
 134              		.weak	HardFault_Handler
 135              		.thumb
ARM GAS  C:\Users\Akil\AppData\Local\Temp\ccXbK6FH.s 			page 6


 136              		.thumb_func
 137              		.type	HardFault_Handler, %function
 138              	HardFault_Handler:
 139              	.LFB1:
 151:src/vectors_lpc1768.c **** void HardFault_Handler (void) { while(1); }
 140              		.loc 1 151 0
 141              		.cfi_startproc
 142              		@ args = 0, pretend = 0, frame = 0
 143              		@ frame_needed = 0, uses_anonymous_args = 0
 144              		@ link register save eliminated.
 145              	.L4:
 146              		.loc 1 151 0 discriminator 1
 147 0004 FEE7     		b	.L4	@
 148              		.cfi_endproc
 149              	.LFE1:
 150              		.size	HardFault_Handler, .-HardFault_Handler
 151 0006 00BF     		.align	2
 152              		.weak	MemManage_Handler
 153              		.thumb
 154              		.thumb_func
 155              		.type	MemManage_Handler, %function
 156              	MemManage_Handler:
 157              	.LFB2:
 152:src/vectors_lpc1768.c **** void MemManage_Handler (void) { while(1); }
 158              		.loc 1 152 0
 159              		.cfi_startproc
 160              		@ args = 0, pretend = 0, frame = 0
 161              		@ frame_needed = 0, uses_anonymous_args = 0
 162              		@ link register save eliminated.
 163              	.L6:
 164              		.loc 1 152 0 discriminator 1
 165 0008 FEE7     		b	.L6	@
 166              		.cfi_endproc
 167              	.LFE2:
 168              		.size	MemManage_Handler, .-MemManage_Handler
 169 000a 00BF     		.align	2
 170              		.weak	BusFault_Handler
 171              		.thumb
 172              		.thumb_func
 173              		.type	BusFault_Handler, %function
 174              	BusFault_Handler:
 175              	.LFB3:
 153:src/vectors_lpc1768.c **** void BusFault_Handler (void) { while(1); }
 176              		.loc 1 153 0
 177              		.cfi_startproc
 178              		@ args = 0, pretend = 0, frame = 0
 179              		@ frame_needed = 0, uses_anonymous_args = 0
 180              		@ link register save eliminated.
 181              	.L8:
 182              		.loc 1 153 0 discriminator 1
 183 000c FEE7     		b	.L8	@
 184              		.cfi_endproc
 185              	.LFE3:
 186              		.size	BusFault_Handler, .-BusFault_Handler
 187 000e 00BF     		.align	2
 188              		.weak	UsageFault_Handler
 189              		.thumb
ARM GAS  C:\Users\Akil\AppData\Local\Temp\ccXbK6FH.s 			page 7


 190              		.thumb_func
 191              		.type	UsageFault_Handler, %function
 192              	UsageFault_Handler:
 193              	.LFB4:
 154:src/vectors_lpc1768.c **** void UsageFault_Handler (void) { while(1); }
 194              		.loc 1 154 0
 195              		.cfi_startproc
 196              		@ args = 0, pretend = 0, frame = 0
 197              		@ frame_needed = 0, uses_anonymous_args = 0
 198              		@ link register save eliminated.
 199              	.L10:
 200              		.loc 1 154 0 discriminator 1
 201 0010 FEE7     		b	.L10	@
 202              		.cfi_endproc
 203              	.LFE4:
 204              		.size	UsageFault_Handler, .-UsageFault_Handler
 205 0012 00BF     		.align	2
 206              		.weak	SVC_Handler
 207              		.thumb
 208              		.thumb_func
 209              		.type	SVC_Handler, %function
 210              	SVC_Handler:
 211              	.LFB5:
 155:src/vectors_lpc1768.c **** void SVC_Handler (void) { while(1); }
 212              		.loc 1 155 0
 213              		.cfi_startproc
 214              		@ args = 0, pretend = 0, frame = 0
 215              		@ frame_needed = 0, uses_anonymous_args = 0
 216              		@ link register save eliminated.
 217              	.L12:
 218              		.loc 1 155 0 discriminator 1
 219 0014 FEE7     		b	.L12	@
 220              		.cfi_endproc
 221              	.LFE5:
 222              		.size	SVC_Handler, .-SVC_Handler
 223 0016 00BF     		.align	2
 224              		.weak	DebugMon_Handler
 225              		.thumb
 226              		.thumb_func
 227              		.type	DebugMon_Handler, %function
 228              	DebugMon_Handler:
 229              	.LFB6:
 156:src/vectors_lpc1768.c **** void DebugMon_Handler (void) { while(1); }
 230              		.loc 1 156 0
 231              		.cfi_startproc
 232              		@ args = 0, pretend = 0, frame = 0
 233              		@ frame_needed = 0, uses_anonymous_args = 0
 234              		@ link register save eliminated.
 235              	.L14:
 236              		.loc 1 156 0 discriminator 1
 237 0018 FEE7     		b	.L14	@
 238              		.cfi_endproc
 239              	.LFE6:
 240              		.size	DebugMon_Handler, .-DebugMon_Handler
 241 001a 00BF     		.align	2
 242              		.weak	PendSV_Handler
 243              		.thumb
ARM GAS  C:\Users\Akil\AppData\Local\Temp\ccXbK6FH.s 			page 8


 244              		.thumb_func
 245              		.type	PendSV_Handler, %function
 246              	PendSV_Handler:
 247              	.LFB7:
 157:src/vectors_lpc1768.c **** void PendSV_Handler (void) { while(1); }
 248              		.loc 1 157 0
 249              		.cfi_startproc
 250              		@ args = 0, pretend = 0, frame = 0
 251              		@ frame_needed = 0, uses_anonymous_args = 0
 252              		@ link register save eliminated.
 253              	.L16:
 254              		.loc 1 157 0 discriminator 1
 255 001c FEE7     		b	.L16	@
 256              		.cfi_endproc
 257              	.LFE7:
 258              		.size	PendSV_Handler, .-PendSV_Handler
 259 001e 00BF     		.align	2
 260              		.weak	SysTick_Handler
 261              		.thumb
 262              		.thumb_func
 263              		.type	SysTick_Handler, %function
 264              	SysTick_Handler:
 265              	.LFB8:
 158:src/vectors_lpc1768.c **** void SysTick_Handler (void) { while(1); }
 266              		.loc 1 158 0
 267              		.cfi_startproc
 268              		@ args = 0, pretend = 0, frame = 0
 269              		@ frame_needed = 0, uses_anonymous_args = 0
 270              		@ link register save eliminated.
 271              	.L18:
 272              		.loc 1 158 0 discriminator 1
 273 0020 FEE7     		b	.L18	@
 274              		.cfi_endproc
 275              	.LFE8:
 276              		.size	SysTick_Handler, .-SysTick_Handler
 277 0022 00BF     		.align	2
 278              		.weak	WDT_IRQHandler
 279              		.thumb
 280              		.thumb_func
 281              		.type	WDT_IRQHandler, %function
 282              	WDT_IRQHandler:
 283              	.LFB9:
 159:src/vectors_lpc1768.c **** 
 160:src/vectors_lpc1768.c **** void WDT_IRQHandler (void) { while(1); }
 284              		.loc 1 160 0
 285              		.cfi_startproc
 286              		@ args = 0, pretend = 0, frame = 0
 287              		@ frame_needed = 0, uses_anonymous_args = 0
 288              		@ link register save eliminated.
 289              	.L20:
 290              		.loc 1 160 0 discriminator 1
 291 0024 FEE7     		b	.L20	@
 292              		.cfi_endproc
 293              	.LFE9:
 294              		.size	WDT_IRQHandler, .-WDT_IRQHandler
 295 0026 00BF     		.align	2
 296              		.weak	TIMER0_IRQHandler
ARM GAS  C:\Users\Akil\AppData\Local\Temp\ccXbK6FH.s 			page 9


 297              		.thumb
 298              		.thumb_func
 299              		.type	TIMER0_IRQHandler, %function
 300              	TIMER0_IRQHandler:
 301              	.LFB10:
 161:src/vectors_lpc1768.c **** void TIMER0_IRQHandler (void) { while(1); }
 302              		.loc 1 161 0
 303              		.cfi_startproc
 304              		@ args = 0, pretend = 0, frame = 0
 305              		@ frame_needed = 0, uses_anonymous_args = 0
 306              		@ link register save eliminated.
 307              	.L22:
 308              		.loc 1 161 0 discriminator 1
 309 0028 FEE7     		b	.L22	@
 310              		.cfi_endproc
 311              	.LFE10:
 312              		.size	TIMER0_IRQHandler, .-TIMER0_IRQHandler
 313 002a 00BF     		.align	2
 314              		.weak	TIMER1_IRQHandler
 315              		.thumb
 316              		.thumb_func
 317              		.type	TIMER1_IRQHandler, %function
 318              	TIMER1_IRQHandler:
 319              	.LFB11:
 162:src/vectors_lpc1768.c **** void TIMER1_IRQHandler (void) { while(1); }
 320              		.loc 1 162 0
 321              		.cfi_startproc
 322              		@ args = 0, pretend = 0, frame = 0
 323              		@ frame_needed = 0, uses_anonymous_args = 0
 324              		@ link register save eliminated.
 325              	.L24:
 326              		.loc 1 162 0 discriminator 1
 327 002c FEE7     		b	.L24	@
 328              		.cfi_endproc
 329              	.LFE11:
 330              		.size	TIMER1_IRQHandler, .-TIMER1_IRQHandler
 331 002e 00BF     		.align	2
 332              		.weak	TIMER2_IRQHandler
 333              		.thumb
 334              		.thumb_func
 335              		.type	TIMER2_IRQHandler, %function
 336              	TIMER2_IRQHandler:
 337              	.LFB12:
 163:src/vectors_lpc1768.c **** void TIMER2_IRQHandler (void) { while(1); }
 338              		.loc 1 163 0
 339              		.cfi_startproc
 340              		@ args = 0, pretend = 0, frame = 0
 341              		@ frame_needed = 0, uses_anonymous_args = 0
 342              		@ link register save eliminated.
 343              	.L26:
 344              		.loc 1 163 0 discriminator 1
 345 0030 FEE7     		b	.L26	@
 346              		.cfi_endproc
 347              	.LFE12:
 348              		.size	TIMER2_IRQHandler, .-TIMER2_IRQHandler
 349 0032 00BF     		.align	2
 350              		.weak	TIMER3_IRQHandler
ARM GAS  C:\Users\Akil\AppData\Local\Temp\ccXbK6FH.s 			page 10


 351              		.thumb
 352              		.thumb_func
 353              		.type	TIMER3_IRQHandler, %function
 354              	TIMER3_IRQHandler:
 355              	.LFB13:
 164:src/vectors_lpc1768.c **** void TIMER3_IRQHandler (void) { while(1); }
 356              		.loc 1 164 0
 357              		.cfi_startproc
 358              		@ args = 0, pretend = 0, frame = 0
 359              		@ frame_needed = 0, uses_anonymous_args = 0
 360              		@ link register save eliminated.
 361              	.L28:
 362              		.loc 1 164 0 discriminator 1
 363 0034 FEE7     		b	.L28	@
 364              		.cfi_endproc
 365              	.LFE13:
 366              		.size	TIMER3_IRQHandler, .-TIMER3_IRQHandler
 367 0036 00BF     		.align	2
 368              		.weak	UART0_IRQHandler
 369              		.thumb
 370              		.thumb_func
 371              		.type	UART0_IRQHandler, %function
 372              	UART0_IRQHandler:
 373              	.LFB14:
 165:src/vectors_lpc1768.c **** void UART0_IRQHandler (void) { while(1); }
 374              		.loc 1 165 0
 375              		.cfi_startproc
 376              		@ args = 0, pretend = 0, frame = 0
 377              		@ frame_needed = 0, uses_anonymous_args = 0
 378              		@ link register save eliminated.
 379              	.L30:
 380              		.loc 1 165 0 discriminator 1
 381 0038 FEE7     		b	.L30	@
 382              		.cfi_endproc
 383              	.LFE14:
 384              		.size	UART0_IRQHandler, .-UART0_IRQHandler
 385 003a 00BF     		.align	2
 386              		.weak	UART1_IRQHandler
 387              		.thumb
 388              		.thumb_func
 389              		.type	UART1_IRQHandler, %function
 390              	UART1_IRQHandler:
 391              	.LFB15:
 166:src/vectors_lpc1768.c **** void UART1_IRQHandler (void) { while(1); }
 392              		.loc 1 166 0
 393              		.cfi_startproc
 394              		@ args = 0, pretend = 0, frame = 0
 395              		@ frame_needed = 0, uses_anonymous_args = 0
 396              		@ link register save eliminated.
 397              	.L32:
 398              		.loc 1 166 0 discriminator 1
 399 003c FEE7     		b	.L32	@
 400              		.cfi_endproc
 401              	.LFE15:
 402              		.size	UART1_IRQHandler, .-UART1_IRQHandler
 403 003e 00BF     		.align	2
 404              		.weak	UART2_IRQHandler
ARM GAS  C:\Users\Akil\AppData\Local\Temp\ccXbK6FH.s 			page 11


 405              		.thumb
 406              		.thumb_func
 407              		.type	UART2_IRQHandler, %function
 408              	UART2_IRQHandler:
 409              	.LFB16:
 167:src/vectors_lpc1768.c **** void UART2_IRQHandler (void) { while(1); }
 410              		.loc 1 167 0
 411              		.cfi_startproc
 412              		@ args = 0, pretend = 0, frame = 0
 413              		@ frame_needed = 0, uses_anonymous_args = 0
 414              		@ link register save eliminated.
 415              	.L34:
 416              		.loc 1 167 0 discriminator 1
 417 0040 FEE7     		b	.L34	@
 418              		.cfi_endproc
 419              	.LFE16:
 420              		.size	UART2_IRQHandler, .-UART2_IRQHandler
 421 0042 00BF     		.align	2
 422              		.weak	UART3_IRQHandler
 423              		.thumb
 424              		.thumb_func
 425              		.type	UART3_IRQHandler, %function
 426              	UART3_IRQHandler:
 427              	.LFB17:
 168:src/vectors_lpc1768.c **** void UART3_IRQHandler (void) { while(1); }
 428              		.loc 1 168 0
 429              		.cfi_startproc
 430              		@ args = 0, pretend = 0, frame = 0
 431              		@ frame_needed = 0, uses_anonymous_args = 0
 432              		@ link register save eliminated.
 433              	.L36:
 434              		.loc 1 168 0 discriminator 1
 435 0044 FEE7     		b	.L36	@
 436              		.cfi_endproc
 437              	.LFE17:
 438              		.size	UART3_IRQHandler, .-UART3_IRQHandler
 439 0046 00BF     		.align	2
 440              		.weak	PWM_IRQHandler
 441              		.thumb
 442              		.thumb_func
 443              		.type	PWM_IRQHandler, %function
 444              	PWM_IRQHandler:
 445              	.LFB18:
 169:src/vectors_lpc1768.c **** void PWM_IRQHandler (void) { while(1); }
 446              		.loc 1 169 0
 447              		.cfi_startproc
 448              		@ args = 0, pretend = 0, frame = 0
 449              		@ frame_needed = 0, uses_anonymous_args = 0
 450              		@ link register save eliminated.
 451              	.L38:
 452              		.loc 1 169 0 discriminator 1
 453 0048 FEE7     		b	.L38	@
 454              		.cfi_endproc
 455              	.LFE18:
 456              		.size	PWM_IRQHandler, .-PWM_IRQHandler
 457 004a 00BF     		.align	2
 458              		.weak	I2C0_IRQHandler
ARM GAS  C:\Users\Akil\AppData\Local\Temp\ccXbK6FH.s 			page 12


 459              		.thumb
 460              		.thumb_func
 461              		.type	I2C0_IRQHandler, %function
 462              	I2C0_IRQHandler:
 463              	.LFB19:
 170:src/vectors_lpc1768.c **** void I2C0_IRQHandler (void) { while(1); }
 464              		.loc 1 170 0
 465              		.cfi_startproc
 466              		@ args = 0, pretend = 0, frame = 0
 467              		@ frame_needed = 0, uses_anonymous_args = 0
 468              		@ link register save eliminated.
 469              	.L40:
 470              		.loc 1 170 0 discriminator 1
 471 004c FEE7     		b	.L40	@
 472              		.cfi_endproc
 473              	.LFE19:
 474              		.size	I2C0_IRQHandler, .-I2C0_IRQHandler
 475 004e 00BF     		.align	2
 476              		.weak	I2C1_IRQHandler
 477              		.thumb
 478              		.thumb_func
 479              		.type	I2C1_IRQHandler, %function
 480              	I2C1_IRQHandler:
 481              	.LFB20:
 171:src/vectors_lpc1768.c **** void I2C1_IRQHandler (void) { while(1); }
 482              		.loc 1 171 0
 483              		.cfi_startproc
 484              		@ args = 0, pretend = 0, frame = 0
 485              		@ frame_needed = 0, uses_anonymous_args = 0
 486              		@ link register save eliminated.
 487              	.L42:
 488              		.loc 1 171 0 discriminator 1
 489 0050 FEE7     		b	.L42	@
 490              		.cfi_endproc
 491              	.LFE20:
 492              		.size	I2C1_IRQHandler, .-I2C1_IRQHandler
 493 0052 00BF     		.align	2
 494              		.weak	I2C2_IRQHandler
 495              		.thumb
 496              		.thumb_func
 497              		.type	I2C2_IRQHandler, %function
 498              	I2C2_IRQHandler:
 499              	.LFB21:
 172:src/vectors_lpc1768.c **** void I2C2_IRQHandler (void) { while(1); }
 500              		.loc 1 172 0
 501              		.cfi_startproc
 502              		@ args = 0, pretend = 0, frame = 0
 503              		@ frame_needed = 0, uses_anonymous_args = 0
 504              		@ link register save eliminated.
 505              	.L44:
 506              		.loc 1 172 0 discriminator 1
 507 0054 FEE7     		b	.L44	@
 508              		.cfi_endproc
 509              	.LFE21:
 510              		.size	I2C2_IRQHandler, .-I2C2_IRQHandler
 511 0056 00BF     		.align	2
 512              		.weak	SPI_IRQHandler
ARM GAS  C:\Users\Akil\AppData\Local\Temp\ccXbK6FH.s 			page 13


 513              		.thumb
 514              		.thumb_func
 515              		.type	SPI_IRQHandler, %function
 516              	SPI_IRQHandler:
 517              	.LFB22:
 173:src/vectors_lpc1768.c **** void SPI_IRQHandler (void) { while(1); }
 518              		.loc 1 173 0
 519              		.cfi_startproc
 520              		@ args = 0, pretend = 0, frame = 0
 521              		@ frame_needed = 0, uses_anonymous_args = 0
 522              		@ link register save eliminated.
 523              	.L46:
 524              		.loc 1 173 0 discriminator 1
 525 0058 FEE7     		b	.L46	@
 526              		.cfi_endproc
 527              	.LFE22:
 528              		.size	SPI_IRQHandler, .-SPI_IRQHandler
 529 005a 00BF     		.align	2
 530              		.weak	SSP0_IRQHandler
 531              		.thumb
 532              		.thumb_func
 533              		.type	SSP0_IRQHandler, %function
 534              	SSP0_IRQHandler:
 535              	.LFB23:
 174:src/vectors_lpc1768.c **** void SSP0_IRQHandler (void) { while(1); }
 536              		.loc 1 174 0
 537              		.cfi_startproc
 538              		@ args = 0, pretend = 0, frame = 0
 539              		@ frame_needed = 0, uses_anonymous_args = 0
 540              		@ link register save eliminated.
 541              	.L48:
 542              		.loc 1 174 0 discriminator 1
 543 005c FEE7     		b	.L48	@
 544              		.cfi_endproc
 545              	.LFE23:
 546              		.size	SSP0_IRQHandler, .-SSP0_IRQHandler
 547 005e 00BF     		.align	2
 548              		.weak	SSP1_IRQHandler
 549              		.thumb
 550              		.thumb_func
 551              		.type	SSP1_IRQHandler, %function
 552              	SSP1_IRQHandler:
 553              	.LFB24:
 175:src/vectors_lpc1768.c **** void SSP1_IRQHandler (void) { while(1); }
 554              		.loc 1 175 0
 555              		.cfi_startproc
 556              		@ args = 0, pretend = 0, frame = 0
 557              		@ frame_needed = 0, uses_anonymous_args = 0
 558              		@ link register save eliminated.
 559              	.L50:
 560              		.loc 1 175 0 discriminator 1
 561 0060 FEE7     		b	.L50	@
 562              		.cfi_endproc
 563              	.LFE24:
 564              		.size	SSP1_IRQHandler, .-SSP1_IRQHandler
 565 0062 00BF     		.align	2
 566              		.weak	PLL0_IRQHandler
ARM GAS  C:\Users\Akil\AppData\Local\Temp\ccXbK6FH.s 			page 14


 567              		.thumb
 568              		.thumb_func
 569              		.type	PLL0_IRQHandler, %function
 570              	PLL0_IRQHandler:
 571              	.LFB25:
 176:src/vectors_lpc1768.c **** void PLL0_IRQHandler (void) { while(1); }
 572              		.loc 1 176 0
 573              		.cfi_startproc
 574              		@ args = 0, pretend = 0, frame = 0
 575              		@ frame_needed = 0, uses_anonymous_args = 0
 576              		@ link register save eliminated.
 577              	.L52:
 578              		.loc 1 176 0 discriminator 1
 579 0064 FEE7     		b	.L52	@
 580              		.cfi_endproc
 581              	.LFE25:
 582              		.size	PLL0_IRQHandler, .-PLL0_IRQHandler
 583 0066 00BF     		.align	2
 584              		.weak	RTC_IRQHandler
 585              		.thumb
 586              		.thumb_func
 587              		.type	RTC_IRQHandler, %function
 588              	RTC_IRQHandler:
 589              	.LFB26:
 177:src/vectors_lpc1768.c **** void RTC_IRQHandler (void) { while(1); }
 590              		.loc 1 177 0
 591              		.cfi_startproc
 592              		@ args = 0, pretend = 0, frame = 0
 593              		@ frame_needed = 0, uses_anonymous_args = 0
 594              		@ link register save eliminated.
 595              	.L54:
 596              		.loc 1 177 0 discriminator 1
 597 0068 FEE7     		b	.L54	@
 598              		.cfi_endproc
 599              	.LFE26:
 600              		.size	RTC_IRQHandler, .-RTC_IRQHandler
 601 006a 00BF     		.align	2
 602              		.weak	EINT0_IRQHandler
 603              		.thumb
 604              		.thumb_func
 605              		.type	EINT0_IRQHandler, %function
 606              	EINT0_IRQHandler:
 607              	.LFB27:
 178:src/vectors_lpc1768.c **** void EINT0_IRQHandler (void) { while(1); }
 608              		.loc 1 178 0
 609              		.cfi_startproc
 610              		@ args = 0, pretend = 0, frame = 0
 611              		@ frame_needed = 0, uses_anonymous_args = 0
 612              		@ link register save eliminated.
 613              	.L56:
 614              		.loc 1 178 0 discriminator 1
 615 006c FEE7     		b	.L56	@
 616              		.cfi_endproc
 617              	.LFE27:
 618              		.size	EINT0_IRQHandler, .-EINT0_IRQHandler
 619 006e 00BF     		.align	2
 620              		.weak	EINT1_IRQHandler
ARM GAS  C:\Users\Akil\AppData\Local\Temp\ccXbK6FH.s 			page 15


 621              		.thumb
 622              		.thumb_func
 623              		.type	EINT1_IRQHandler, %function
 624              	EINT1_IRQHandler:
 625              	.LFB28:
 179:src/vectors_lpc1768.c **** void EINT1_IRQHandler (void) { while(1); }
 626              		.loc 1 179 0
 627              		.cfi_startproc
 628              		@ args = 0, pretend = 0, frame = 0
 629              		@ frame_needed = 0, uses_anonymous_args = 0
 630              		@ link register save eliminated.
 631              	.L58:
 632              		.loc 1 179 0 discriminator 1
 633 0070 FEE7     		b	.L58	@
 634              		.cfi_endproc
 635              	.LFE28:
 636              		.size	EINT1_IRQHandler, .-EINT1_IRQHandler
 637 0072 00BF     		.align	2
 638              		.weak	EINT2_IRQHandler
 639              		.thumb
 640              		.thumb_func
 641              		.type	EINT2_IRQHandler, %function
 642              	EINT2_IRQHandler:
 643              	.LFB29:
 180:src/vectors_lpc1768.c **** void EINT2_IRQHandler (void) { while(1); }
 644              		.loc 1 180 0
 645              		.cfi_startproc
 646              		@ args = 0, pretend = 0, frame = 0
 647              		@ frame_needed = 0, uses_anonymous_args = 0
 648              		@ link register save eliminated.
 649              	.L60:
 650              		.loc 1 180 0 discriminator 1
 651 0074 FEE7     		b	.L60	@
 652              		.cfi_endproc
 653              	.LFE29:
 654              		.size	EINT2_IRQHandler, .-EINT2_IRQHandler
 655 0076 00BF     		.align	2
 656              		.weak	EINT3_IRQHandler
 657              		.thumb
 658              		.thumb_func
 659              		.type	EINT3_IRQHandler, %function
 660              	EINT3_IRQHandler:
 661              	.LFB30:
 181:src/vectors_lpc1768.c **** void EINT3_IRQHandler (void) { while(1); }
 662              		.loc 1 181 0
 663              		.cfi_startproc
 664              		@ args = 0, pretend = 0, frame = 0
 665              		@ frame_needed = 0, uses_anonymous_args = 0
 666              		@ link register save eliminated.
 667              	.L62:
 668              		.loc 1 181 0 discriminator 1
 669 0078 FEE7     		b	.L62	@
 670              		.cfi_endproc
 671              	.LFE30:
 672              		.size	EINT3_IRQHandler, .-EINT3_IRQHandler
 673 007a 00BF     		.align	2
 674              		.weak	ADC_IRQHandler
ARM GAS  C:\Users\Akil\AppData\Local\Temp\ccXbK6FH.s 			page 16


 675              		.thumb
 676              		.thumb_func
 677              		.type	ADC_IRQHandler, %function
 678              	ADC_IRQHandler:
 679              	.LFB31:
 182:src/vectors_lpc1768.c **** void ADC_IRQHandler (void) { while(1); }
 680              		.loc 1 182 0
 681              		.cfi_startproc
 682              		@ args = 0, pretend = 0, frame = 0
 683              		@ frame_needed = 0, uses_anonymous_args = 0
 684              		@ link register save eliminated.
 685              	.L64:
 686              		.loc 1 182 0 discriminator 1
 687 007c FEE7     		b	.L64	@
 688              		.cfi_endproc
 689              	.LFE31:
 690              		.size	ADC_IRQHandler, .-ADC_IRQHandler
 691 007e 00BF     		.align	2
 692              		.weak	BOD_IRQHandler
 693              		.thumb
 694              		.thumb_func
 695              		.type	BOD_IRQHandler, %function
 696              	BOD_IRQHandler:
 697              	.LFB32:
 183:src/vectors_lpc1768.c **** void BOD_IRQHandler (void) { while(1); }
 698              		.loc 1 183 0
 699              		.cfi_startproc
 700              		@ args = 0, pretend = 0, frame = 0
 701              		@ frame_needed = 0, uses_anonymous_args = 0
 702              		@ link register save eliminated.
 703              	.L66:
 704              		.loc 1 183 0 discriminator 1
 705 0080 FEE7     		b	.L66	@
 706              		.cfi_endproc
 707              	.LFE32:
 708              		.size	BOD_IRQHandler, .-BOD_IRQHandler
 709 0082 00BF     		.align	2
 710              		.weak	USB_IRQHandler
 711              		.thumb
 712              		.thumb_func
 713              		.type	USB_IRQHandler, %function
 714              	USB_IRQHandler:
 715              	.LFB33:
 184:src/vectors_lpc1768.c **** void USB_IRQHandler (void) { while(1); }
 716              		.loc 1 184 0
 717              		.cfi_startproc
 718              		@ args = 0, pretend = 0, frame = 0
 719              		@ frame_needed = 0, uses_anonymous_args = 0
 720              		@ link register save eliminated.
 721              	.L68:
 722              		.loc 1 184 0 discriminator 1
 723 0084 FEE7     		b	.L68	@
 724              		.cfi_endproc
 725              	.LFE33:
 726              		.size	USB_IRQHandler, .-USB_IRQHandler
 727 0086 00BF     		.align	2
 728              		.weak	CAN_IRQHandler
ARM GAS  C:\Users\Akil\AppData\Local\Temp\ccXbK6FH.s 			page 17


 729              		.thumb
 730              		.thumb_func
 731              		.type	CAN_IRQHandler, %function
 732              	CAN_IRQHandler:
 733              	.LFB34:
 185:src/vectors_lpc1768.c **** void CAN_IRQHandler (void) { while(1); }
 734              		.loc 1 185 0
 735              		.cfi_startproc
 736              		@ args = 0, pretend = 0, frame = 0
 737              		@ frame_needed = 0, uses_anonymous_args = 0
 738              		@ link register save eliminated.
 739              	.L70:
 740              		.loc 1 185 0 discriminator 1
 741 0088 FEE7     		b	.L70	@
 742              		.cfi_endproc
 743              	.LFE34:
 744              		.size	CAN_IRQHandler, .-CAN_IRQHandler
 745 008a 00BF     		.align	2
 746              		.weak	DMA_IRQHandler
 747              		.thumb
 748              		.thumb_func
 749              		.type	DMA_IRQHandler, %function
 750              	DMA_IRQHandler:
 751              	.LFB35:
 186:src/vectors_lpc1768.c **** void DMA_IRQHandler (void) { while(1); }
 752              		.loc 1 186 0
 753              		.cfi_startproc
 754              		@ args = 0, pretend = 0, frame = 0
 755              		@ frame_needed = 0, uses_anonymous_args = 0
 756              		@ link register save eliminated.
 757              	.L72:
 758              		.loc 1 186 0 discriminator 1
 759 008c FEE7     		b	.L72	@
 760              		.cfi_endproc
 761              	.LFE35:
 762              		.size	DMA_IRQHandler, .-DMA_IRQHandler
 763 008e 00BF     		.align	2
 764              		.weak	I2S_IRQHandler
 765              		.thumb
 766              		.thumb_func
 767              		.type	I2S_IRQHandler, %function
 768              	I2S_IRQHandler:
 769              	.LFB36:
 187:src/vectors_lpc1768.c **** void I2S_IRQHandler (void) { while(1); }
 770              		.loc 1 187 0
 771              		.cfi_startproc
 772              		@ args = 0, pretend = 0, frame = 0
 773              		@ frame_needed = 0, uses_anonymous_args = 0
 774              		@ link register save eliminated.
 775              	.L74:
 776              		.loc 1 187 0 discriminator 1
 777 0090 FEE7     		b	.L74	@
 778              		.cfi_endproc
 779              	.LFE36:
 780              		.size	I2S_IRQHandler, .-I2S_IRQHandler
 781 0092 00BF     		.align	2
 782              		.weak	ENET_IRQHandler
ARM GAS  C:\Users\Akil\AppData\Local\Temp\ccXbK6FH.s 			page 18


 783              		.thumb
 784              		.thumb_func
 785              		.type	ENET_IRQHandler, %function
 786              	ENET_IRQHandler:
 787              	.LFB37:
 188:src/vectors_lpc1768.c **** void ENET_IRQHandler (void) { while(1); }
 788              		.loc 1 188 0
 789              		.cfi_startproc
 790              		@ args = 0, pretend = 0, frame = 0
 791              		@ frame_needed = 0, uses_anonymous_args = 0
 792              		@ link register save eliminated.
 793              	.L76:
 794              		.loc 1 188 0 discriminator 1
 795 0094 FEE7     		b	.L76	@
 796              		.cfi_endproc
 797              	.LFE37:
 798              		.size	ENET_IRQHandler, .-ENET_IRQHandler
 799 0096 00BF     		.align	2
 800              		.weak	RIT_IRQHandler
 801              		.thumb
 802              		.thumb_func
 803              		.type	RIT_IRQHandler, %function
 804              	RIT_IRQHandler:
 805              	.LFB38:
 189:src/vectors_lpc1768.c **** void RIT_IRQHandler (void) { while(1); }
 806              		.loc 1 189 0
 807              		.cfi_startproc
 808              		@ args = 0, pretend = 0, frame = 0
 809              		@ frame_needed = 0, uses_anonymous_args = 0
 810              		@ link register save eliminated.
 811              	.L78:
 812              		.loc 1 189 0 discriminator 1
 813 0098 FEE7     		b	.L78	@
 814              		.cfi_endproc
 815              	.LFE38:
 816              		.size	RIT_IRQHandler, .-RIT_IRQHandler
 817 009a 00BF     		.align	2
 818              		.weak	MCPWM_IRQHandler
 819              		.thumb
 820              		.thumb_func
 821              		.type	MCPWM_IRQHandler, %function
 822              	MCPWM_IRQHandler:
 823              	.LFB39:
 190:src/vectors_lpc1768.c **** void MCPWM_IRQHandler (void) { while(1); }
 824              		.loc 1 190 0
 825              		.cfi_startproc
 826              		@ args = 0, pretend = 0, frame = 0
 827              		@ frame_needed = 0, uses_anonymous_args = 0
 828              		@ link register save eliminated.
 829              	.L80:
 830              		.loc 1 190 0 discriminator 1
 831 009c FEE7     		b	.L80	@
 832              		.cfi_endproc
 833              	.LFE39:
 834              		.size	MCPWM_IRQHandler, .-MCPWM_IRQHandler
 835 009e 00BF     		.align	2
 836              		.weak	QEI_IRQHandler
ARM GAS  C:\Users\Akil\AppData\Local\Temp\ccXbK6FH.s 			page 19


 837              		.thumb
 838              		.thumb_func
 839              		.type	QEI_IRQHandler, %function
 840              	QEI_IRQHandler:
 841              	.LFB40:
 191:src/vectors_lpc1768.c **** void QEI_IRQHandler (void) { while(1); }
 842              		.loc 1 191 0
 843              		.cfi_startproc
 844              		@ args = 0, pretend = 0, frame = 0
 845              		@ frame_needed = 0, uses_anonymous_args = 0
 846              		@ link register save eliminated.
 847              	.L82:
 848              		.loc 1 191 0 discriminator 1
 849 00a0 FEE7     		b	.L82	@
 850              		.cfi_endproc
 851              	.LFE40:
 852              		.size	QEI_IRQHandler, .-QEI_IRQHandler
 853              	.Letext0:
 854 00a2 00BF     		.section	.debug_info,"",%progbits
 855              	.Ldebug_info0:
 856 0000 C9030000 		.4byte	0x3c9
 857 0004 0200     		.2byte	0x2
 858 0006 00000000 		.4byte	.Ldebug_abbrev0
 859 000a 04       		.byte	0x4
 860 000b 01       		.uleb128 0x1
 861 000c 14010000 		.4byte	.LASF45
 862 0010 01       		.byte	0x1
 863 0011 86020000 		.4byte	.LASF46
 864 0015 20030000 		.4byte	.LASF47
 865 0019 00000000 		.4byte	.Ltext0
 866 001d A2000000 		.4byte	.Letext0
 867 0021 00000000 		.4byte	.Ldebug_line0
 868 0025 02       		.uleb128 0x2
 869 0026 01       		.byte	0x1
 870 0027 37020000 		.4byte	.LASF0
 871 002b 01       		.byte	0x1
 872 002c 96       		.byte	0x96
 873 002d 01       		.byte	0x1
 874 002e 00000000 		.4byte	.LFB0
 875 0032 02000000 		.4byte	.LFE0
 876 0036 02       		.byte	0x2
 877 0037 7D       		.byte	0x7d
 878 0038 00       		.sleb128 0
 879 0039 01       		.byte	0x1
 880 003a 02       		.uleb128 0x2
 881 003b 01       		.byte	0x1
 882 003c AB020000 		.4byte	.LASF1
 883 0040 01       		.byte	0x1
 884 0041 97       		.byte	0x97
 885 0042 01       		.byte	0x1
 886 0043 04000000 		.4byte	.LFB1
 887 0047 06000000 		.4byte	.LFE1
 888 004b 02       		.byte	0x2
 889 004c 7D       		.byte	0x7d
 890 004d 00       		.sleb128 0
 891 004e 01       		.byte	0x1
 892 004f 02       		.uleb128 0x2
ARM GAS  C:\Users\Akil\AppData\Local\Temp\ccXbK6FH.s 			page 20


 893 0050 01       		.byte	0x1
 894 0051 F0020000 		.4byte	.LASF2
 895 0055 01       		.byte	0x1
 896 0056 98       		.byte	0x98
 897 0057 01       		.byte	0x1
 898 0058 08000000 		.4byte	.LFB2
 899 005c 0A000000 		.4byte	.LFE2
 900 0060 02       		.byte	0x2
 901 0061 7D       		.byte	0x7d
 902 0062 00       		.sleb128 0
 903 0063 01       		.byte	0x1
 904 0064 02       		.uleb128 0x2
 905 0065 01       		.byte	0x1
 906 0066 C6020000 		.4byte	.LASF3
 907 006a 01       		.byte	0x1
 908 006b 99       		.byte	0x99
 909 006c 01       		.byte	0x1
 910 006d 0C000000 		.4byte	.LFB3
 911 0071 0E000000 		.4byte	.LFE3
 912 0075 02       		.byte	0x2
 913 0076 7D       		.byte	0x7d
 914 0077 00       		.sleb128 0
 915 0078 01       		.byte	0x1
 916 0079 02       		.uleb128 0x2
 917 007a 01       		.byte	0x1
 918 007b 64020000 		.4byte	.LASF4
 919 007f 01       		.byte	0x1
 920 0080 9A       		.byte	0x9a
 921 0081 01       		.byte	0x1
 922 0082 10000000 		.4byte	.LFB4
 923 0086 12000000 		.4byte	.LFE4
 924 008a 02       		.byte	0x2
 925 008b 7D       		.byte	0x7d
 926 008c 00       		.sleb128 0
 927 008d 01       		.byte	0x1
 928 008e 02       		.uleb128 0x2
 929 008f 01       		.byte	0x1
 930 0090 F7010000 		.4byte	.LASF5
 931 0094 01       		.byte	0x1
 932 0095 9B       		.byte	0x9b
 933 0096 01       		.byte	0x1
 934 0097 14000000 		.4byte	.LFB5
 935 009b 16000000 		.4byte	.LFE5
 936 009f 02       		.byte	0x2
 937 00a0 7D       		.byte	0x7d
 938 00a1 00       		.sleb128 0
 939 00a2 01       		.byte	0x1
 940 00a3 02       		.uleb128 0x2
 941 00a4 01       		.byte	0x1
 942 00a5 50000000 		.4byte	.LASF6
 943 00a9 01       		.byte	0x1
 944 00aa 9C       		.byte	0x9c
 945 00ab 01       		.byte	0x1
 946 00ac 18000000 		.4byte	.LFB6
 947 00b0 1A000000 		.4byte	.LFE6
 948 00b4 02       		.byte	0x2
 949 00b5 7D       		.byte	0x7d
ARM GAS  C:\Users\Akil\AppData\Local\Temp\ccXbK6FH.s 			page 21


 950 00b6 00       		.sleb128 0
 951 00b7 01       		.byte	0x1
 952 00b8 02       		.uleb128 0x2
 953 00b9 01       		.byte	0x1
 954 00ba 3A030000 		.4byte	.LASF7
 955 00be 01       		.byte	0x1
 956 00bf 9D       		.byte	0x9d
 957 00c0 01       		.byte	0x1
 958 00c1 1C000000 		.4byte	.LFB7
 959 00c5 1E000000 		.4byte	.LFE7
 960 00c9 02       		.byte	0x2
 961 00ca 7D       		.byte	0x7d
 962 00cb 00       		.sleb128 0
 963 00cc 01       		.byte	0x1
 964 00cd 02       		.uleb128 0x2
 965 00ce 01       		.byte	0x1
 966 00cf 61000000 		.4byte	.LASF8
 967 00d3 01       		.byte	0x1
 968 00d4 9E       		.byte	0x9e
 969 00d5 01       		.byte	0x1
 970 00d6 20000000 		.4byte	.LFB8
 971 00da 22000000 		.4byte	.LFE8
 972 00de 02       		.byte	0x2
 973 00df 7D       		.byte	0x7d
 974 00e0 00       		.sleb128 0
 975 00e1 01       		.byte	0x1
 976 00e2 02       		.uleb128 0x2
 977 00e3 01       		.byte	0x1
 978 00e4 77020000 		.4byte	.LASF9
 979 00e8 01       		.byte	0x1
 980 00e9 A0       		.byte	0xa0
 981 00ea 01       		.byte	0x1
 982 00eb 24000000 		.4byte	.LFB9
 983 00ef 26000000 		.4byte	.LFE9
 984 00f3 02       		.byte	0x2
 985 00f4 7D       		.byte	0x7d
 986 00f5 00       		.sleb128 0
 987 00f6 01       		.byte	0x1
 988 00f7 02       		.uleb128 0x2
 989 00f8 01       		.byte	0x1
 990 00f9 52030000 		.4byte	.LASF10
 991 00fd 01       		.byte	0x1
 992 00fe A1       		.byte	0xa1
 993 00ff 01       		.byte	0x1
 994 0100 28000000 		.4byte	.LFB10
 995 0104 2A000000 		.4byte	.LFE10
 996 0108 02       		.byte	0x2
 997 0109 7D       		.byte	0x7d
 998 010a 00       		.sleb128 0
 999 010b 01       		.byte	0x1
 1000 010c 02       		.uleb128 0x2
 1001 010d 01       		.byte	0x1
 1002 010e F3000000 		.4byte	.LASF11
 1003 0112 01       		.byte	0x1
 1004 0113 A2       		.byte	0xa2
 1005 0114 01       		.byte	0x1
 1006 0115 2C000000 		.4byte	.LFB11
ARM GAS  C:\Users\Akil\AppData\Local\Temp\ccXbK6FH.s 			page 22


 1007 0119 2E000000 		.4byte	.LFE11
 1008 011d 02       		.byte	0x2
 1009 011e 7D       		.byte	0x7d
 1010 011f 00       		.sleb128 0
 1011 0120 01       		.byte	0x1
 1012 0121 02       		.uleb128 0x2
 1013 0122 01       		.byte	0x1
 1014 0123 B6010000 		.4byte	.LASF12
 1015 0127 01       		.byte	0x1
 1016 0128 A3       		.byte	0xa3
 1017 0129 01       		.byte	0x1
 1018 012a 30000000 		.4byte	.LFB12
 1019 012e 32000000 		.4byte	.LFE12
 1020 0132 02       		.byte	0x2
 1021 0133 7D       		.byte	0x7d
 1022 0134 00       		.sleb128 0
 1023 0135 01       		.byte	0x1
 1024 0136 02       		.uleb128 0x2
 1025 0137 01       		.byte	0x1
 1026 0138 E1000000 		.4byte	.LASF13
 1027 013c 01       		.byte	0x1
 1028 013d A4       		.byte	0xa4
 1029 013e 01       		.byte	0x1
 1030 013f 34000000 		.4byte	.LFB13
 1031 0143 36000000 		.4byte	.LFE13
 1032 0147 02       		.byte	0x2
 1033 0148 7D       		.byte	0x7d
 1034 0149 00       		.sleb128 0
 1035 014a 01       		.byte	0x1
 1036 014b 02       		.uleb128 0x2
 1037 014c 01       		.byte	0x1
 1038 014d 71000000 		.4byte	.LASF14
 1039 0151 01       		.byte	0x1
 1040 0152 A5       		.byte	0xa5
 1041 0153 01       		.byte	0x1
 1042 0154 38000000 		.4byte	.LFB14
 1043 0158 3A000000 		.4byte	.LFE14
 1044 015c 02       		.byte	0x2
 1045 015d 7D       		.byte	0x7d
 1046 015e 00       		.sleb128 0
 1047 015f 01       		.byte	0x1
 1048 0160 02       		.uleb128 0x2
 1049 0161 01       		.byte	0x1
 1050 0162 26020000 		.4byte	.LASF15
 1051 0166 01       		.byte	0x1
 1052 0167 A6       		.byte	0xa6
 1053 0168 01       		.byte	0x1
 1054 0169 3C000000 		.4byte	.LFB15
 1055 016d 3E000000 		.4byte	.LFE15
 1056 0171 02       		.byte	0x2
 1057 0172 7D       		.byte	0x7d
 1058 0173 00       		.sleb128 0
 1059 0174 01       		.byte	0x1
 1060 0175 02       		.uleb128 0x2
 1061 0176 01       		.byte	0x1
 1062 0177 3F000000 		.4byte	.LASF16
 1063 017b 01       		.byte	0x1
ARM GAS  C:\Users\Akil\AppData\Local\Temp\ccXbK6FH.s 			page 23


 1064 017c A7       		.byte	0xa7
 1065 017d 01       		.byte	0x1
 1066 017e 40000000 		.4byte	.LFB16
 1067 0182 42000000 		.4byte	.LFE16
 1068 0186 02       		.byte	0x2
 1069 0187 7D       		.byte	0x7d
 1070 0188 00       		.sleb128 0
 1071 0189 01       		.byte	0x1
 1072 018a 02       		.uleb128 0x2
 1073 018b 01       		.byte	0x1
 1074 018c 03020000 		.4byte	.LASF17
 1075 0190 01       		.byte	0x1
 1076 0191 A8       		.byte	0xa8
 1077 0192 01       		.byte	0x1
 1078 0193 44000000 		.4byte	.LFB17
 1079 0197 46000000 		.4byte	.LFE17
 1080 019b 02       		.byte	0x2
 1081 019c 7D       		.byte	0x7d
 1082 019d 00       		.sleb128 0
 1083 019e 01       		.byte	0x1
 1084 019f 02       		.uleb128 0x2
 1085 01a0 01       		.byte	0x1
 1086 01a1 00000000 		.4byte	.LASF18
 1087 01a5 01       		.byte	0x1
 1088 01a6 A9       		.byte	0xa9
 1089 01a7 01       		.byte	0x1
 1090 01a8 48000000 		.4byte	.LFB18
 1091 01ac 4A000000 		.4byte	.LFE18
 1092 01b0 02       		.byte	0x2
 1093 01b1 7D       		.byte	0x7d
 1094 01b2 00       		.sleb128 0
 1095 01b3 01       		.byte	0x1
 1096 01b4 02       		.uleb128 0x2
 1097 01b5 01       		.byte	0x1
 1098 01b6 0F000000 		.4byte	.LASF19
 1099 01ba 01       		.byte	0x1
 1100 01bb AA       		.byte	0xaa
 1101 01bc 01       		.byte	0x1
 1102 01bd 4C000000 		.4byte	.LFB19
 1103 01c1 4E000000 		.4byte	.LFE19
 1104 01c5 02       		.byte	0x2
 1105 01c6 7D       		.byte	0x7d
 1106 01c7 00       		.sleb128 0
 1107 01c8 01       		.byte	0x1
 1108 01c9 02       		.uleb128 0x2
 1109 01ca 01       		.byte	0x1
 1110 01cb E7010000 		.4byte	.LASF20
 1111 01cf 01       		.byte	0x1
 1112 01d0 AB       		.byte	0xab
 1113 01d1 01       		.byte	0x1
 1114 01d2 50000000 		.4byte	.LFB20
 1115 01d6 52000000 		.4byte	.LFE20
 1116 01da 02       		.byte	0x2
 1117 01db 7D       		.byte	0x7d
 1118 01dc 00       		.sleb128 0
 1119 01dd 01       		.byte	0x1
 1120 01de 02       		.uleb128 0x2
ARM GAS  C:\Users\Akil\AppData\Local\Temp\ccXbK6FH.s 			page 24


 1121 01df 01       		.byte	0x1
 1122 01e0 91000000 		.4byte	.LASF21
 1123 01e4 01       		.byte	0x1
 1124 01e5 AC       		.byte	0xac
 1125 01e6 01       		.byte	0x1
 1126 01e7 54000000 		.4byte	.LFB21
 1127 01eb 56000000 		.4byte	.LFE21
 1128 01ef 02       		.byte	0x2
 1129 01f0 7D       		.byte	0x7d
 1130 01f1 00       		.sleb128 0
 1131 01f2 01       		.byte	0x1
 1132 01f3 02       		.uleb128 0x2
 1133 01f4 01       		.byte	0x1
 1134 01f5 11030000 		.4byte	.LASF22
 1135 01f9 01       		.byte	0x1
 1136 01fa AD       		.byte	0xad
 1137 01fb 01       		.byte	0x1
 1138 01fc 58000000 		.4byte	.LFB22
 1139 0200 5A000000 		.4byte	.LFE22
 1140 0204 02       		.byte	0x2
 1141 0205 7D       		.byte	0x7d
 1142 0206 00       		.sleb128 0
 1143 0207 01       		.byte	0x1
 1144 0208 02       		.uleb128 0x2
 1145 0209 01       		.byte	0x1
 1146 020a 54020000 		.4byte	.LASF23
 1147 020e 01       		.byte	0x1
 1148 020f AE       		.byte	0xae
 1149 0210 01       		.byte	0x1
 1150 0211 5C000000 		.4byte	.LFB23
 1151 0215 5E000000 		.4byte	.LFE23
 1152 0219 02       		.byte	0x2
 1153 021a 7D       		.byte	0x7d
 1154 021b 00       		.sleb128 0
 1155 021c 01       		.byte	0x1
 1156 021d 02       		.uleb128 0x2
 1157 021e 01       		.byte	0x1
 1158 021f 1F000000 		.4byte	.LASF24
 1159 0223 01       		.byte	0x1
 1160 0224 AF       		.byte	0xaf
 1161 0225 01       		.byte	0x1
 1162 0226 60000000 		.4byte	.LFB24
 1163 022a 62000000 		.4byte	.LFE24
 1164 022e 02       		.byte	0x2
 1165 022f 7D       		.byte	0x7d
 1166 0230 00       		.sleb128 0
 1167 0231 01       		.byte	0x1
 1168 0232 02       		.uleb128 0x2
 1169 0233 01       		.byte	0x1
 1170 0234 2F000000 		.4byte	.LASF25
 1171 0238 01       		.byte	0x1
 1172 0239 B0       		.byte	0xb0
 1173 023a 01       		.byte	0x1
 1174 023b 64000000 		.4byte	.LFB25
 1175 023f 66000000 		.4byte	.LFE25
 1176 0243 02       		.byte	0x2
 1177 0244 7D       		.byte	0x7d
ARM GAS  C:\Users\Akil\AppData\Local\Temp\ccXbK6FH.s 			page 25


 1178 0245 00       		.sleb128 0
 1179 0246 01       		.byte	0x1
 1180 0247 02       		.uleb128 0x2
 1181 0248 01       		.byte	0x1
 1182 0249 98010000 		.4byte	.LASF26
 1183 024d 01       		.byte	0x1
 1184 024e B1       		.byte	0xb1
 1185 024f 01       		.byte	0x1
 1186 0250 68000000 		.4byte	.LFB26
 1187 0254 6A000000 		.4byte	.LFE26
 1188 0258 02       		.byte	0x2
 1189 0259 7D       		.byte	0x7d
 1190 025a 00       		.sleb128 0
 1191 025b 01       		.byte	0x1
 1192 025c 02       		.uleb128 0x2
 1193 025d 01       		.byte	0x1
 1194 025e 64030000 		.4byte	.LASF27
 1195 0262 01       		.byte	0x1
 1196 0263 B2       		.byte	0xb2
 1197 0264 01       		.byte	0x1
 1198 0265 6C000000 		.4byte	.LFB27
 1199 0269 6E000000 		.4byte	.LFE27
 1200 026d 02       		.byte	0x2
 1201 026e 7D       		.byte	0x7d
 1202 026f 00       		.sleb128 0
 1203 0270 01       		.byte	0x1
 1204 0271 02       		.uleb128 0x2
 1205 0272 01       		.byte	0x1
 1206 0273 D7020000 		.4byte	.LASF28
 1207 0277 01       		.byte	0x1
 1208 0278 B3       		.byte	0xb3
 1209 0279 01       		.byte	0x1
 1210 027a 70000000 		.4byte	.LFB28
 1211 027e 72000000 		.4byte	.LFE28
 1212 0282 02       		.byte	0x2
 1213 0283 7D       		.byte	0x7d
 1214 0284 00       		.sleb128 0
 1215 0285 01       		.byte	0x1
 1216 0286 02       		.uleb128 0x2
 1217 0287 01       		.byte	0x1
 1218 0288 B2000000 		.4byte	.LASF29
 1219 028c 01       		.byte	0x1
 1220 028d B4       		.byte	0xb4
 1221 028e 01       		.byte	0x1
 1222 028f 74000000 		.4byte	.LFB29
 1223 0293 76000000 		.4byte	.LFE29
 1224 0297 02       		.byte	0x2
 1225 0298 7D       		.byte	0x7d
 1226 0299 00       		.sleb128 0
 1227 029a 01       		.byte	0x1
 1228 029b 02       		.uleb128 0x2
 1229 029c 01       		.byte	0x1
 1230 029d 43020000 		.4byte	.LASF30
 1231 02a1 01       		.byte	0x1
 1232 02a2 B5       		.byte	0xb5
 1233 02a3 01       		.byte	0x1
 1234 02a4 78000000 		.4byte	.LFB30
ARM GAS  C:\Users\Akil\AppData\Local\Temp\ccXbK6FH.s 			page 26


 1235 02a8 7A000000 		.4byte	.LFE30
 1236 02ac 02       		.byte	0x2
 1237 02ad 7D       		.byte	0x7d
 1238 02ae 00       		.sleb128 0
 1239 02af 01       		.byte	0x1
 1240 02b0 02       		.uleb128 0x2
 1241 02b1 01       		.byte	0x1
 1242 02b2 05010000 		.4byte	.LASF31
 1243 02b6 01       		.byte	0x1
 1244 02b7 B6       		.byte	0xb6
 1245 02b8 01       		.byte	0x1
 1246 02b9 7C000000 		.4byte	.LFB31
 1247 02bd 7E000000 		.4byte	.LFE31
 1248 02c1 02       		.byte	0x2
 1249 02c2 7D       		.byte	0x7d
 1250 02c3 00       		.sleb128 0
 1251 02c4 01       		.byte	0x1
 1252 02c5 02       		.uleb128 0x2
 1253 02c6 01       		.byte	0x1
 1254 02c7 9C020000 		.4byte	.LASF32
 1255 02cb 01       		.byte	0x1
 1256 02cc B7       		.byte	0xb7
 1257 02cd 01       		.byte	0x1
 1258 02ce 80000000 		.4byte	.LFB32
 1259 02d2 82000000 		.4byte	.LFE32
 1260 02d6 02       		.byte	0x2
 1261 02d7 7D       		.byte	0x7d
 1262 02d8 00       		.sleb128 0
 1263 02d9 01       		.byte	0x1
 1264 02da 02       		.uleb128 0x2
 1265 02db 01       		.byte	0x1
 1266 02dc 02030000 		.4byte	.LASF33
 1267 02e0 01       		.byte	0x1
 1268 02e1 B8       		.byte	0xb8
 1269 02e2 01       		.byte	0x1
 1270 02e3 84000000 		.4byte	.LFB33
 1271 02e7 86000000 		.4byte	.LFE33
 1272 02eb 02       		.byte	0x2
 1273 02ec 7D       		.byte	0x7d
 1274 02ed 00       		.sleb128 0
 1275 02ee 01       		.byte	0x1
 1276 02ef 02       		.uleb128 0x2
 1277 02f0 01       		.byte	0x1
 1278 02f1 D2000000 		.4byte	.LASF34
 1279 02f5 01       		.byte	0x1
 1280 02f6 B9       		.byte	0xb9
 1281 02f7 01       		.byte	0x1
 1282 02f8 88000000 		.4byte	.LFB34
 1283 02fc 8A000000 		.4byte	.LFE34
 1284 0300 02       		.byte	0x2
 1285 0301 7D       		.byte	0x7d
 1286 0302 00       		.sleb128 0
 1287 0303 01       		.byte	0x1
 1288 0304 02       		.uleb128 0x2
 1289 0305 01       		.byte	0x1
 1290 0306 82000000 		.4byte	.LASF35
 1291 030a 01       		.byte	0x1
ARM GAS  C:\Users\Akil\AppData\Local\Temp\ccXbK6FH.s 			page 27


 1292 030b BA       		.byte	0xba
 1293 030c 01       		.byte	0x1
 1294 030d 8C000000 		.4byte	.LFB35
 1295 0311 8E000000 		.4byte	.LFE35
 1296 0315 02       		.byte	0x2
 1297 0316 7D       		.byte	0x7d
 1298 0317 00       		.sleb128 0
 1299 0318 01       		.byte	0x1
 1300 0319 02       		.uleb128 0x2
 1301 031a 01       		.byte	0x1
 1302 031b D8010000 		.4byte	.LASF36
 1303 031f 01       		.byte	0x1
 1304 0320 BB       		.byte	0xbb
 1305 0321 01       		.byte	0x1
 1306 0322 90000000 		.4byte	.LFB36
 1307 0326 92000000 		.4byte	.LFE36
 1308 032a 02       		.byte	0x2
 1309 032b 7D       		.byte	0x7d
 1310 032c 00       		.sleb128 0
 1311 032d 01       		.byte	0x1
 1312 032e 02       		.uleb128 0x2
 1313 032f 01       		.byte	0x1
 1314 0330 C8010000 		.4byte	.LASF37
 1315 0334 01       		.byte	0x1
 1316 0335 BC       		.byte	0xbc
 1317 0336 01       		.byte	0x1
 1318 0337 94000000 		.4byte	.LFB37
 1319 033b 96000000 		.4byte	.LFE37
 1320 033f 02       		.byte	0x2
 1321 0340 7D       		.byte	0x7d
 1322 0341 00       		.sleb128 0
 1323 0342 01       		.byte	0x1
 1324 0343 02       		.uleb128 0x2
 1325 0344 01       		.byte	0x1
 1326 0345 A7010000 		.4byte	.LASF38
 1327 0349 01       		.byte	0x1
 1328 034a BD       		.byte	0xbd
 1329 034b 01       		.byte	0x1
 1330 034c 98000000 		.4byte	.LFB38
 1331 0350 9A000000 		.4byte	.LFE38
 1332 0354 02       		.byte	0x2
 1333 0355 7D       		.byte	0x7d
 1334 0356 00       		.sleb128 0
 1335 0357 01       		.byte	0x1
 1336 0358 02       		.uleb128 0x2
 1337 0359 01       		.byte	0x1
 1338 035a A1000000 		.4byte	.LASF39
 1339 035e 01       		.byte	0x1
 1340 035f BE       		.byte	0xbe
 1341 0360 01       		.byte	0x1
 1342 0361 9C000000 		.4byte	.LFB39
 1343 0365 9E000000 		.4byte	.LFE39
 1344 0369 02       		.byte	0x2
 1345 036a 7D       		.byte	0x7d
 1346 036b 00       		.sleb128 0
 1347 036c 01       		.byte	0x1
 1348 036d 02       		.uleb128 0x2
ARM GAS  C:\Users\Akil\AppData\Local\Temp\ccXbK6FH.s 			page 28


 1349 036e 01       		.byte	0x1
 1350 036f C3000000 		.4byte	.LASF40
 1351 0373 01       		.byte	0x1
 1352 0374 BF       		.byte	0xbf
 1353 0375 01       		.byte	0x1
 1354 0376 A0000000 		.4byte	.LFB40
 1355 037a A2000000 		.4byte	.LFE40
 1356 037e 02       		.byte	0x2
 1357 037f 7D       		.byte	0x7d
 1358 0380 00       		.sleb128 0
 1359 0381 01       		.byte	0x1
 1360 0382 03       		.uleb128 0x3
 1361 0383 E8020000 		.4byte	.LASF43
 1362 0387 01       		.byte	0x1
 1363 0388 28       		.byte	0x28
 1364 0389 8F030000 		.4byte	0x38f
 1365 038d 01       		.byte	0x1
 1366 038e 01       		.byte	0x1
 1367 038f 04       		.uleb128 0x4
 1368 0390 04       		.byte	0x4
 1369 0391 07       		.byte	0x7
 1370 0392 14020000 		.4byte	.LASF41
 1371 0396 05       		.uleb128 0x5
 1372 0397 AD030000 		.4byte	0x3ad
 1373 039b A6030000 		.4byte	0x3a6
 1374 039f 06       		.uleb128 0x6
 1375 03a0 A6030000 		.4byte	0x3a6
 1376 03a4 2F       		.byte	0x2f
 1377 03a5 00       		.byte	0
 1378 03a6 04       		.uleb128 0x4
 1379 03a7 04       		.byte	0x4
 1380 03a8 07       		.byte	0x7
 1381 03a9 BD020000 		.4byte	.LASF42
 1382 03ad 07       		.uleb128 0x7
 1383 03ae 04       		.byte	0x4
 1384 03af B3030000 		.4byte	0x3b3
 1385 03b3 08       		.uleb128 0x8
 1386 03b4 01       		.byte	0x1
 1387 03b5 09       		.uleb128 0x9
 1388 03b6 49030000 		.4byte	.LASF44
 1389 03ba 01       		.byte	0x1
 1390 03bb 61       		.byte	0x61
 1391 03bc C7030000 		.4byte	0x3c7
 1392 03c0 01       		.byte	0x1
 1393 03c1 05       		.byte	0x5
 1394 03c2 03       		.byte	0x3
 1395 03c3 00000000 		.4byte	gVectors
 1396 03c7 0A       		.uleb128 0xa
 1397 03c8 96030000 		.4byte	0x396
 1398 03cc 00       		.byte	0
 1399              		.section	.debug_abbrev,"",%progbits
 1400              	.Ldebug_abbrev0:
 1401 0000 01       		.uleb128 0x1
 1402 0001 11       		.uleb128 0x11
 1403 0002 01       		.byte	0x1
 1404 0003 25       		.uleb128 0x25
 1405 0004 0E       		.uleb128 0xe
ARM GAS  C:\Users\Akil\AppData\Local\Temp\ccXbK6FH.s 			page 29


 1406 0005 13       		.uleb128 0x13
 1407 0006 0B       		.uleb128 0xb
 1408 0007 03       		.uleb128 0x3
 1409 0008 0E       		.uleb128 0xe
 1410 0009 1B       		.uleb128 0x1b
 1411 000a 0E       		.uleb128 0xe
 1412 000b 11       		.uleb128 0x11
 1413 000c 01       		.uleb128 0x1
 1414 000d 12       		.uleb128 0x12
 1415 000e 01       		.uleb128 0x1
 1416 000f 10       		.uleb128 0x10
 1417 0010 06       		.uleb128 0x6
 1418 0011 00       		.byte	0
 1419 0012 00       		.byte	0
 1420 0013 02       		.uleb128 0x2
 1421 0014 2E       		.uleb128 0x2e
 1422 0015 00       		.byte	0
 1423 0016 3F       		.uleb128 0x3f
 1424 0017 0C       		.uleb128 0xc
 1425 0018 03       		.uleb128 0x3
 1426 0019 0E       		.uleb128 0xe
 1427 001a 3A       		.uleb128 0x3a
 1428 001b 0B       		.uleb128 0xb
 1429 001c 3B       		.uleb128 0x3b
 1430 001d 0B       		.uleb128 0xb
 1431 001e 27       		.uleb128 0x27
 1432 001f 0C       		.uleb128 0xc
 1433 0020 11       		.uleb128 0x11
 1434 0021 01       		.uleb128 0x1
 1435 0022 12       		.uleb128 0x12
 1436 0023 01       		.uleb128 0x1
 1437 0024 40       		.uleb128 0x40
 1438 0025 0A       		.uleb128 0xa
 1439 0026 9742     		.uleb128 0x2117
 1440 0028 0C       		.uleb128 0xc
 1441 0029 00       		.byte	0
 1442 002a 00       		.byte	0
 1443 002b 03       		.uleb128 0x3
 1444 002c 34       		.uleb128 0x34
 1445 002d 00       		.byte	0
 1446 002e 03       		.uleb128 0x3
 1447 002f 0E       		.uleb128 0xe
 1448 0030 3A       		.uleb128 0x3a
 1449 0031 0B       		.uleb128 0xb
 1450 0032 3B       		.uleb128 0x3b
 1451 0033 0B       		.uleb128 0xb
 1452 0034 49       		.uleb128 0x49
 1453 0035 13       		.uleb128 0x13
 1454 0036 3F       		.uleb128 0x3f
 1455 0037 0C       		.uleb128 0xc
 1456 0038 3C       		.uleb128 0x3c
 1457 0039 0C       		.uleb128 0xc
 1458 003a 00       		.byte	0
 1459 003b 00       		.byte	0
 1460 003c 04       		.uleb128 0x4
 1461 003d 24       		.uleb128 0x24
 1462 003e 00       		.byte	0
ARM GAS  C:\Users\Akil\AppData\Local\Temp\ccXbK6FH.s 			page 30


 1463 003f 0B       		.uleb128 0xb
 1464 0040 0B       		.uleb128 0xb
 1465 0041 3E       		.uleb128 0x3e
 1466 0042 0B       		.uleb128 0xb
 1467 0043 03       		.uleb128 0x3
 1468 0044 0E       		.uleb128 0xe
 1469 0045 00       		.byte	0
 1470 0046 00       		.byte	0
 1471 0047 05       		.uleb128 0x5
 1472 0048 01       		.uleb128 0x1
 1473 0049 01       		.byte	0x1
 1474 004a 49       		.uleb128 0x49
 1475 004b 13       		.uleb128 0x13
 1476 004c 01       		.uleb128 0x1
 1477 004d 13       		.uleb128 0x13
 1478 004e 00       		.byte	0
 1479 004f 00       		.byte	0
 1480 0050 06       		.uleb128 0x6
 1481 0051 21       		.uleb128 0x21
 1482 0052 00       		.byte	0
 1483 0053 49       		.uleb128 0x49
 1484 0054 13       		.uleb128 0x13
 1485 0055 2F       		.uleb128 0x2f
 1486 0056 0B       		.uleb128 0xb
 1487 0057 00       		.byte	0
 1488 0058 00       		.byte	0
 1489 0059 07       		.uleb128 0x7
 1490 005a 0F       		.uleb128 0xf
 1491 005b 00       		.byte	0
 1492 005c 0B       		.uleb128 0xb
 1493 005d 0B       		.uleb128 0xb
 1494 005e 49       		.uleb128 0x49
 1495 005f 13       		.uleb128 0x13
 1496 0060 00       		.byte	0
 1497 0061 00       		.byte	0
 1498 0062 08       		.uleb128 0x8
 1499 0063 15       		.uleb128 0x15
 1500 0064 00       		.byte	0
 1501 0065 27       		.uleb128 0x27
 1502 0066 0C       		.uleb128 0xc
 1503 0067 00       		.byte	0
 1504 0068 00       		.byte	0
 1505 0069 09       		.uleb128 0x9
 1506 006a 34       		.uleb128 0x34
 1507 006b 00       		.byte	0
 1508 006c 03       		.uleb128 0x3
 1509 006d 0E       		.uleb128 0xe
 1510 006e 3A       		.uleb128 0x3a
 1511 006f 0B       		.uleb128 0xb
 1512 0070 3B       		.uleb128 0x3b
 1513 0071 0B       		.uleb128 0xb
 1514 0072 49       		.uleb128 0x49
 1515 0073 13       		.uleb128 0x13
 1516 0074 3F       		.uleb128 0x3f
 1517 0075 0C       		.uleb128 0xc
 1518 0076 02       		.uleb128 0x2
 1519 0077 0A       		.uleb128 0xa
ARM GAS  C:\Users\Akil\AppData\Local\Temp\ccXbK6FH.s 			page 31


 1520 0078 00       		.byte	0
 1521 0079 00       		.byte	0
 1522 007a 0A       		.uleb128 0xa
 1523 007b 26       		.uleb128 0x26
 1524 007c 00       		.byte	0
 1525 007d 49       		.uleb128 0x49
 1526 007e 13       		.uleb128 0x13
 1527 007f 00       		.byte	0
 1528 0080 00       		.byte	0
 1529 0081 00       		.byte	0
 1530              		.section	.debug_aranges,"",%progbits
 1531 0000 1C000000 		.4byte	0x1c
 1532 0004 0200     		.2byte	0x2
 1533 0006 00000000 		.4byte	.Ldebug_info0
 1534 000a 04       		.byte	0x4
 1535 000b 00       		.byte	0
 1536 000c 0000     		.2byte	0
 1537 000e 0000     		.2byte	0
 1538 0010 00000000 		.4byte	.Ltext0
 1539 0014 A2000000 		.4byte	.Letext0-.Ltext0
 1540 0018 00000000 		.4byte	0
 1541 001c 00000000 		.4byte	0
 1542              		.section	.debug_line,"",%progbits
 1543              	.Ldebug_line0:
 1544 0000 37010000 		.section	.debug_str,"MS",%progbits,1
 1544      02002C00 
 1544      00000201 
 1544      FB0E0D00 
 1544      01010101 
 1545              	.LASF18:
 1546 0000 50574D5F 		.ascii	"PWM_IRQHandler\000"
 1546      49525148 
 1546      616E646C 
 1546      657200
 1547              	.LASF19:
 1548 000f 49324330 		.ascii	"I2C0_IRQHandler\000"
 1548      5F495251 
 1548      48616E64 
 1548      6C657200 
 1549              	.LASF24:
 1550 001f 53535031 		.ascii	"SSP1_IRQHandler\000"
 1550      5F495251 
 1550      48616E64 
 1550      6C657200 
 1551              	.LASF25:
 1552 002f 504C4C30 		.ascii	"PLL0_IRQHandler\000"
 1552      5F495251 
 1552      48616E64 
 1552      6C657200 
 1553              	.LASF16:
 1554 003f 55415254 		.ascii	"UART2_IRQHandler\000"
 1554      325F4952 
 1554      5148616E 
 1554      646C6572 
 1554      00
 1555              	.LASF6:
 1556 0050 44656275 		.ascii	"DebugMon_Handler\000"
ARM GAS  C:\Users\Akil\AppData\Local\Temp\ccXbK6FH.s 			page 32


 1556      674D6F6E 
 1556      5F48616E 
 1556      646C6572 
 1556      00
 1557              	.LASF8:
 1558 0061 53797354 		.ascii	"SysTick_Handler\000"
 1558      69636B5F 
 1558      48616E64 
 1558      6C657200 
 1559              	.LASF14:
 1560 0071 55415254 		.ascii	"UART0_IRQHandler\000"
 1560      305F4952 
 1560      5148616E 
 1560      646C6572 
 1560      00
 1561              	.LASF35:
 1562 0082 444D415F 		.ascii	"DMA_IRQHandler\000"
 1562      49525148 
 1562      616E646C 
 1562      657200
 1563              	.LASF21:
 1564 0091 49324332 		.ascii	"I2C2_IRQHandler\000"
 1564      5F495251 
 1564      48616E64 
 1564      6C657200 
 1565              	.LASF39:
 1566 00a1 4D435057 		.ascii	"MCPWM_IRQHandler\000"
 1566      4D5F4952 
 1566      5148616E 
 1566      646C6572 
 1566      00
 1567              	.LASF29:
 1568 00b2 45494E54 		.ascii	"EINT2_IRQHandler\000"
 1568      325F4952 
 1568      5148616E 
 1568      646C6572 
 1568      00
 1569              	.LASF40:
 1570 00c3 5145495F 		.ascii	"QEI_IRQHandler\000"
 1570      49525148 
 1570      616E646C 
 1570      657200
 1571              	.LASF34:
 1572 00d2 43414E5F 		.ascii	"CAN_IRQHandler\000"
 1572      49525148 
 1572      616E646C 
 1572      657200
 1573              	.LASF13:
 1574 00e1 54494D45 		.ascii	"TIMER3_IRQHandler\000"
 1574      52335F49 
 1574      52514861 
 1574      6E646C65 
 1574      7200
 1575              	.LASF11:
 1576 00f3 54494D45 		.ascii	"TIMER1_IRQHandler\000"
 1576      52315F49 
 1576      52514861 
ARM GAS  C:\Users\Akil\AppData\Local\Temp\ccXbK6FH.s 			page 33


 1576      6E646C65 
 1576      7200
 1577              	.LASF31:
 1578 0105 4144435F 		.ascii	"ADC_IRQHandler\000"
 1578      49525148 
 1578      616E646C 
 1578      657200
 1579              	.LASF45:
 1580 0114 474E5520 		.ascii	"GNU C 4.8.4 20140526 (release) [ARM/embedded-4_8-br"
 1580      4320342E 
 1580      382E3420 
 1580      32303134 
 1580      30353236 
 1581 0147 616E6368 		.ascii	"anch revision 211358] -mcpu=cortex-m3 -mthumb -gdwa"
 1581      20726576 
 1581      6973696F 
 1581      6E203231 
 1581      31333538 
 1582 017a 72662D32 		.ascii	"rf-2 -O0 -fomit-frame-pointer\000"
 1582      202D4F30 
 1582      202D666F 
 1582      6D69742D 
 1582      6672616D 
 1583              	.LASF26:
 1584 0198 5254435F 		.ascii	"RTC_IRQHandler\000"
 1584      49525148 
 1584      616E646C 
 1584      657200
 1585              	.LASF38:
 1586 01a7 5249545F 		.ascii	"RIT_IRQHandler\000"
 1586      49525148 
 1586      616E646C 
 1586      657200
 1587              	.LASF12:
 1588 01b6 54494D45 		.ascii	"TIMER2_IRQHandler\000"
 1588      52325F49 
 1588      52514861 
 1588      6E646C65 
 1588      7200
 1589              	.LASF37:
 1590 01c8 454E4554 		.ascii	"ENET_IRQHandler\000"
 1590      5F495251 
 1590      48616E64 
 1590      6C657200 
 1591              	.LASF36:
 1592 01d8 4932535F 		.ascii	"I2S_IRQHandler\000"
 1592      49525148 
 1592      616E646C 
 1592      657200
 1593              	.LASF20:
 1594 01e7 49324331 		.ascii	"I2C1_IRQHandler\000"
 1594      5F495251 
 1594      48616E64 
 1594      6C657200 
 1595              	.LASF5:
 1596 01f7 5356435F 		.ascii	"SVC_Handler\000"
 1596      48616E64 
ARM GAS  C:\Users\Akil\AppData\Local\Temp\ccXbK6FH.s 			page 34


 1596      6C657200 
 1597              	.LASF17:
 1598 0203 55415254 		.ascii	"UART3_IRQHandler\000"
 1598      335F4952 
 1598      5148616E 
 1598      646C6572 
 1598      00
 1599              	.LASF41:
 1600 0214 6C6F6E67 		.ascii	"long unsigned int\000"
 1600      20756E73 
 1600      69676E65 
 1600      6420696E 
 1600      7400
 1601              	.LASF15:
 1602 0226 55415254 		.ascii	"UART1_IRQHandler\000"
 1602      315F4952 
 1602      5148616E 
 1602      646C6572 
 1602      00
 1603              	.LASF0:
 1604 0237 4E4D495F 		.ascii	"NMI_Handler\000"
 1604      48616E64 
 1604      6C657200 
 1605              	.LASF30:
 1606 0243 45494E54 		.ascii	"EINT3_IRQHandler\000"
 1606      335F4952 
 1606      5148616E 
 1606      646C6572 
 1606      00
 1607              	.LASF23:
 1608 0254 53535030 		.ascii	"SSP0_IRQHandler\000"
 1608      5F495251 
 1608      48616E64 
 1608      6C657200 
 1609              	.LASF4:
 1610 0264 55736167 		.ascii	"UsageFault_Handler\000"
 1610      65466175 
 1610      6C745F48 
 1610      616E646C 
 1610      657200
 1611              	.LASF9:
 1612 0277 5744545F 		.ascii	"WDT_IRQHandler\000"
 1612      49525148 
 1612      616E646C 
 1612      657200
 1613              	.LASF46:
 1614 0286 7372632F 		.ascii	"src/vectors_lpc1768.c\000"
 1614      76656374 
 1614      6F72735F 
 1614      6C706331 
 1614      3736382E 
 1615              	.LASF32:
 1616 029c 424F445F 		.ascii	"BOD_IRQHandler\000"
 1616      49525148 
 1616      616E646C 
 1616      657200
 1617              	.LASF1:
ARM GAS  C:\Users\Akil\AppData\Local\Temp\ccXbK6FH.s 			page 35


 1618 02ab 48617264 		.ascii	"HardFault_Handler\000"
 1618      4661756C 
 1618      745F4861 
 1618      6E646C65 
 1618      7200
 1619              	.LASF42:
 1620 02bd 73697A65 		.ascii	"sizetype\000"
 1620      74797065 
 1620      00
 1621              	.LASF3:
 1622 02c6 42757346 		.ascii	"BusFault_Handler\000"
 1622      61756C74 
 1622      5F48616E 
 1622      646C6572 
 1622      00
 1623              	.LASF28:
 1624 02d7 45494E54 		.ascii	"EINT1_IRQHandler\000"
 1624      315F4952 
 1624      5148616E 
 1624      646C6572 
 1624      00
 1625              	.LASF43:
 1626 02e8 5F657374 		.ascii	"_estack\000"
 1626      61636B00 
 1627              	.LASF2:
 1628 02f0 4D656D4D 		.ascii	"MemManage_Handler\000"
 1628      616E6167 
 1628      655F4861 
 1628      6E646C65 
 1628      7200
 1629              	.LASF33:
 1630 0302 5553425F 		.ascii	"USB_IRQHandler\000"
 1630      49525148 
 1630      616E646C 
 1630      657200
 1631              	.LASF22:
 1632 0311 5350495F 		.ascii	"SPI_IRQHandler\000"
 1632      49525148 
 1632      616E646C 
 1632      657200
 1633              	.LASF47:
 1634 0320 653A5C6C 		.ascii	"e:\\latest_canopen\\1_ultra\000"
 1634      61746573 
 1634      745F6361 
 1634      6E6F7065 
 1634      6E5C315F 
 1635              	.LASF7:
 1636 033a 50656E64 		.ascii	"PendSV_Handler\000"
 1636      53565F48 
 1636      616E646C 
 1636      657200
 1637              	.LASF44:
 1638 0349 67566563 		.ascii	"gVectors\000"
 1638      746F7273 
 1638      00
 1639              	.LASF10:
 1640 0352 54494D45 		.ascii	"TIMER0_IRQHandler\000"
ARM GAS  C:\Users\Akil\AppData\Local\Temp\ccXbK6FH.s 			page 36


 1640      52305F49 
 1640      52514861 
 1640      6E646C65 
 1640      7200
 1641              	.LASF27:
 1642 0364 45494E54 		.ascii	"EINT0_IRQHandler\000"
 1642      305F4952 
 1642      5148616E 
 1642      646C6572 
 1642      00
 1643              		.ident	"GCC: (GNU Tools for ARM Embedded Processors) 4.8.4 20140526 (release) [ARM/embedded-4_8-br
ARM GAS  C:\Users\Akil\AppData\Local\Temp\ccXbK6FH.s 			page 37


DEFINED SYMBOLS
                            *ABS*:00000000 vectors_lpc1768.c
C:\Users\Akil\AppData\Local\Temp\ccXbK6FH.s:64     .vectors:00000000 gVectors
C:\Users\Akil\AppData\Local\Temp\ccXbK6FH.s:61     .vectors:00000000 $d
C:\Users\Akil\AppData\Local\Temp\ccXbK6FH.s:119    .text:00000000 NMI_Handler
C:\Users\Akil\AppData\Local\Temp\ccXbK6FH.s:138    .text:00000004 HardFault_Handler
C:\Users\Akil\AppData\Local\Temp\ccXbK6FH.s:156    .text:00000008 MemManage_Handler
C:\Users\Akil\AppData\Local\Temp\ccXbK6FH.s:174    .text:0000000c BusFault_Handler
C:\Users\Akil\AppData\Local\Temp\ccXbK6FH.s:192    .text:00000010 UsageFault_Handler
C:\Users\Akil\AppData\Local\Temp\ccXbK6FH.s:210    .text:00000014 SVC_Handler
C:\Users\Akil\AppData\Local\Temp\ccXbK6FH.s:228    .text:00000018 DebugMon_Handler
C:\Users\Akil\AppData\Local\Temp\ccXbK6FH.s:246    .text:0000001c PendSV_Handler
C:\Users\Akil\AppData\Local\Temp\ccXbK6FH.s:264    .text:00000020 SysTick_Handler
C:\Users\Akil\AppData\Local\Temp\ccXbK6FH.s:282    .text:00000024 WDT_IRQHandler
C:\Users\Akil\AppData\Local\Temp\ccXbK6FH.s:300    .text:00000028 TIMER0_IRQHandler
C:\Users\Akil\AppData\Local\Temp\ccXbK6FH.s:318    .text:0000002c TIMER1_IRQHandler
C:\Users\Akil\AppData\Local\Temp\ccXbK6FH.s:336    .text:00000030 TIMER2_IRQHandler
C:\Users\Akil\AppData\Local\Temp\ccXbK6FH.s:354    .text:00000034 TIMER3_IRQHandler
C:\Users\Akil\AppData\Local\Temp\ccXbK6FH.s:372    .text:00000038 UART0_IRQHandler
C:\Users\Akil\AppData\Local\Temp\ccXbK6FH.s:390    .text:0000003c UART1_IRQHandler
C:\Users\Akil\AppData\Local\Temp\ccXbK6FH.s:408    .text:00000040 UART2_IRQHandler
C:\Users\Akil\AppData\Local\Temp\ccXbK6FH.s:426    .text:00000044 UART3_IRQHandler
C:\Users\Akil\AppData\Local\Temp\ccXbK6FH.s:444    .text:00000048 PWM_IRQHandler
C:\Users\Akil\AppData\Local\Temp\ccXbK6FH.s:462    .text:0000004c I2C0_IRQHandler
C:\Users\Akil\AppData\Local\Temp\ccXbK6FH.s:480    .text:00000050 I2C1_IRQHandler
C:\Users\Akil\AppData\Local\Temp\ccXbK6FH.s:498    .text:00000054 I2C2_IRQHandler
C:\Users\Akil\AppData\Local\Temp\ccXbK6FH.s:516    .text:00000058 SPI_IRQHandler
C:\Users\Akil\AppData\Local\Temp\ccXbK6FH.s:534    .text:0000005c SSP0_IRQHandler
C:\Users\Akil\AppData\Local\Temp\ccXbK6FH.s:552    .text:00000060 SSP1_IRQHandler
C:\Users\Akil\AppData\Local\Temp\ccXbK6FH.s:570    .text:00000064 PLL0_IRQHandler
C:\Users\Akil\AppData\Local\Temp\ccXbK6FH.s:588    .text:00000068 RTC_IRQHandler
C:\Users\Akil\AppData\Local\Temp\ccXbK6FH.s:606    .text:0000006c EINT0_IRQHandler
C:\Users\Akil\AppData\Local\Temp\ccXbK6FH.s:624    .text:00000070 EINT1_IRQHandler
C:\Users\Akil\AppData\Local\Temp\ccXbK6FH.s:642    .text:00000074 EINT2_IRQHandler
C:\Users\Akil\AppData\Local\Temp\ccXbK6FH.s:660    .text:00000078 EINT3_IRQHandler
C:\Users\Akil\AppData\Local\Temp\ccXbK6FH.s:678    .text:0000007c ADC_IRQHandler
C:\Users\Akil\AppData\Local\Temp\ccXbK6FH.s:696    .text:00000080 BOD_IRQHandler
C:\Users\Akil\AppData\Local\Temp\ccXbK6FH.s:714    .text:00000084 USB_IRQHandler
C:\Users\Akil\AppData\Local\Temp\ccXbK6FH.s:732    .text:00000088 CAN_IRQHandler
C:\Users\Akil\AppData\Local\Temp\ccXbK6FH.s:750    .text:0000008c DMA_IRQHandler
C:\Users\Akil\AppData\Local\Temp\ccXbK6FH.s:768    .text:00000090 I2S_IRQHandler
C:\Users\Akil\AppData\Local\Temp\ccXbK6FH.s:786    .text:00000094 ENET_IRQHandler
C:\Users\Akil\AppData\Local\Temp\ccXbK6FH.s:804    .text:00000098 RIT_IRQHandler
C:\Users\Akil\AppData\Local\Temp\ccXbK6FH.s:822    .text:0000009c MCPWM_IRQHandler
C:\Users\Akil\AppData\Local\Temp\ccXbK6FH.s:840    .text:000000a0 QEI_IRQHandler
C:\Users\Akil\AppData\Local\Temp\ccXbK6FH.s:114    .text:00000000 $t
                     .debug_frame:00000010 $d

UNDEFINED SYMBOLS
_estack
ResetHandler
