   1              		.syntax unified
   2              		.cpu cortex-m3
   3              		.fpu softvfp
   4              		.eabi_attribute 20, 1	@ Tag_ABI_FP_denormal
   5              		.eabi_attribute 21, 1	@ Tag_ABI_FP_exceptions
   6              		.eabi_attribute 23, 3	@ Tag_ABI_FP_number_model
   7              		.eabi_attribute 24, 1	@ Tag_ABI_align8_needed
   8              		.eabi_attribute 25, 1	@ Tag_ABI_align8_preserved
   9              		.eabi_attribute 26, 1	@ Tag_ABI_enum_size
  10              		.eabi_attribute 30, 6	@ Tag_ABI_optimization_goals
  11              		.eabi_attribute 34, 1	@ Tag_CPU_unaligned_access
  12              		.eabi_attribute 18, 4	@ Tag_ABI_PCS_wchar_t
  13              		.file	"crc16-ccitt.c"
  14              	@ GNU C (GNU Tools for ARM Embedded Processors) version 4.8.4 20140526 (release) [ARM/embedded-4_8-
  15              	@	compiled by GNU C version 4.6.4, GMP version 4.3.2, MPFR version 2.4.2, MPC version 0.8.1
  16              	@ GGC heuristics: --param ggc-min-expand=100 --param ggc-min-heapsize=131072
  17              	@ options passed:  -I C:/MinGW/msys/1.0/cpu/cortex-m3 -I .
  18              	@ -I h:/Work/CANopen/PhiCanOpen_Working/common/include
  19              	@ -I h:/Work/CANopen/PhiCanOpen_Working/CDL/CMSISv2p00_LPC17xx/lpcinc
  20              	@ -I h:/Work/CANopen/PhiCanOpen_Working/CDL/CMSISv2p00_LPC17xx/inc
  21              	@ -I h:/Work/CANopen/PhiCanOpen_Working/CDL/LPC17xxLib/inc
  22              	@ -I h:/Work/CANopen/PhiCanOpen_Working/bsp/HYDRA
  23              	@ -I h:/Work/CANopen/PhiCanOpen_Working/CANopenNode
  24              	@ -I h:/Work/CANopen/PhiCanOpen_Working/CANopenNode/LPC17XX
  25              	@ -I h:/Work/CANopen/PhiCanOpen_Working/CANopenNode/LPC17XX
  26              	@ -I h:/Work/CANopen/PhiCanOpen_Working/CDL/CMSISv2p00_LPC17xx/lpcinc
  27              	@ -I h:/Work/CANopen/PhiCanOpen_Working/CDL/CMSISv2p00_LPC17xx/inc
  28              	@ -I h:/Work/CANopen/PhiCanOpen_Working/CDL/LPC17xxLib/inc
  29              	@ -I h:/Work/CANopen/PhiCanOpen_Working/bsp/HYDRA
  30              	@ -I h:/Work/CANopen/PhiCanOpen_Working/CANopenNode
  31              	@ -I h:/Work/CANopen/PhiCanOpen_Working/CANopenNode/LPC17XX
  32              	@ -I h:/Work/CANopen/PhiCanOpen_Working/CANopenNode/LPC17XX
  33              	@ -imultilib armv7-m
  34              	@ -iprefix h:\arm-non-eabi\bin\../lib/gcc/arm-none-eabi/4.8.4/
  35              	@ -isysroot h:\arm-non-eabi\bin\../arm-none-eabi
  36              	@ -MMD h:/Work/CANopen/PhiCanOpen_Working/build_root/HYDRA/debug_noOS/Example_IO_mini/obj/h/Work/CA
  37              	@ -MP
  38              	@ -MQ h:/Work/CANopen/PhiCanOpen_Working/build_root/HYDRA/debug_noOS/Example_IO_mini/obj/h/Work/CAN
  39              	@ -D__USES_INITFINI__ -D __NEWLIB__ -D DEBUG_STACK_STAMP=0x5A
  40              	@ -D PHI_CFG_DEBUG_ASSERT_PRINT=1 -D __ARM_LPC1768__
  41              	@ -D PHI_CFG_EXTRAM_SIZE=0 -D PHI_CFG_OS_STACK_SIZE=0x600
  42              	@ -D PHI_CFG_STACK_SIZE=0xB00 -D PHI_CFG_KERN_MONITOR=1
  43              	@ -D PHI_CFG_KERN_PRI_INHERIT=0 -D PHI_CFG_KERN_SIGNALS=0
  44              	@ -D PHI_CFG_DEBUG_TRACE_ENABLE=1 -D PHI_DEBUG_ENABLE=1 -D __LPC17XX__
  45              	@ -D PHI_ARCH_CM3=1 -D CPU_F=100000000UL -D __USE_CMSIS=CMSISv2p00_LPC17xx
  46              	@ h:/Work/CANopen/PhiCanOpen_Working/CANopenNode/crc16-ccitt.c -mthumb
  47              	@ -mno-thumb-interwork -mcpu=cortex-m3
  48              	@ -auxbase-strip h:/Work/CANopen/PhiCanOpen_Working/build_root/HYDRA/debug_noOS/Example_IO_mini/obj
  49              	@ -ggdb -g3 -O0 -Wformat=1 -Wall -Wundef -Wpointer-arith -Wcast-qual
  50              	@ -Wcast-align -Wwrite-strings -Wsign-compare -Wsuggest-attribute=noreturn
  51              	@ -Wextra -Wstrict-aliasing=2 -Wmissing-prototypes -Wstrict-prototypes
  52              	@ -std=gnu99 -fno-strict-aliasing -fwrapv -fverbose-asm -ffunction-sections
  53              	@ -fdata-sections
  54              	@ options enabled:  -faggressive-loop-optimizations -fauto-inc-dec
  55              	@ -fbranch-count-reg -fcommon -fdata-sections -fdelete-null-pointer-checks
  56              	@ -fdwarf2-cfi-asm -fearly-inlining -feliminate-unused-debug-types
  57              	@ -ffunction-cse -ffunction-sections -fgcse-lm -fgnu-runtime -fident
  58              	@ -finline-atomics -fira-hoist-pressure -fira-share-save-slots
  59              	@ -fira-share-spill-slots -fivopts -fkeep-static-consts
  60              	@ -fleading-underscore -fmath-errno -fmerge-debug-strings
  61              	@ -fmove-loop-invariants -fpeephole -fprefetch-loop-arrays
  62              	@ -freg-struct-return -fsched-critical-path-heuristic
  63              	@ -fsched-dep-count-heuristic -fsched-group-heuristic -fsched-interblock
  64              	@ -fsched-last-insn-heuristic -fsched-rank-heuristic -fsched-spec
  65              	@ -fsched-spec-insn-heuristic -fsched-stalled-insns-dep -fshow-column
  66              	@ -fsigned-zeros -fsplit-ivs-in-unroller -fstrict-volatile-bitfields
  67              	@ -fsync-libcalls -ftrapping-math -ftree-coalesce-vars -ftree-cselim
  68              	@ -ftree-forwprop -ftree-loop-if-convert -ftree-loop-im -ftree-loop-ivcanon
  69              	@ -ftree-loop-optimize -ftree-parallelize-loops= -ftree-phiprop -ftree-pta
  70              	@ -ftree-reassoc -ftree-scev-cprop -ftree-slp-vectorize
  71              	@ -ftree-vect-loop-version -funit-at-a-time -fverbose-asm -fwrapv
  72              	@ -fzero-initialized-in-bss -mfix-cortex-m3-ldrd -mlittle-endian
  73              	@ -mpic-data-is-text-relative -msched-prolog -mthumb -munaligned-access
  74              	@ -mvectorize-with-neon-quad
  75              	
  76              		.text
  77              	.Ltext0:
  78              		.cfi_sections	.debug_frame
  79              		.section	.rodata.crc16_ccitt_table,"a",%progbits
  80              		.align	2
  83              	crc16_ccitt_table:
  84 0000 0000     		.short	0
  85 0002 2110     		.short	4129
  86 0004 4220     		.short	8258
  87 0006 6330     		.short	12387
  88 0008 8440     		.short	16516
  89 000a A550     		.short	20645
  90 000c C660     		.short	24774
  91 000e E770     		.short	28903
  92 0010 0881     		.short	-32504
  93 0012 2991     		.short	-28375
  94 0014 4AA1     		.short	-24246
  95 0016 6BB1     		.short	-20117
  96 0018 8CC1     		.short	-15988
  97 001a ADD1     		.short	-11859
  98 001c CEE1     		.short	-7730
  99 001e EFF1     		.short	-3601
 100 0020 3112     		.short	4657
 101 0022 1002     		.short	528
 102 0024 7332     		.short	12915
 103 0026 5222     		.short	8786
 104 0028 B552     		.short	21173
 105 002a 9442     		.short	17044
 106 002c F772     		.short	29431
 107 002e D662     		.short	25302
 108 0030 3993     		.short	-27847
 109 0032 1883     		.short	-31976
 110 0034 7BB3     		.short	-19589
 111 0036 5AA3     		.short	-23718
 112 0038 BDD3     		.short	-11331
 113 003a 9CC3     		.short	-15460
 114 003c FFF3     		.short	-3073
 115 003e DEE3     		.short	-7202
 116 0040 6224     		.short	9314
 117 0042 4334     		.short	13379
 118 0044 2004     		.short	1056
 119 0046 0114     		.short	5121
 120 0048 E664     		.short	25830
 121 004a C774     		.short	29895
 122 004c A444     		.short	17572
 123 004e 8554     		.short	21637
 124 0050 6AA5     		.short	-23190
 125 0052 4BB5     		.short	-19125
 126 0054 2885     		.short	-31448
 127 0056 0995     		.short	-27383
 128 0058 EEE5     		.short	-6674
 129 005a CFF5     		.short	-2609
 130 005c ACC5     		.short	-14932
 131 005e 8DD5     		.short	-10867
 132 0060 5336     		.short	13907
 133 0062 7226     		.short	9842
 134 0064 1116     		.short	5649
 135 0066 3006     		.short	1584
 136 0068 D776     		.short	30423
 137 006a F666     		.short	26358
 138 006c 9556     		.short	22165
 139 006e B446     		.short	18100
 140 0070 5BB7     		.short	-18597
 141 0072 7AA7     		.short	-22662
 142 0074 1997     		.short	-26855
 143 0076 3887     		.short	-30920
 144 0078 DFF7     		.short	-2081
 145 007a FEE7     		.short	-6146
 146 007c 9DD7     		.short	-10339
 147 007e BCC7     		.short	-14404
 148 0080 C448     		.short	18628
 149 0082 E558     		.short	22757
 150 0084 8668     		.short	26758
 151 0086 A778     		.short	30887
 152 0088 4008     		.short	2112
 153 008a 6118     		.short	6241
 154 008c 0228     		.short	10242
 155 008e 2338     		.short	14371
 156 0090 CCC9     		.short	-13876
 157 0092 EDD9     		.short	-9747
 158 0094 8EE9     		.short	-5746
 159 0096 AFF9     		.short	-1617
 160 0098 4889     		.short	-30392
 161 009a 6999     		.short	-26263
 162 009c 0AA9     		.short	-22262
 163 009e 2BB9     		.short	-18133
 164 00a0 F55A     		.short	23285
 165 00a2 D44A     		.short	19156
 166 00a4 B77A     		.short	31415
 167 00a6 966A     		.short	27286
 168 00a8 711A     		.short	6769
 169 00aa 500A     		.short	2640
 170 00ac 333A     		.short	14899
 171 00ae 122A     		.short	10770
 172 00b0 FDDB     		.short	-9219
 173 00b2 DCCB     		.short	-13348
 174 00b4 BFFB     		.short	-1089
 175 00b6 9EEB     		.short	-5218
 176 00b8 799B     		.short	-25735
 177 00ba 588B     		.short	-29864
 178 00bc 3BBB     		.short	-17605
 179 00be 1AAB     		.short	-21734
 180 00c0 A66C     		.short	27814
 181 00c2 877C     		.short	31879
 182 00c4 E44C     		.short	19684
 183 00c6 C55C     		.short	23749
 184 00c8 222C     		.short	11298
 185 00ca 033C     		.short	15363
 186 00cc 600C     		.short	3168
 187 00ce 411C     		.short	7233
 188 00d0 AEED     		.short	-4690
 189 00d2 8FFD     		.short	-625
 190 00d4 ECCD     		.short	-12820
 191 00d6 CDDD     		.short	-8755
 192 00d8 2AAD     		.short	-21206
 193 00da 0BBD     		.short	-17141
 194 00dc 688D     		.short	-29336
 195 00de 499D     		.short	-25271
 196 00e0 977E     		.short	32407
 197 00e2 B66E     		.short	28342
 198 00e4 D55E     		.short	24277
 199 00e6 F44E     		.short	20212
 200 00e8 133E     		.short	15891
 201 00ea 322E     		.short	11826
 202 00ec 511E     		.short	7761
 203 00ee 700E     		.short	3696
 204 00f0 9FFF     		.short	-97
 205 00f2 BEEF     		.short	-4162
 206 00f4 DDDF     		.short	-8227
 207 00f6 FCCF     		.short	-12292
 208 00f8 1BBF     		.short	-16613
 209 00fa 3AAF     		.short	-20678
 210 00fc 599F     		.short	-24743
 211 00fe 788F     		.short	-28808
 212 0100 8891     		.short	-28280
 213 0102 A981     		.short	-32343
 214 0104 CAB1     		.short	-20022
 215 0106 EBA1     		.short	-24085
 216 0108 0CD1     		.short	-12020
 217 010a 2DC1     		.short	-16083
 218 010c 4EF1     		.short	-3762
 219 010e 6FE1     		.short	-7825
 220 0110 8010     		.short	4224
 221 0112 A100     		.short	161
 222 0114 C230     		.short	12482
 223 0116 E320     		.short	8419
 224 0118 0450     		.short	20484
 225 011a 2540     		.short	16421
 226 011c 4670     		.short	28742
 227 011e 6760     		.short	24679
 228 0120 B983     		.short	-31815
 229 0122 9893     		.short	-27752
 230 0124 FBA3     		.short	-23557
 231 0126 DAB3     		.short	-19494
 232 0128 3DC3     		.short	-15555
 233 012a 1CD3     		.short	-11492
 234 012c 7FE3     		.short	-7297
 235 012e 5EF3     		.short	-3234
 236 0130 B102     		.short	689
 237 0132 9012     		.short	4752
 238 0134 F322     		.short	8947
 239 0136 D232     		.short	13010
 240 0138 3542     		.short	16949
 241 013a 1452     		.short	21012
 242 013c 7762     		.short	25207
 243 013e 5672     		.short	29270
 244 0140 EAB5     		.short	-18966
 245 0142 CBA5     		.short	-23093
 246 0144 A895     		.short	-27224
 247 0146 8985     		.short	-31351
 248 0148 6EF5     		.short	-2706
 249 014a 4FE5     		.short	-6833
 250 014c 2CD5     		.short	-10964
 251 014e 0DC5     		.short	-15091
 252 0150 E234     		.short	13538
 253 0152 C324     		.short	9411
 254 0154 A014     		.short	5280
 255 0156 8104     		.short	1153
 256 0158 6674     		.short	29798
 257 015a 4764     		.short	25671
 258 015c 2454     		.short	21540
 259 015e 0544     		.short	17413
 260 0160 DBA7     		.short	-22565
 261 0162 FAB7     		.short	-18438
 262 0164 9987     		.short	-30823
 263 0166 B897     		.short	-26696
 264 0168 5FE7     		.short	-6305
 265 016a 7EF7     		.short	-2178
 266 016c 1DC7     		.short	-14563
 267 016e 3CD7     		.short	-10436
 268 0170 D326     		.short	9939
 269 0172 F236     		.short	14066
 270 0174 9106     		.short	1681
 271 0176 B016     		.short	5808
 272 0178 5766     		.short	26199
 273 017a 7676     		.short	30326
 274 017c 1546     		.short	17941
 275 017e 3456     		.short	22068
 276 0180 4CD9     		.short	-9908
 277 0182 6DC9     		.short	-13971
 278 0184 0EF9     		.short	-1778
 279 0186 2FE9     		.short	-5841
 280 0188 C899     		.short	-26168
 281 018a E989     		.short	-30231
 282 018c 8AB9     		.short	-18038
 283 018e ABA9     		.short	-22101
 284 0190 4458     		.short	22596
 285 0192 6548     		.short	18533
 286 0194 0678     		.short	30726
 287 0196 2768     		.short	26663
 288 0198 C018     		.short	6336
 289 019a E108     		.short	2273
 290 019c 8238     		.short	14466
 291 019e A328     		.short	10403
 292 01a0 7DCB     		.short	-13443
 293 01a2 5CDB     		.short	-9380
 294 01a4 3FEB     		.short	-5313
 295 01a6 1EFB     		.short	-1250
 296 01a8 F98B     		.short	-29703
 297 01aa D89B     		.short	-25640
 298 01ac BBAB     		.short	-21573
 299 01ae 9ABB     		.short	-17510
 300 01b0 754A     		.short	19061
 301 01b2 545A     		.short	23124
 302 01b4 376A     		.short	27191
 303 01b6 167A     		.short	31254
 304 01b8 F10A     		.short	2801
 305 01ba D01A     		.short	6864
 306 01bc B32A     		.short	10931
 307 01be 923A     		.short	14994
 308 01c0 2EFD     		.short	-722
 309 01c2 0FED     		.short	-4849
 310 01c4 6CDD     		.short	-8852
 311 01c6 4DCD     		.short	-12979
 312 01c8 AABD     		.short	-16982
 313 01ca 8BAD     		.short	-21109
 314 01cc E89D     		.short	-25112
 315 01ce C98D     		.short	-29239
 316 01d0 267C     		.short	31782
 317 01d2 076C     		.short	27655
 318 01d4 645C     		.short	23652
 319 01d6 454C     		.short	19525
 320 01d8 A23C     		.short	15522
 321 01da 832C     		.short	11395
 322 01dc E01C     		.short	7392
 323 01de C10C     		.short	3265
 324 01e0 1FEF     		.short	-4321
 325 01e2 3EFF     		.short	-194
 326 01e4 5DCF     		.short	-12451
 327 01e6 7CDF     		.short	-8324
 328 01e8 9BAF     		.short	-20581
 329 01ea BABF     		.short	-16454
 330 01ec D98F     		.short	-28711
 331 01ee F89F     		.short	-24584
 332 01f0 176E     		.short	28183
 333 01f2 367E     		.short	32310
 334 01f4 554E     		.short	20053
 335 01f6 745E     		.short	24180
 336 01f8 932E     		.short	11923
 337 01fa B23E     		.short	16050
 338 01fc D10E     		.short	3793
 339 01fe F01E     		.short	7920
 340              		.section	.text.crc16_ccitt,"ax",%progbits
 341              		.align	2
 342              		.global	crc16_ccitt
 343              		.thumb
 344              		.thumb_func
 346              	crc16_ccitt:
 347              	.LFB0:
 348              		.file 1 "h:/Work/CANopen/PhiCanOpen_Working/CANopenNode/crc16-ccitt.c"
   1:h:/Work/CANopen/PhiCanOpen_Working/CANopenNode\crc16-ccitt.c **** /*
   2:h:/Work/CANopen/PhiCanOpen_Working/CANopenNode\crc16-ccitt.c ****  * Calculation of CRC 16 CCITT polynomial, x^16 + x^12 + x^5 + 1.
   3:h:/Work/CANopen/PhiCanOpen_Working/CANopenNode\crc16-ccitt.c ****  *
   4:h:/Work/CANopen/PhiCanOpen_Working/CANopenNode\crc16-ccitt.c ****  * @file        crc16-ccitt.c
   5:h:/Work/CANopen/PhiCanOpen_Working/CANopenNode\crc16-ccitt.c ****  * @ingroup     crc16-ccitt
   6:h:/Work/CANopen/PhiCanOpen_Working/CANopenNode\crc16-ccitt.c ****  * @version     SVN: \$Id: crc16-ccitt.c 42 2013-07-09 11:14:12Z jani22 $
   7:h:/Work/CANopen/PhiCanOpen_Working/CANopenNode\crc16-ccitt.c ****  * @author      Janez Paternoster
   8:h:/Work/CANopen/PhiCanOpen_Working/CANopenNode\crc16-ccitt.c ****  * @copyright   2012 - 2013 Janez Paternoster
   9:h:/Work/CANopen/PhiCanOpen_Working/CANopenNode\crc16-ccitt.c ****  *
  10:h:/Work/CANopen/PhiCanOpen_Working/CANopenNode\crc16-ccitt.c ****  * This file is part of CANopenNode, an opensource CANopen Stack.
  11:h:/Work/CANopen/PhiCanOpen_Working/CANopenNode\crc16-ccitt.c ****  * Project home page is <http://canopennode.sourceforge.net>.
  12:h:/Work/CANopen/PhiCanOpen_Working/CANopenNode\crc16-ccitt.c ****  * For more information on CANopen see <http://www.can-cia.org/>.
  13:h:/Work/CANopen/PhiCanOpen_Working/CANopenNode\crc16-ccitt.c ****  *
  14:h:/Work/CANopen/PhiCanOpen_Working/CANopenNode\crc16-ccitt.c ****  * CANopenNode is free software: you can redistribute it and/or modify
  15:h:/Work/CANopen/PhiCanOpen_Working/CANopenNode\crc16-ccitt.c ****  * it under the terms of the GNU Lesser General Public License as published by
  16:h:/Work/CANopen/PhiCanOpen_Working/CANopenNode\crc16-ccitt.c ****  * the Free Software Foundation, either version 3 of the License, or
  17:h:/Work/CANopen/PhiCanOpen_Working/CANopenNode\crc16-ccitt.c ****  * (at your option) any later version.
  18:h:/Work/CANopen/PhiCanOpen_Working/CANopenNode\crc16-ccitt.c ****  *
  19:h:/Work/CANopen/PhiCanOpen_Working/CANopenNode\crc16-ccitt.c ****  * This program is distributed in the hope that it will be useful,
  20:h:/Work/CANopen/PhiCanOpen_Working/CANopenNode\crc16-ccitt.c ****  * but WITHOUT ANY WARRANTY; without even the implied warranty of
  21:h:/Work/CANopen/PhiCanOpen_Working/CANopenNode\crc16-ccitt.c ****  * MERCHANTABILITY or FITNESS FOR A PARTICULAR PURPOSE. See the
  22:h:/Work/CANopen/PhiCanOpen_Working/CANopenNode\crc16-ccitt.c ****  * GNU Lesser General Public License for more details.
  23:h:/Work/CANopen/PhiCanOpen_Working/CANopenNode\crc16-ccitt.c ****  *
  24:h:/Work/CANopen/PhiCanOpen_Working/CANopenNode\crc16-ccitt.c ****  * You should have received a copy of the GNU Lesser General Public License
  25:h:/Work/CANopen/PhiCanOpen_Working/CANopenNode\crc16-ccitt.c ****  * along with this program. If not, see <http://www.gnu.org/licenses/>.
  26:h:/Work/CANopen/PhiCanOpen_Working/CANopenNode\crc16-ccitt.c ****  */
  27:h:/Work/CANopen/PhiCanOpen_Working/CANopenNode\crc16-ccitt.c **** 
  28:h:/Work/CANopen/PhiCanOpen_Working/CANopenNode\crc16-ccitt.c **** 
  29:h:/Work/CANopen/PhiCanOpen_Working/CANopenNode\crc16-ccitt.c **** #include "crc16-ccitt.h"
  30:h:/Work/CANopen/PhiCanOpen_Working/CANopenNode\crc16-ccitt.c **** #include "CO_cpu.h"
  31:h:/Work/CANopen/PhiCanOpen_Working/CANopenNode\crc16-ccitt.c **** 
  32:h:/Work/CANopen/PhiCanOpen_Working/CANopenNode\crc16-ccitt.c **** /*
  33:h:/Work/CANopen/PhiCanOpen_Working/CANopenNode\crc16-ccitt.c ****  * CRC table calculated by the following algorithm:
  34:h:/Work/CANopen/PhiCanOpen_Working/CANopenNode\crc16-ccitt.c ****  *
  35:h:/Work/CANopen/PhiCanOpen_Working/CANopenNode\crc16-ccitt.c ****  * void crc16_ccitt_table_init(void){
  36:h:/Work/CANopen/PhiCanOpen_Working/CANopenNode\crc16-ccitt.c ****  *     unsigned short i, j;
  37:h:/Work/CANopen/PhiCanOpen_Working/CANopenNode\crc16-ccitt.c ****  *     for(i=0; i<256; i++){
  38:h:/Work/CANopen/PhiCanOpen_Working/CANopenNode\crc16-ccitt.c ****  *         unsigned short crc = 0;
  39:h:/Work/CANopen/PhiCanOpen_Working/CANopenNode\crc16-ccitt.c ****  *         unsigned short c = i << 8;
  40:h:/Work/CANopen/PhiCanOpen_Working/CANopenNode\crc16-ccitt.c ****  *         for(j=0; j<8; j++){
  41:h:/Work/CANopen/PhiCanOpen_Working/CANopenNode\crc16-ccitt.c ****  *             if((crc ^ c) & 0x8000) crc = (crc << 1) ^ 0x1021;
  42:h:/Work/CANopen/PhiCanOpen_Working/CANopenNode\crc16-ccitt.c ****  *             else                   crc = crc << 1;
  43:h:/Work/CANopen/PhiCanOpen_Working/CANopenNode\crc16-ccitt.c ****  *             c = c << 1;
  44:h:/Work/CANopen/PhiCanOpen_Working/CANopenNode\crc16-ccitt.c ****  *         }
  45:h:/Work/CANopen/PhiCanOpen_Working/CANopenNode\crc16-ccitt.c ****  *         crc16_ccitt_table[i] = crc;
  46:h:/Work/CANopen/PhiCanOpen_Working/CANopenNode\crc16-ccitt.c ****  *     }
  47:h:/Work/CANopen/PhiCanOpen_Working/CANopenNode\crc16-ccitt.c ****  * }
  48:h:/Work/CANopen/PhiCanOpen_Working/CANopenNode\crc16-ccitt.c ****  */
  49:h:/Work/CANopen/PhiCanOpen_Working/CANopenNode\crc16-ccitt.c **** CO_ROM_DECL(static const unsigned short crc16_ccitt_table[256]) = {
  50:h:/Work/CANopen/PhiCanOpen_Working/CANopenNode\crc16-ccitt.c ****     0x0000U, 0x1021U, 0x2042U, 0x3063U, 0x4084U, 0x50A5U, 0x60C6U, 0x70E7U,
  51:h:/Work/CANopen/PhiCanOpen_Working/CANopenNode\crc16-ccitt.c ****     0x8108U, 0x9129U, 0xA14AU, 0xB16BU, 0xC18CU, 0xD1ADU, 0xE1CEU, 0xF1EFU,
  52:h:/Work/CANopen/PhiCanOpen_Working/CANopenNode\crc16-ccitt.c ****     0x1231U, 0x0210U, 0x3273U, 0x2252U, 0x52B5U, 0x4294U, 0x72F7U, 0x62D6U,
  53:h:/Work/CANopen/PhiCanOpen_Working/CANopenNode\crc16-ccitt.c ****     0x9339U, 0x8318U, 0xB37BU, 0xA35AU, 0xD3BDU, 0xC39CU, 0xF3FFU, 0xE3DEU,
  54:h:/Work/CANopen/PhiCanOpen_Working/CANopenNode\crc16-ccitt.c ****     0x2462U, 0x3443U, 0x0420U, 0x1401U, 0x64E6U, 0x74C7U, 0x44A4U, 0x5485U,
  55:h:/Work/CANopen/PhiCanOpen_Working/CANopenNode\crc16-ccitt.c ****     0xA56AU, 0xB54BU, 0x8528U, 0x9509U, 0xE5EEU, 0xF5CFU, 0xC5ACU, 0xD58DU,
  56:h:/Work/CANopen/PhiCanOpen_Working/CANopenNode\crc16-ccitt.c ****     0x3653U, 0x2672U, 0x1611U, 0x0630U, 0x76D7U, 0x66F6U, 0x5695U, 0x46B4U,
  57:h:/Work/CANopen/PhiCanOpen_Working/CANopenNode\crc16-ccitt.c ****     0xB75BU, 0xA77AU, 0x9719U, 0x8738U, 0xF7DFU, 0xE7FEU, 0xD79DU, 0xC7BCU,
  58:h:/Work/CANopen/PhiCanOpen_Working/CANopenNode\crc16-ccitt.c ****     0x48C4U, 0x58E5U, 0x6886U, 0x78A7U, 0x0840U, 0x1861U, 0x2802U, 0x3823U,
  59:h:/Work/CANopen/PhiCanOpen_Working/CANopenNode\crc16-ccitt.c ****     0xC9CCU, 0xD9EDU, 0xE98EU, 0xF9AFU, 0x8948U, 0x9969U, 0xA90AU, 0xB92BU,
  60:h:/Work/CANopen/PhiCanOpen_Working/CANopenNode\crc16-ccitt.c ****     0x5AF5U, 0x4AD4U, 0x7AB7U, 0x6A96U, 0x1A71U, 0x0A50U, 0x3A33U, 0x2A12U,
  61:h:/Work/CANopen/PhiCanOpen_Working/CANopenNode\crc16-ccitt.c ****     0xDBFDU, 0xCBDCU, 0xFBBFU, 0xEB9EU, 0x9B79U, 0x8B58U, 0xBB3BU, 0xAB1AU,
  62:h:/Work/CANopen/PhiCanOpen_Working/CANopenNode\crc16-ccitt.c ****     0x6CA6U, 0x7C87U, 0x4CE4U, 0x5CC5U, 0x2C22U, 0x3C03U, 0x0C60U, 0x1C41U,
  63:h:/Work/CANopen/PhiCanOpen_Working/CANopenNode\crc16-ccitt.c ****     0xEDAEU, 0xFD8FU, 0xCDECU, 0xDDCDU, 0xAD2AU, 0xBD0BU, 0x8D68U, 0x9D49U,
  64:h:/Work/CANopen/PhiCanOpen_Working/CANopenNode\crc16-ccitt.c ****     0x7E97U, 0x6EB6U, 0x5ED5U, 0x4EF4U, 0x3E13U, 0x2E32U, 0x1E51U, 0x0E70U,
  65:h:/Work/CANopen/PhiCanOpen_Working/CANopenNode\crc16-ccitt.c ****     0xFF9FU, 0xEFBEU, 0xDFDDU, 0xCFFCU, 0xBF1BU, 0xAF3AU, 0x9F59U, 0x8F78U,
  66:h:/Work/CANopen/PhiCanOpen_Working/CANopenNode\crc16-ccitt.c ****     0x9188U, 0x81A9U, 0xB1CAU, 0xA1EBU, 0xD10CU, 0xC12DU, 0xF14EU, 0xE16FU,
  67:h:/Work/CANopen/PhiCanOpen_Working/CANopenNode\crc16-ccitt.c ****     0x1080U, 0x00A1U, 0x30C2U, 0x20E3U, 0x5004U, 0x4025U, 0x7046U, 0x6067U,
  68:h:/Work/CANopen/PhiCanOpen_Working/CANopenNode\crc16-ccitt.c ****     0x83B9U, 0x9398U, 0xA3FBU, 0xB3DAU, 0xC33DU, 0xD31CU, 0xE37FU, 0xF35EU,
  69:h:/Work/CANopen/PhiCanOpen_Working/CANopenNode\crc16-ccitt.c ****     0x02B1U, 0x1290U, 0x22F3U, 0x32D2U, 0x4235U, 0x5214U, 0x6277U, 0x7256U,
  70:h:/Work/CANopen/PhiCanOpen_Working/CANopenNode\crc16-ccitt.c ****     0xB5EAU, 0xA5CBU, 0x95A8U, 0x8589U, 0xF56EU, 0xE54FU, 0xD52CU, 0xC50DU,
  71:h:/Work/CANopen/PhiCanOpen_Working/CANopenNode\crc16-ccitt.c ****     0x34E2U, 0x24C3U, 0x14A0U, 0x0481U, 0x7466U, 0x6447U, 0x5424U, 0x4405U,
  72:h:/Work/CANopen/PhiCanOpen_Working/CANopenNode\crc16-ccitt.c ****     0xA7DBU, 0xB7FAU, 0x8799U, 0x97B8U, 0xE75FU, 0xF77EU, 0xC71DU, 0xD73CU,
  73:h:/Work/CANopen/PhiCanOpen_Working/CANopenNode\crc16-ccitt.c ****     0x26D3U, 0x36F2U, 0x0691U, 0x16B0U, 0x6657U, 0x7676U, 0x4615U, 0x5634U,
  74:h:/Work/CANopen/PhiCanOpen_Working/CANopenNode\crc16-ccitt.c ****     0xD94CU, 0xC96DU, 0xF90EU, 0xE92FU, 0x99C8U, 0x89E9U, 0xB98AU, 0xA9ABU,
  75:h:/Work/CANopen/PhiCanOpen_Working/CANopenNode\crc16-ccitt.c ****     0x5844U, 0x4865U, 0x7806U, 0x6827U, 0x18C0U, 0x08E1U, 0x3882U, 0x28A3U,
  76:h:/Work/CANopen/PhiCanOpen_Working/CANopenNode\crc16-ccitt.c ****     0xCB7DU, 0xDB5CU, 0xEB3FU, 0xFB1EU, 0x8BF9U, 0x9BD8U, 0xABBBU, 0xBB9AU,
  77:h:/Work/CANopen/PhiCanOpen_Working/CANopenNode\crc16-ccitt.c ****     0x4A75U, 0x5A54U, 0x6A37U, 0x7A16U, 0x0AF1U, 0x1AD0U, 0x2AB3U, 0x3A92U,
  78:h:/Work/CANopen/PhiCanOpen_Working/CANopenNode\crc16-ccitt.c ****     0xFD2EU, 0xED0FU, 0xDD6CU, 0xCD4DU, 0xBDAAU, 0xAD8BU, 0x9DE8U, 0x8DC9U,
  79:h:/Work/CANopen/PhiCanOpen_Working/CANopenNode\crc16-ccitt.c ****     0x7C26U, 0x6C07U, 0x5C64U, 0x4C45U, 0x3CA2U, 0x2C83U, 0x1CE0U, 0x0CC1U,
  80:h:/Work/CANopen/PhiCanOpen_Working/CANopenNode\crc16-ccitt.c ****     0xEF1FU, 0xFF3EU, 0xCF5DU, 0xDF7CU, 0xAF9BU, 0xBFBAU, 0x8FD9U, 0x9FF8U,
  81:h:/Work/CANopen/PhiCanOpen_Working/CANopenNode\crc16-ccitt.c ****     0x6E17U, 0x7E36U, 0x4E55U, 0x5E74U, 0x2E93U, 0x3EB2U, 0x0ED1U, 0x1EF0U
  82:h:/Work/CANopen/PhiCanOpen_Working/CANopenNode\crc16-ccitt.c **** };
  83:h:/Work/CANopen/PhiCanOpen_Working/CANopenNode\crc16-ccitt.c **** 
  84:h:/Work/CANopen/PhiCanOpen_Working/CANopenNode\crc16-ccitt.c **** 
  85:h:/Work/CANopen/PhiCanOpen_Working/CANopenNode\crc16-ccitt.c **** /******************************************************************************/
  86:h:/Work/CANopen/PhiCanOpen_Working/CANopenNode\crc16-ccitt.c **** unsigned short crc16_ccitt(
  87:h:/Work/CANopen/PhiCanOpen_Working/CANopenNode\crc16-ccitt.c ****         const unsigned char     block[],
  88:h:/Work/CANopen/PhiCanOpen_Working/CANopenNode\crc16-ccitt.c ****         unsigned int            blockLength,
  89:h:/Work/CANopen/PhiCanOpen_Working/CANopenNode\crc16-ccitt.c ****         unsigned short          crc)
  90:h:/Work/CANopen/PhiCanOpen_Working/CANopenNode\crc16-ccitt.c **** {
 349              		.loc 1 90 0
 350              		.cfi_startproc
 351              		@ args = 0, pretend = 0, frame = 24
 352              		@ frame_needed = 1, uses_anonymous_args = 0
 353              		@ link register save eliminated.
 354 0000 80B4     		push	{r7}	@	@ 63	*push_multi	[length = 2]
 355              		.cfi_def_cfa_offset 4
 356              		.cfi_offset 7, -4
 357 0002 87B0     		sub	sp, sp, #28	@,,	@ 64	*arm_addsi3/8	[length = 4]
 358              		.cfi_def_cfa_offset 32
 359 0004 00AF     		add	r7, sp, #0	@,,	@ 66	*arm_addsi3/2	[length = 4]
 360              		.cfi_def_cfa_register 7
 361 0006 F860     		str	r0, [r7, #12]	@ block, block	@ 2	*thumb2_movsi_insn/7	[length = 4]
 362 0008 B960     		str	r1, [r7, #8]	@ blockLength, blockLength	@ 3	*thumb2_movsi_insn/7	[length = 4]
 363 000a 1346     		mov	r3, r2	@ tmp119, crc	@ 4	*thumb2_movsi_insn/1	[length = 4]
 364 000c FB80     		strh	r3, [r7, #6]	@ movhi	@ tmp120, crc	@ 6	*thumb2_movhi_insn/3	[length = 4]
  91:h:/Work/CANopen/PhiCanOpen_Working/CANopenNode\crc16-ccitt.c ****     unsigned int i;
  92:h:/Work/CANopen/PhiCanOpen_Working/CANopenNode\crc16-ccitt.c **** 
  93:h:/Work/CANopen/PhiCanOpen_Working/CANopenNode\crc16-ccitt.c ****     for(i=0U; i<blockLength; i++){
 365              		.loc 1 93 0
 366 000e 0023     		movs	r3, #0	@ tmp121,	@ 10	*thumb2_movsi_shortim	[length = 2]
 367 0010 7B61     		str	r3, [r7, #20]	@ tmp121, i	@ 11	*thumb2_movsi_insn/7	[length = 4]
 368 0012 14E0     		b	.L2	@	@ 59	*arm_jump	[length = 2]
 369              	.L3:
 370              	.LBB2:
  94:h:/Work/CANopen/PhiCanOpen_Working/CANopenNode\crc16-ccitt.c ****         unsigned short tmp = (crc >> 8) ^ (unsigned short) block[i];
 371              		.loc 1 94 0 discriminator 2
 372 0014 FB88     		ldrh	r3, [r7, #6]	@ tmp122, crc	@ 15	*thumb2_zero_extendhisi2_v6/2	[length = 4]
 373 0016 1B0A     		lsrs	r3, r3, #8	@ tmp123, tmp122,	@ 16	*thumb2_shiftsi3_short/2	[length = 2]
 374 0018 9AB2     		uxth	r2, r3	@ D.4148, tmp123	@ 17	*thumb2_zero_extendhisi2_v6/1	[length = 4]
 375 001a F968     		ldr	r1, [r7, #12]	@ tmp124, block	@ 18	*thumb2_movsi_insn/5	[length = 4]
 376 001c 7B69     		ldr	r3, [r7, #20]	@ tmp125, i	@ 19	*thumb2_movsi_insn/5	[length = 4]
 377 001e 0B44     		add	r3, r3, r1	@ D.4149, tmp124	@ 20	*arm_addsi3/1	[length = 2]
 378 0020 1B78     		ldrb	r3, [r3]	@ zero_extendqisi2	@ D.4150, *_8	@ 21	thumb2_zero_extendqisi2_v6/2	[length = 4]
 379 0022 5340     		eors	r3, r3, r2	@, tmp126, D.4148, D.4148	@ 23	*thumb2_alusi3_short	[length = 2]
 380 0024 7B82     		strh	r3, [r7, #18]	@ movhi	@ tmp127, tmp	@ 25	*thumb2_movhi_insn/3	[length = 4]
  95:h:/Work/CANopen/PhiCanOpen_Working/CANopenNode\crc16-ccitt.c ****         crc = ((unsigned short)(crc << 8U)) ^ CO_ROM_READ16(crc16_ccitt_table[tmp]);
 381              		.loc 1 95 0 discriminator 2
 382 0026 FB88     		ldrh	r3, [r7, #6]	@ movhi	@ tmp128, crc	@ 26	*thumb2_movhi_insn/4	[length = 4]
 383 0028 1B02     		lsls	r3, r3, #8	@ tmp129, tmp128,	@ 27	*thumb2_shiftsi3_short/2	[length = 2]
 384 002a 9AB2     		uxth	r2, r3	@ D.4148, tmp129	@ 28	*thumb2_zero_extendhisi2_v6/1	[length = 4]
 385 002c 798A     		ldrh	r1, [r7, #18]	@ D.4151, tmp	@ 29	*thumb2_zero_extendhisi2_v6/2	[length = 4]
 386 002e 094B     		ldr	r3, .L5	@ tmp130,	@ 30	*thumb2_movsi_insn/5	[length = 4]
 387 0030 33F81130 		ldrh	r3, [r3, r1, lsl #1]	@ D.4148, crc16_ccitt_table	@ 31	*thumb2_zero_extendhisi2_v6/2	[length =
 388 0034 5340     		eors	r3, r3, r2	@, tmp131, D.4148, D.4148	@ 32	*thumb2_alusi3_short	[length = 2]
 389 0036 FB80     		strh	r3, [r7, #6]	@ movhi	@ tmp132, crc	@ 34	*thumb2_movhi_insn/3	[length = 4]
 390              	.LBE2:
  93:h:/Work/CANopen/PhiCanOpen_Working/CANopenNode\crc16-ccitt.c ****     for(i=0U; i<blockLength; i++){
 391              		.loc 1 93 0 discriminator 2
 392 0038 7B69     		ldr	r3, [r7, #20]	@ tmp134, i	@ 35	*thumb2_movsi_insn/5	[length = 4]
 393 003a 0133     		adds	r3, r3, #1	@ tmp133, tmp134,	@ 36	*thumb2_addsi_short/1	[length = 2]
 394 003c 7B61     		str	r3, [r7, #20]	@ tmp133, i	@ 37	*thumb2_movsi_insn/7	[length = 4]
 395              	.L2:
  93:h:/Work/CANopen/PhiCanOpen_Working/CANopenNode\crc16-ccitt.c ****     for(i=0U; i<blockLength; i++){
 396              		.loc 1 93 0 is_stmt 0 discriminator 1
 397 003e 7A69     		ldr	r2, [r7, #20]	@ tmp135, i	@ 41	*thumb2_movsi_insn/5	[length = 4]
 398 0040 BB68     		ldr	r3, [r7, #8]	@ tmp136, blockLength	@ 42	*thumb2_movsi_insn/5	[length = 4]
 399 0042 9A42     		cmp	r2, r3	@ tmp135, tmp136	@ 43	*arm_cmpsi_insn/2	[length = 2]
 400 0044 E6D3     		bcc	.L3	@,	@ 44	arm_cond_branch	[length = 2]
  96:h:/Work/CANopen/PhiCanOpen_Working/CANopenNode\crc16-ccitt.c ****     }
  97:h:/Work/CANopen/PhiCanOpen_Working/CANopenNode\crc16-ccitt.c ****     return crc;
 401              		.loc 1 97 0 is_stmt 1
 402 0046 FB88     		ldrh	r3, [r7, #6]	@ D.4148, crc	@ 46	*thumb2_zero_extendhisi2_v6/2	[length = 4]
  98:h:/Work/CANopen/PhiCanOpen_Working/CANopenNode\crc16-ccitt.c **** }
 403              		.loc 1 98 0
 404 0048 1846     		mov	r0, r3	@, <retval>	@ 53	*thumb2_movsi_insn/1	[length = 4]
 405 004a 1C37     		adds	r7, r7, #28	@,,	@ 69	*thumb2_addsi_short/2	[length = 2]
 406 004c BD46     		mov	sp, r7	@,	@ 71	*thumb2_movsi_insn/1	[length = 4]
 407              		@ sp needed	@	@ 72	force_register_use	[length = 0]
 408 004e 5DF8047B 		ldr	r7, [sp], #4	@,	@ 73	*thumb2_movsi_insn/5	[length = 4]
 409 0052 7047     		bx	lr	@	@ 74	*thumb2_return	[length = 4]
 410              	.L6:
 411              		.align	2
 412              	.L5:
 413 0054 00000000 		.word	crc16_ccitt_table
 414              		.cfi_endproc
 415              	.LFE0:
 417              		.text
 418              	.Letext0:
DEFINED SYMBOLS
                            *ABS*:00000000 crc16-ccitt.c
C:\Users\Akil\AppData\Local\Temp\ccNaNz7j.s:80     .rodata.crc16_ccitt_table:00000000 $d
C:\Users\Akil\AppData\Local\Temp\ccNaNz7j.s:83     .rodata.crc16_ccitt_table:00000000 crc16_ccitt_table
C:\Users\Akil\AppData\Local\Temp\ccNaNz7j.s:341    .text.crc16_ccitt:00000000 $t
C:\Users\Akil\AppData\Local\Temp\ccNaNz7j.s:346    .text.crc16_ccitt:00000000 crc16_ccitt
C:\Users\Akil\AppData\Local\Temp\ccNaNz7j.s:413    .text.crc16_ccitt:00000054 $d
                     .debug_frame:00000010 $d
                           .group:00000000 wm4.0.0a5c9e0e0cb4adcdbe682f0444573015
                           .group:00000000 wm4.stddef.h.39.daafd3d79fe2f3a84d2d73d7d4e706f8
                           .group:00000000 wm4.features.h.22.6a4ca7cd053637cc1d0db6c16f39b2d7
                           .group:00000000 wm4._default_types.h.15.8b2cb27e528498f8ff711db085d6e489
                           .group:00000000 wm4.stdint.h.20.796e373797e732130a803d4c0338fa1b
                           .group:00000000 wm4.CO_cpu.h.8.3952899c0cc6eb3c9e6ddb71238958cc

NO UNDEFINED SYMBOLS
