   1              		.syntax unified
   2              		.cpu cortex-m3
   3              		.fpu softvfp
   4              		.eabi_attribute 20, 1	@ Tag_ABI_FP_denormal
   5              		.eabi_attribute 21, 1	@ Tag_ABI_FP_exceptions
   6              		.eabi_attribute 23, 3	@ Tag_ABI_FP_number_model
   7              		.eabi_attribute 24, 1	@ Tag_ABI_align8_needed
   8              		.eabi_attribute 25, 1	@ Tag_ABI_align8_preserved
   9              		.eabi_attribute 26, 1	@ Tag_ABI_enum_size
  10              		.eabi_attribute 30, 6	@ Tag_ABI_optimization_goals
  11              		.eabi_attribute 34, 1	@ Tag_CPU_unaligned_access
  12              		.eabi_attribute 18, 4	@ Tag_ABI_PCS_wchar_t
  13              		.file	"lpc17xx_systick.c"
  14              	@ GNU C (GNU Tools for ARM Embedded Processors) version 4.8.4 20140526 (release) [ARM/embedded-4_8-
  15              	@	compiled by GNU C version 4.6.4, GMP version 4.3.2, MPFR version 2.4.2, MPC version 0.8.1
  16              	@ GGC heuristics: --param ggc-min-expand=100 --param ggc-min-heapsize=131072
  17              	@ options passed:  -I C:/MinGW/msys/1.0/cpu/cortex-m3 -I .
  18              	@ -I h:/Work/CANopen/PhiCanOpen_Working/common/include -I LPC17xxLib/inc
  19              	@ -I CMSISv2p00_LPC17xx/lpcinc -I CMSISv2p00_LPC17xx/inc -imultilib armv7-m
  20              	@ -iprefix h:\arm-non-eabi\bin\../lib/gcc/arm-none-eabi/4.8.4/
  21              	@ -isysroot h:\arm-non-eabi\bin\../arm-none-eabi
  22              	@ -MMD h:/Work/CANopen/PhiCanOpen_Working/build_root/HYDRA/debug_noOS/CDL/LPC17xxLib/src/lpc17xx_sy
  23              	@ -MP
  24              	@ -MQ h:/Work/CANopen/PhiCanOpen_Working/build_root/HYDRA/debug_noOS/CDL/LPC17xxLib/src/lpc17xx_sys
  25              	@ -D__USES_INITFINI__ -D __NEWLIB__ -D DEBUG_STACK_STAMP=0x5A
  26              	@ -D PHI_CFG_DEBUG_ASSERT_PRINT=1 -D __ARM_LPC1768__
  27              	@ -D PHI_CFG_EXTRAM_SIZE=0 -D PHI_CFG_OS_STACK_SIZE=0x600
  28              	@ -D PHI_CFG_STACK_SIZE=0xB00 -D PHI_CFG_KERN_MONITOR=1
  29              	@ -D PHI_CFG_KERN_PRI_INHERIT=0 -D PHI_CFG_KERN_SIGNALS=0
  30              	@ -D PHI_CFG_DEBUG_TRACE_ENABLE=1 -D PHI_DEBUG_ENABLE=1 -D __LPC17XX__
  31              	@ -D USE_OLD_STYLE_DATA_BSS_INIT=1 -D __RAM_MODE__=0
  32              	@ LPC17xxLib/src/lpc17xx_systick.c -mthumb -mno-thumb-interwork
  33              	@ -mcpu=cortex-m3
  34              	@ -auxbase-strip h:/Work/CANopen/PhiCanOpen_Working/build_root/HYDRA/debug_noOS/CDL/LPC17xxLib/src/
  35              	@ -ggdb -g3 -O0 -Wformat=1 -Wall -Wundef -Wpointer-arith -Wcast-qual
  36              	@ -Wcast-align -Wwrite-strings -Wsign-compare -Wsuggest-attribute=noreturn
  37              	@ -Wextra -Wstrict-aliasing=2 -Wmissing-prototypes -Wstrict-prototypes
  38              	@ -std=gnu99 -fno-strict-aliasing -fwrapv -fverbose-asm -ffunction-sections
  39              	@ -fdata-sections
  40              	@ options enabled:  -faggressive-loop-optimizations -fauto-inc-dec
  41              	@ -fbranch-count-reg -fcommon -fdata-sections -fdelete-null-pointer-checks
  42              	@ -fdwarf2-cfi-asm -fearly-inlining -feliminate-unused-debug-types
  43              	@ -ffunction-cse -ffunction-sections -fgcse-lm -fgnu-runtime -fident
  44              	@ -finline-atomics -fira-hoist-pressure -fira-share-save-slots
  45              	@ -fira-share-spill-slots -fivopts -fkeep-static-consts
  46              	@ -fleading-underscore -fmath-errno -fmerge-debug-strings
  47              	@ -fmove-loop-invariants -fpeephole -fprefetch-loop-arrays
  48              	@ -freg-struct-return -fsched-critical-path-heuristic
  49              	@ -fsched-dep-count-heuristic -fsched-group-heuristic -fsched-interblock
  50              	@ -fsched-last-insn-heuristic -fsched-rank-heuristic -fsched-spec
  51              	@ -fsched-spec-insn-heuristic -fsched-stalled-insns-dep -fshow-column
  52              	@ -fsigned-zeros -fsplit-ivs-in-unroller -fstrict-volatile-bitfields
  53              	@ -fsync-libcalls -ftrapping-math -ftree-coalesce-vars -ftree-cselim
  54              	@ -ftree-forwprop -ftree-loop-if-convert -ftree-loop-im -ftree-loop-ivcanon
  55              	@ -ftree-loop-optimize -ftree-parallelize-loops= -ftree-phiprop -ftree-pta
  56              	@ -ftree-reassoc -ftree-scev-cprop -ftree-slp-vectorize
  57              	@ -ftree-vect-loop-version -funit-at-a-time -fverbose-asm -fwrapv
  58              	@ -fzero-initialized-in-bss -mfix-cortex-m3-ldrd -mlittle-endian
  59              	@ -mpic-data-is-text-relative -msched-prolog -mthumb -munaligned-access
  60              	@ -mvectorize-with-neon-quad
  61              	
  62              		.text
  63              	.Ltext0:
  64              		.cfi_sections	.debug_frame
  65              		.global	__aeabi_ui2f
  66              		.global	__aeabi_fcmpgt
  67              		.section	.text.SYSTICK_InternalInit,"ax",%progbits
  68              		.align	2
  69              		.global	SYSTICK_InternalInit
  70              		.thumb
  71              		.thumb_func
  73              	SYSTICK_InternalInit:
  74              	.LFB55:
  75              		.file 1 "LPC17xxLib/src/lpc17xx_systick.c"
   1:LPC17xxLib/src/lpc17xx_systick.c **** #ifdef __LPC17XX__
   2:LPC17xxLib/src/lpc17xx_systick.c **** 
   3:LPC17xxLib/src/lpc17xx_systick.c **** /**********************************************************************
   4:LPC17xxLib/src/lpc17xx_systick.c **** * $Id$		lpc17xx_systick.c				2010-05-21
   5:LPC17xxLib/src/lpc17xx_systick.c **** *//**
   6:LPC17xxLib/src/lpc17xx_systick.c **** * @file		lpc17xx_systick.c
   7:LPC17xxLib/src/lpc17xx_systick.c **** * @brief	Contains all functions support for SYSTICK firmware library
   8:LPC17xxLib/src/lpc17xx_systick.c **** * 			on LPC17xx
   9:LPC17xxLib/src/lpc17xx_systick.c **** * @version	2.0
  10:LPC17xxLib/src/lpc17xx_systick.c **** * @date		21. May. 2010
  11:LPC17xxLib/src/lpc17xx_systick.c **** * @author	NXP MCU SW Application Team
  12:LPC17xxLib/src/lpc17xx_systick.c **** *
  13:LPC17xxLib/src/lpc17xx_systick.c **** * Copyright(C) 2010, NXP Semiconductor
  14:LPC17xxLib/src/lpc17xx_systick.c **** * All rights reserved.
  15:LPC17xxLib/src/lpc17xx_systick.c **** *
  16:LPC17xxLib/src/lpc17xx_systick.c **** ***********************************************************************
  17:LPC17xxLib/src/lpc17xx_systick.c **** * Software that is described herein is for illustrative purposes only
  18:LPC17xxLib/src/lpc17xx_systick.c **** * which provides customers with programming information regarding the
  19:LPC17xxLib/src/lpc17xx_systick.c **** * products. This software is supplied "AS IS" without any warranties.
  20:LPC17xxLib/src/lpc17xx_systick.c **** * NXP Semiconductors assumes no responsibility or liability for the
  21:LPC17xxLib/src/lpc17xx_systick.c **** * use of the software, conveys no license or title under any patent,
  22:LPC17xxLib/src/lpc17xx_systick.c **** * copyright, or mask work right to the product. NXP Semiconductors
  23:LPC17xxLib/src/lpc17xx_systick.c **** * reserves the right to make changes in the software without
  24:LPC17xxLib/src/lpc17xx_systick.c **** * notification. NXP Semiconductors also make no representation or
  25:LPC17xxLib/src/lpc17xx_systick.c **** * warranty that such application will be suitable for the specified
  26:LPC17xxLib/src/lpc17xx_systick.c **** * use without further testing or modification.
  27:LPC17xxLib/src/lpc17xx_systick.c **** **********************************************************************/
  28:LPC17xxLib/src/lpc17xx_systick.c **** 
  29:LPC17xxLib/src/lpc17xx_systick.c **** /* Peripheral group ----------------------------------------------------------- */
  30:LPC17xxLib/src/lpc17xx_systick.c **** /** @addtogroup SYSTICK
  31:LPC17xxLib/src/lpc17xx_systick.c ****  * @{
  32:LPC17xxLib/src/lpc17xx_systick.c ****  */
  33:LPC17xxLib/src/lpc17xx_systick.c **** 
  34:LPC17xxLib/src/lpc17xx_systick.c **** /* Includes ------------------------------------------------------------------- */
  35:LPC17xxLib/src/lpc17xx_systick.c **** #include "lpc17xx_systick.h"
  36:LPC17xxLib/src/lpc17xx_systick.c **** #include "lpc17xx_clkpwr.h"
  37:LPC17xxLib/src/lpc17xx_systick.c **** 
  38:LPC17xxLib/src/lpc17xx_systick.c **** /* If this source file built with example, the LPC17xx FW library configuration
  39:LPC17xxLib/src/lpc17xx_systick.c ****  * file in each example directory ("lpc17xx_libcfg.h") must be included,
  40:LPC17xxLib/src/lpc17xx_systick.c ****  * otherwise the default FW library configuration file must be included instead
  41:LPC17xxLib/src/lpc17xx_systick.c ****  */
  42:LPC17xxLib/src/lpc17xx_systick.c **** #ifdef __BUILD_WITH_EXAMPLE__
  43:LPC17xxLib/src/lpc17xx_systick.c **** #include "lpc17xx_libcfg.h"
  44:LPC17xxLib/src/lpc17xx_systick.c **** #else
  45:LPC17xxLib/src/lpc17xx_systick.c **** #include "lpc17xx_libcfg_default.h"
  46:LPC17xxLib/src/lpc17xx_systick.c **** #endif /* __BUILD_WITH_EXAMPLE__ */
  47:LPC17xxLib/src/lpc17xx_systick.c **** 
  48:LPC17xxLib/src/lpc17xx_systick.c **** 
  49:LPC17xxLib/src/lpc17xx_systick.c **** #ifdef _SYSTICK
  50:LPC17xxLib/src/lpc17xx_systick.c **** 
  51:LPC17xxLib/src/lpc17xx_systick.c **** /* Public Functions ----------------------------------------------------------- */
  52:LPC17xxLib/src/lpc17xx_systick.c **** /** @addtogroup SYSTICK_Public_Functions
  53:LPC17xxLib/src/lpc17xx_systick.c ****  * @{
  54:LPC17xxLib/src/lpc17xx_systick.c ****  */
  55:LPC17xxLib/src/lpc17xx_systick.c **** /*********************************************************************//**
  56:LPC17xxLib/src/lpc17xx_systick.c ****  * @brief 		Initial System Tick with using internal CPU clock source
  57:LPC17xxLib/src/lpc17xx_systick.c ****  * @param[in]	time	time interval(ms)
  58:LPC17xxLib/src/lpc17xx_systick.c ****  * @return 		None
  59:LPC17xxLib/src/lpc17xx_systick.c ****  **********************************************************************/
  60:LPC17xxLib/src/lpc17xx_systick.c **** void SYSTICK_InternalInit(uint32_t time)
  61:LPC17xxLib/src/lpc17xx_systick.c **** {
  76              		.loc 1 61 0
  77              		.cfi_startproc
  78              		@ args = 0, pretend = 0, frame = 16
  79              		@ frame_needed = 1, uses_anonymous_args = 0
  80 0000 80B5     		push	{r7, lr}	@	@ 66	*push_multi	[length = 2]
  81              		.cfi_def_cfa_offset 8
  82              		.cfi_offset 7, -8
  83              		.cfi_offset 14, -4
  84 0002 84B0     		sub	sp, sp, #16	@,,	@ 67	*arm_addsi3/8	[length = 4]
  85              		.cfi_def_cfa_offset 24
  86 0004 00AF     		add	r7, sp, #0	@,,	@ 69	*arm_addsi3/2	[length = 4]
  87              		.cfi_def_cfa_register 7
  88 0006 7860     		str	r0, [r7, #4]	@ time, time	@ 2	*thumb2_movsi_insn/7	[length = 4]
  62:LPC17xxLib/src/lpc17xx_systick.c **** 	uint32_t cclk;
  63:LPC17xxLib/src/lpc17xx_systick.c **** 	float maxtime;
  64:LPC17xxLib/src/lpc17xx_systick.c **** 
  65:LPC17xxLib/src/lpc17xx_systick.c **** 	cclk = SystemCoreClock;
  89              		.loc 1 65 0
  90 0008 184B     		ldr	r3, .L6	@ tmp122,	@ 6	*thumb2_movsi_insn/5	[length = 4]
  91 000a 1B68     		ldr	r3, [r3]	@ tmp123, SystemCoreClock	@ 7	*thumb2_movsi_insn/5	[length = 4]
  92 000c FB60     		str	r3, [r7, #12]	@ tmp123, cclk	@ 8	*thumb2_movsi_insn/7	[length = 4]
  66:LPC17xxLib/src/lpc17xx_systick.c **** 	/* With internal CPU clock frequency for LPC17xx is 'SystemCoreClock'
  67:LPC17xxLib/src/lpc17xx_systick.c **** 	 * And limit 24 bit for RELOAD value
  68:LPC17xxLib/src/lpc17xx_systick.c **** 	 * So the maximum time can be set:
  69:LPC17xxLib/src/lpc17xx_systick.c **** 	 * 1/SystemCoreClock * (2^24) * 1000 (ms)
  70:LPC17xxLib/src/lpc17xx_systick.c **** 	 */
  71:LPC17xxLib/src/lpc17xx_systick.c **** 	//check time value is available or not
  72:LPC17xxLib/src/lpc17xx_systick.c **** 	maxtime = (1<<24)/(SystemCoreClock / 1000) ;
  93              		.loc 1 72 0
  94 000e 174B     		ldr	r3, .L6	@ tmp124,	@ 9	*thumb2_movsi_insn/5	[length = 4]
  95 0010 1A68     		ldr	r2, [r3]	@ SystemCoreClock.0, SystemCoreClock	@ 10	*thumb2_movsi_insn/5	[length = 4]
  96 0012 174B     		ldr	r3, .L6+4	@ tmp126,	@ 11	*thumb2_movsi_insn/5	[length = 4]
  97 0014 A3FB0203 		umull	r0, r3, r3, r2	@, tmp125, tmp126, SystemCoreClock.0	@ 12	*umulsi3_highpart_v6	[length = 4]
  98 0018 9B09     		lsrs	r3, r3, #6	@ D.5383, tmp125,	@ 13	*thumb2_shiftsi3_short/2	[length = 2]
  99 001a 4FF08072 		mov	r2, #16777216	@ tmp127,	@ 14	*thumb2_movsi_insn/2	[length = 4]
 100 001e B2FBF3F3 		udiv	r3, r2, r3	@ D.5383, tmp127, D.5383	@ 15	udivsi3	[length = 4]
 101 0022 1846     		mov	r0, r3	@, D.5383	@ 16	*thumb2_movsi_insn/1	[length = 4]
 102 0024 FFF7FEFF 		bl	__aeabi_ui2f	@	@ 17	*call_value_symbol	[length = 4]
 103 0028 0346     		mov	r3, r0	@ tmp128,	@ 18	*arm_movsf_soft_insn/1	[length = 4]
 104 002a BB60     		str	r3, [r7, #8]	@ float	@ tmp128, maxtime	@ 19	*arm_movsf_soft_insn/3	[length = 4]
  73:LPC17xxLib/src/lpc17xx_systick.c **** 	if(time > maxtime)
 105              		.loc 1 73 0
 106 002c 7868     		ldr	r0, [r7, #4]	@, time	@ 20	*thumb2_movsi_insn/5	[length = 4]
 107 002e FFF7FEFF 		bl	__aeabi_ui2f	@	@ 21	*call_value_symbol	[length = 4]
 108 0032 0346     		mov	r3, r0	@ D.5384,	@ 22	*arm_movsf_soft_insn/1	[length = 4]
 109 0034 1846     		mov	r0, r3	@, D.5384	@ 23	*arm_movsf_soft_insn/1	[length = 4]
 110 0036 B968     		ldr	r1, [r7, #8]	@ float	@, maxtime	@ 24	*arm_movsf_soft_insn/2	[length = 4]
 111 0038 FFF7FEFF 		bl	__aeabi_fcmpgt	@	@ 25	*call_value_symbol	[length = 4]
 112 003c 0346     		mov	r3, r0	@ tmp129,	@ 26	*thumb2_movsi_insn/1	[length = 4]
 113 003e 002B     		cmp	r3, #0	@ tmp129,	@ 27	*arm_cmpsi_insn/1	[length = 2]
 114 0040 00D0     		beq	.L5	@,	@ 28	arm_cond_branch	[length = 2]
 115              	.L4:
  74:LPC17xxLib/src/lpc17xx_systick.c **** 		//Error loop
  75:LPC17xxLib/src/lpc17xx_systick.c **** 		while(1);
 116              		.loc 1 75 0 discriminator 1
 117 0042 FEE7     		b	.L4	@	@ 57	*arm_jump	[length = 2]
 118              	.L5:
  76:LPC17xxLib/src/lpc17xx_systick.c **** 	else
  77:LPC17xxLib/src/lpc17xx_systick.c **** 	{
  78:LPC17xxLib/src/lpc17xx_systick.c **** 		//Select CPU clock is System Tick clock source
  79:LPC17xxLib/src/lpc17xx_systick.c **** 		SysTick->CTRL |= ST_CTRL_CLKSOURCE;
 119              		.loc 1 79 0
 120 0044 0B4B     		ldr	r3, .L6+8	@ D.5385,	@ 38	*thumb2_movsi_insn/5	[length = 4]
 121 0046 0B4A     		ldr	r2, .L6+8	@ D.5385,	@ 39	*thumb2_movsi_insn/5	[length = 4]
 122 0048 1268     		ldr	r2, [r2]	@ D.5383, _9->CTRL	@ 40	*thumb2_movsi_insn/5	[length = 4]
 123 004a 42F00402 		orr	r2, r2, #4	@ D.5383, D.5383,	@ 41	*iorsi3_insn/1	[length = 4]
 124 004e 1A60     		str	r2, [r3]	@ D.5383, _8->CTRL	@ 42	*thumb2_movsi_insn/7	[length = 4]
  80:LPC17xxLib/src/lpc17xx_systick.c **** 		/* Set RELOAD value
  81:LPC17xxLib/src/lpc17xx_systick.c **** 		 * RELOAD = (SystemCoreClock/1000) * time - 1
  82:LPC17xxLib/src/lpc17xx_systick.c **** 		 * with time base is millisecond
  83:LPC17xxLib/src/lpc17xx_systick.c **** 		 */
  84:LPC17xxLib/src/lpc17xx_systick.c **** 		SysTick->LOAD = (cclk/1000)*time - 1;
 125              		.loc 1 84 0
 126 0050 084B     		ldr	r3, .L6+8	@ D.5385,	@ 43	*thumb2_movsi_insn/5	[length = 4]
 127 0052 F968     		ldr	r1, [r7, #12]	@ tmp130, cclk	@ 44	*thumb2_movsi_insn/5	[length = 4]
 128 0054 064A     		ldr	r2, .L6+4	@ tmp132,	@ 45	*thumb2_movsi_insn/5	[length = 4]
 129 0056 A2FB0102 		umull	r0, r2, r2, r1	@, tmp131, tmp132, tmp130	@ 46	*umulsi3_highpart_v6	[length = 4]
 130 005a 9209     		lsrs	r2, r2, #6	@ D.5383, tmp131,	@ 47	*thumb2_shiftsi3_short/2	[length = 2]
 131 005c 7968     		ldr	r1, [r7, #4]	@ tmp133, time	@ 48	*thumb2_movsi_insn/5	[length = 4]
 132 005e 01FB02F2 		mul	r2, r1, r2	@ D.5383, tmp133, D.5383	@ 49	*arm_mulsi3_v6	[length = 4]
 133 0062 013A     		subs	r2, r2, #1	@ D.5383, D.5383,	@ 50	*thumb2_addsi_short/1	[length = 2]
 134 0064 5A60     		str	r2, [r3, #4]	@ D.5383, _12->LOAD	@ 51	*thumb2_movsi_insn/7	[length = 4]
  85:LPC17xxLib/src/lpc17xx_systick.c **** 	}
  86:LPC17xxLib/src/lpc17xx_systick.c **** }
 135              		.loc 1 86 0
 136 0066 1037     		adds	r7, r7, #16	@,,	@ 72	*thumb2_addsi_short/2	[length = 2]
 137 0068 BD46     		mov	sp, r7	@,	@ 74	*thumb2_movsi_insn/1	[length = 4]
 138              		@ sp needed	@	@ 75	force_register_use	[length = 0]
 139 006a 80BD     		pop	{r7, pc}	@	@ 76	*pop_multiple_with_writeback_and_return	[length = 4]
 140              	.L7:
 141              		.align	2
 142              	.L6:
 143 006c 00000000 		.word	SystemCoreClock
 144 0070 D34D6210 		.word	274877907
 145 0074 10E000E0 		.word	-536813552
 146              		.cfi_endproc
 147              	.LFE55:
 149              		.section	.text.SYSTICK_ExternalInit,"ax",%progbits
 150              		.align	2
 151              		.global	SYSTICK_ExternalInit
 152              		.thumb
 153              		.thumb_func
 155              	SYSTICK_ExternalInit:
 156              	.LFB56:
  87:LPC17xxLib/src/lpc17xx_systick.c **** 
  88:LPC17xxLib/src/lpc17xx_systick.c **** /*********************************************************************//**
  89:LPC17xxLib/src/lpc17xx_systick.c ****  * @brief 		Initial System Tick with using external clock source
  90:LPC17xxLib/src/lpc17xx_systick.c ****  * @param[in]	freq	external clock frequency(Hz)
  91:LPC17xxLib/src/lpc17xx_systick.c ****  * @param[in]	time	time interval(ms)
  92:LPC17xxLib/src/lpc17xx_systick.c ****  * @return 		None
  93:LPC17xxLib/src/lpc17xx_systick.c ****  **********************************************************************/
  94:LPC17xxLib/src/lpc17xx_systick.c **** void SYSTICK_ExternalInit(uint32_t freq, uint32_t time)
  95:LPC17xxLib/src/lpc17xx_systick.c **** {
 157              		.loc 1 95 0
 158              		.cfi_startproc
 159              		@ args = 0, pretend = 0, frame = 16
 160              		@ frame_needed = 1, uses_anonymous_args = 0
 161 0000 80B5     		push	{r7, lr}	@	@ 75	*push_multi	[length = 2]
 162              		.cfi_def_cfa_offset 8
 163              		.cfi_offset 7, -8
 164              		.cfi_offset 14, -4
 165 0002 84B0     		sub	sp, sp, #16	@,,	@ 76	*arm_addsi3/8	[length = 4]
 166              		.cfi_def_cfa_offset 24
 167 0004 00AF     		add	r7, sp, #0	@,,	@ 78	*arm_addsi3/2	[length = 4]
 168              		.cfi_def_cfa_register 7
 169 0006 7860     		str	r0, [r7, #4]	@ freq, freq	@ 2	*thumb2_movsi_insn/7	[length = 4]
 170 0008 3960     		str	r1, [r7]	@ time, time	@ 3	*thumb2_movsi_insn/7	[length = 4]
  96:LPC17xxLib/src/lpc17xx_systick.c **** 	float maxtime;
  97:LPC17xxLib/src/lpc17xx_systick.c **** 
  98:LPC17xxLib/src/lpc17xx_systick.c **** 	/* With external clock frequency for LPC17xx is 'freq'
  99:LPC17xxLib/src/lpc17xx_systick.c **** 	 * And limit 24 bit for RELOAD value
 100:LPC17xxLib/src/lpc17xx_systick.c **** 	 * So the maximum time can be set:
 101:LPC17xxLib/src/lpc17xx_systick.c **** 	 * 1/freq * (2^24) * 1000 (ms)
 102:LPC17xxLib/src/lpc17xx_systick.c **** 	 */
 103:LPC17xxLib/src/lpc17xx_systick.c **** 	//check time value is available or not
 104:LPC17xxLib/src/lpc17xx_systick.c **** 	maxtime = (1<<24)/(freq / 1000) ;
 171              		.loc 1 104 0
 172 000a 7A68     		ldr	r2, [r7, #4]	@ tmp124, freq	@ 7	*thumb2_movsi_insn/5	[length = 4]
 173 000c 1D4B     		ldr	r3, .L13	@ tmp126,	@ 8	*thumb2_movsi_insn/5	[length = 4]
 174 000e A3FB0203 		umull	r0, r3, r3, r2	@, tmp125, tmp126, tmp124	@ 9	*umulsi3_highpart_v6	[length = 4]
 175 0012 9B09     		lsrs	r3, r3, #6	@ D.5386, tmp125,	@ 10	*thumb2_shiftsi3_short/2	[length = 2]
 176 0014 4FF08072 		mov	r2, #16777216	@ tmp127,	@ 11	*thumb2_movsi_insn/2	[length = 4]
 177 0018 B2FBF3F3 		udiv	r3, r2, r3	@ D.5386, tmp127, D.5386	@ 12	udivsi3	[length = 4]
 178 001c 1846     		mov	r0, r3	@, D.5386	@ 13	*thumb2_movsi_insn/1	[length = 4]
 179 001e FFF7FEFF 		bl	__aeabi_ui2f	@	@ 14	*call_value_symbol	[length = 4]
 180 0022 0346     		mov	r3, r0	@ tmp128,	@ 15	*arm_movsf_soft_insn/1	[length = 4]
 181 0024 FB60     		str	r3, [r7, #12]	@ float	@ tmp128, maxtime	@ 16	*arm_movsf_soft_insn/3	[length = 4]
 105:LPC17xxLib/src/lpc17xx_systick.c **** 	if (time>maxtime)
 182              		.loc 1 105 0
 183 0026 3868     		ldr	r0, [r7]	@, time	@ 17	*thumb2_movsi_insn/5	[length = 4]
 184 0028 FFF7FEFF 		bl	__aeabi_ui2f	@	@ 18	*call_value_symbol	[length = 4]
 185 002c 0346     		mov	r3, r0	@ D.5387,	@ 19	*arm_movsf_soft_insn/1	[length = 4]
 186 002e 1846     		mov	r0, r3	@, D.5387	@ 20	*arm_movsf_soft_insn/1	[length = 4]
 187 0030 F968     		ldr	r1, [r7, #12]	@ float	@, maxtime	@ 21	*arm_movsf_soft_insn/2	[length = 4]
 188 0032 FFF7FEFF 		bl	__aeabi_fcmpgt	@	@ 22	*call_value_symbol	[length = 4]
 189 0036 0346     		mov	r3, r0	@ tmp129,	@ 23	*thumb2_movsi_insn/1	[length = 4]
 190 0038 002B     		cmp	r3, #0	@ tmp129,	@ 24	*arm_cmpsi_insn/1	[length = 2]
 191 003a 00D0     		beq	.L12	@,	@ 25	arm_cond_branch	[length = 2]
 192              	.L11:
 106:LPC17xxLib/src/lpc17xx_systick.c **** 		//Error Loop
 107:LPC17xxLib/src/lpc17xx_systick.c **** 		while(1);
 193              		.loc 1 107 0 discriminator 1
 194 003c FEE7     		b	.L11	@	@ 65	*arm_jump	[length = 2]
 195              	.L12:
 108:LPC17xxLib/src/lpc17xx_systick.c **** 	else
 109:LPC17xxLib/src/lpc17xx_systick.c **** 	{
 110:LPC17xxLib/src/lpc17xx_systick.c **** 		//Select external clock is System Tick clock source
 111:LPC17xxLib/src/lpc17xx_systick.c **** 		SysTick->CTRL &= ~ ST_CTRL_CLKSOURCE;
 196              		.loc 1 111 0
 197 003e 124B     		ldr	r3, .L13+4	@ D.5388,	@ 35	*thumb2_movsi_insn/5	[length = 4]
 198 0040 114A     		ldr	r2, .L13+4	@ D.5388,	@ 36	*thumb2_movsi_insn/5	[length = 4]
 199 0042 1268     		ldr	r2, [r2]	@ D.5386, _8->CTRL	@ 37	*thumb2_movsi_insn/5	[length = 4]
 200 0044 22F00402 		bic	r2, r2, #4	@ D.5386, D.5386,	@ 38	*arm_andsi3_insn/2	[length = 4]
 201 0048 1A60     		str	r2, [r3]	@ D.5386, _7->CTRL	@ 39	*thumb2_movsi_insn/7	[length = 4]
 112:LPC17xxLib/src/lpc17xx_systick.c **** 		/* Set RELOAD value
 113:LPC17xxLib/src/lpc17xx_systick.c **** 		 * RELOAD = (freq/1000) * time - 1
 114:LPC17xxLib/src/lpc17xx_systick.c **** 		 * with time base is millisecond
 115:LPC17xxLib/src/lpc17xx_systick.c **** 		 */
 116:LPC17xxLib/src/lpc17xx_systick.c **** 		maxtime = (freq/1000)*time - 1;
 202              		.loc 1 116 0
 203 004a 7A68     		ldr	r2, [r7, #4]	@ tmp130, freq	@ 40	*thumb2_movsi_insn/5	[length = 4]
 204 004c 0D4B     		ldr	r3, .L13	@ tmp132,	@ 41	*thumb2_movsi_insn/5	[length = 4]
 205 004e A3FB0213 		umull	r1, r3, r3, r2	@, tmp131, tmp132, tmp130	@ 42	*umulsi3_highpart_v6	[length = 4]
 206 0052 9B09     		lsrs	r3, r3, #6	@ D.5386, tmp131,	@ 43	*thumb2_shiftsi3_short/2	[length = 2]
 207 0054 3A68     		ldr	r2, [r7]	@ tmp133, time	@ 44	*thumb2_movsi_insn/5	[length = 4]
 208 0056 02FB03F3 		mul	r3, r2, r3	@ D.5386, tmp133, D.5386	@ 45	*arm_mulsi3_v6	[length = 4]
 209 005a 013B     		subs	r3, r3, #1	@ D.5386, D.5386,	@ 46	*thumb2_addsi_short/1	[length = 2]
 210 005c 1846     		mov	r0, r3	@, D.5386	@ 47	*thumb2_movsi_insn/1	[length = 4]
 211 005e FFF7FEFF 		bl	__aeabi_ui2f	@	@ 48	*call_value_symbol	[length = 4]
 212 0062 0346     		mov	r3, r0	@ tmp134,	@ 49	*arm_movsf_soft_insn/1	[length = 4]
 213 0064 FB60     		str	r3, [r7, #12]	@ float	@ tmp134, maxtime	@ 50	*arm_movsf_soft_insn/3	[length = 4]
 117:LPC17xxLib/src/lpc17xx_systick.c **** 		SysTick->LOAD = (freq/1000)*time - 1;
 214              		.loc 1 117 0
 215 0066 084B     		ldr	r3, .L13+4	@ D.5388,	@ 51	*thumb2_movsi_insn/5	[length = 4]
 216 0068 7968     		ldr	r1, [r7, #4]	@ tmp135, freq	@ 52	*thumb2_movsi_insn/5	[length = 4]
 217 006a 064A     		ldr	r2, .L13	@ tmp137,	@ 53	*thumb2_movsi_insn/5	[length = 4]
 218 006c A2FB0102 		umull	r0, r2, r2, r1	@, tmp136, tmp137, tmp135	@ 54	*umulsi3_highpart_v6	[length = 4]
 219 0070 9209     		lsrs	r2, r2, #6	@ D.5386, tmp136,	@ 55	*thumb2_shiftsi3_short/2	[length = 2]
 220 0072 3968     		ldr	r1, [r7]	@ tmp138, time	@ 56	*thumb2_movsi_insn/5	[length = 4]
 221 0074 01FB02F2 		mul	r2, r1, r2	@ D.5386, tmp138, D.5386	@ 57	*arm_mulsi3_v6	[length = 4]
 222 0078 013A     		subs	r2, r2, #1	@ D.5386, D.5386,	@ 58	*thumb2_addsi_short/1	[length = 2]
 223 007a 5A60     		str	r2, [r3, #4]	@ D.5386, _15->LOAD	@ 59	*thumb2_movsi_insn/7	[length = 4]
 118:LPC17xxLib/src/lpc17xx_systick.c **** 	}
 119:LPC17xxLib/src/lpc17xx_systick.c **** }
 224              		.loc 1 119 0
 225 007c 1037     		adds	r7, r7, #16	@,,	@ 81	*thumb2_addsi_short/2	[length = 2]
 226 007e BD46     		mov	sp, r7	@,	@ 83	*thumb2_movsi_insn/1	[length = 4]
 227              		@ sp needed	@	@ 84	force_register_use	[length = 0]
 228 0080 80BD     		pop	{r7, pc}	@	@ 85	*pop_multiple_with_writeback_and_return	[length = 4]
 229              	.L14:
 230 0082 00BF     		.align	2
 231              	.L13:
 232 0084 D34D6210 		.word	274877907
 233 0088 10E000E0 		.word	-536813552
 234              		.cfi_endproc
 235              	.LFE56:
 237              		.section	.text.SYSTICK_Cmd,"ax",%progbits
 238              		.align	2
 239              		.global	SYSTICK_Cmd
 240              		.thumb
 241              		.thumb_func
 243              	SYSTICK_Cmd:
 244              	.LFB57:
 120:LPC17xxLib/src/lpc17xx_systick.c **** 
 121:LPC17xxLib/src/lpc17xx_systick.c **** /*********************************************************************//**
 122:LPC17xxLib/src/lpc17xx_systick.c ****  * @brief 		Enable/disable System Tick counter
 123:LPC17xxLib/src/lpc17xx_systick.c ****  * @param[in]	NewState	System Tick counter status, should be:
 124:LPC17xxLib/src/lpc17xx_systick.c ****  * 					- ENABLE
 125:LPC17xxLib/src/lpc17xx_systick.c ****  * 					- DISABLE
 126:LPC17xxLib/src/lpc17xx_systick.c ****  * @return 		None
 127:LPC17xxLib/src/lpc17xx_systick.c ****  **********************************************************************/
 128:LPC17xxLib/src/lpc17xx_systick.c **** void SYSTICK_Cmd(FunctionalState NewState)
 129:LPC17xxLib/src/lpc17xx_systick.c **** {
 245              		.loc 1 129 0
 246              		.cfi_startproc
 247              		@ args = 0, pretend = 0, frame = 8
 248              		@ frame_needed = 1, uses_anonymous_args = 0
 249              		@ link register save eliminated.
 250 0000 80B4     		push	{r7}	@	@ 38	*push_multi	[length = 2]
 251              		.cfi_def_cfa_offset 4
 252              		.cfi_offset 7, -4
 253 0002 83B0     		sub	sp, sp, #12	@,,	@ 39	*arm_addsi3/8	[length = 4]
 254              		.cfi_def_cfa_offset 16
 255 0004 00AF     		add	r7, sp, #0	@,,	@ 41	*arm_addsi3/2	[length = 4]
 256              		.cfi_def_cfa_register 7
 257 0006 0346     		mov	r3, r0	@ tmp118, NewState	@ 2	*thumb2_movsi_insn/1	[length = 4]
 258 0008 FB71     		strb	r3, [r7, #7]	@ tmp119, NewState	@ 4	*arm_movqi_insn/5	[length = 2]
 130:LPC17xxLib/src/lpc17xx_systick.c **** 	CHECK_PARAM(PARAM_FUNCTIONALSTATE(NewState));
 131:LPC17xxLib/src/lpc17xx_systick.c **** 
 132:LPC17xxLib/src/lpc17xx_systick.c **** 	if(NewState == ENABLE)
 259              		.loc 1 132 0
 260 000a FB79     		ldrb	r3, [r7, #7]	@ zero_extendqisi2	@ tmp120, NewState	@ 8	thumb2_zero_extendqisi2_v6/2	[length =
 261 000c 012B     		cmp	r3, #1	@ tmp120,	@ 9	*arm_cmpsi_insn/1	[length = 2]
 262 000e 06D1     		bne	.L16	@,	@ 10	arm_cond_branch	[length = 2]
 133:LPC17xxLib/src/lpc17xx_systick.c **** 		//Enable System Tick counter
 134:LPC17xxLib/src/lpc17xx_systick.c **** 		SysTick->CTRL |= ST_CTRL_ENABLE;
 263              		.loc 1 134 0
 264 0010 084B     		ldr	r3, .L18	@ D.5389,	@ 12	*thumb2_movsi_insn/5	[length = 4]
 265 0012 084A     		ldr	r2, .L18	@ D.5389,	@ 13	*thumb2_movsi_insn/5	[length = 4]
 266 0014 1268     		ldr	r2, [r2]	@ D.5390, _3->CTRL	@ 14	*thumb2_movsi_insn/5	[length = 4]
 267 0016 42F00102 		orr	r2, r2, #1	@ D.5390, D.5390,	@ 15	*iorsi3_insn/1	[length = 4]
 268 001a 1A60     		str	r2, [r3]	@ D.5390, _2->CTRL	@ 16	*thumb2_movsi_insn/7	[length = 4]
 269 001c 05E0     		b	.L15	@	@ 30	*arm_jump	[length = 2]
 270              	.L16:
 135:LPC17xxLib/src/lpc17xx_systick.c **** 	else
 136:LPC17xxLib/src/lpc17xx_systick.c **** 		//Disable System Tick counter
 137:LPC17xxLib/src/lpc17xx_systick.c **** 		SysTick->CTRL &= ~ST_CTRL_ENABLE;
 271              		.loc 1 137 0
 272 001e 054B     		ldr	r3, .L18	@ D.5389,	@ 21	*thumb2_movsi_insn/5	[length = 4]
 273 0020 044A     		ldr	r2, .L18	@ D.5389,	@ 22	*thumb2_movsi_insn/5	[length = 4]
 274 0022 1268     		ldr	r2, [r2]	@ D.5390, _7->CTRL	@ 23	*thumb2_movsi_insn/5	[length = 4]
 275 0024 22F00102 		bic	r2, r2, #1	@ D.5390, D.5390,	@ 24	*arm_andsi3_insn/2	[length = 4]
 276 0028 1A60     		str	r2, [r3]	@ D.5390, _6->CTRL	@ 25	*thumb2_movsi_insn/7	[length = 4]
 277              	.L15:
 138:LPC17xxLib/src/lpc17xx_systick.c **** }
 278              		.loc 1 138 0
 279 002a 0C37     		adds	r7, r7, #12	@,,	@ 44	*thumb2_addsi_short/2	[length = 2]
 280 002c BD46     		mov	sp, r7	@,	@ 46	*thumb2_movsi_insn/1	[length = 4]
 281              		@ sp needed	@	@ 47	force_register_use	[length = 0]
 282 002e 5DF8047B 		ldr	r7, [sp], #4	@,	@ 48	*thumb2_movsi_insn/5	[length = 4]
 283 0032 7047     		bx	lr	@	@ 49	*thumb2_return	[length = 4]
 284              	.L19:
 285              		.align	2
 286              	.L18:
 287 0034 10E000E0 		.word	-536813552
 288              		.cfi_endproc
 289              	.LFE57:
 291              		.section	.text.SYSTICK_IntCmd,"ax",%progbits
 292              		.align	2
 293              		.global	SYSTICK_IntCmd
 294              		.thumb
 295              		.thumb_func
 297              	SYSTICK_IntCmd:
 298              	.LFB58:
 139:LPC17xxLib/src/lpc17xx_systick.c **** 
 140:LPC17xxLib/src/lpc17xx_systick.c **** /*********************************************************************//**
 141:LPC17xxLib/src/lpc17xx_systick.c ****  * @brief 		Enable/disable System Tick interrupt
 142:LPC17xxLib/src/lpc17xx_systick.c ****  * @param[in]	NewState	System Tick interrupt status, should be:
 143:LPC17xxLib/src/lpc17xx_systick.c ****  * 					- ENABLE
 144:LPC17xxLib/src/lpc17xx_systick.c ****  * 					- DISABLE
 145:LPC17xxLib/src/lpc17xx_systick.c ****  * @return 		None
 146:LPC17xxLib/src/lpc17xx_systick.c ****  **********************************************************************/
 147:LPC17xxLib/src/lpc17xx_systick.c **** void SYSTICK_IntCmd(FunctionalState NewState)
 148:LPC17xxLib/src/lpc17xx_systick.c **** {
 299              		.loc 1 148 0
 300              		.cfi_startproc
 301              		@ args = 0, pretend = 0, frame = 8
 302              		@ frame_needed = 1, uses_anonymous_args = 0
 303              		@ link register save eliminated.
 304 0000 80B4     		push	{r7}	@	@ 38	*push_multi	[length = 2]
 305              		.cfi_def_cfa_offset 4
 306              		.cfi_offset 7, -4
 307 0002 83B0     		sub	sp, sp, #12	@,,	@ 39	*arm_addsi3/8	[length = 4]
 308              		.cfi_def_cfa_offset 16
 309 0004 00AF     		add	r7, sp, #0	@,,	@ 41	*arm_addsi3/2	[length = 4]
 310              		.cfi_def_cfa_register 7
 311 0006 0346     		mov	r3, r0	@ tmp118, NewState	@ 2	*thumb2_movsi_insn/1	[length = 4]
 312 0008 FB71     		strb	r3, [r7, #7]	@ tmp119, NewState	@ 4	*arm_movqi_insn/5	[length = 2]
 149:LPC17xxLib/src/lpc17xx_systick.c **** 	CHECK_PARAM(PARAM_FUNCTIONALSTATE(NewState));
 150:LPC17xxLib/src/lpc17xx_systick.c **** 
 151:LPC17xxLib/src/lpc17xx_systick.c **** 	if(NewState == ENABLE)
 313              		.loc 1 151 0
 314 000a FB79     		ldrb	r3, [r7, #7]	@ zero_extendqisi2	@ tmp120, NewState	@ 8	thumb2_zero_extendqisi2_v6/2	[length =
 315 000c 012B     		cmp	r3, #1	@ tmp120,	@ 9	*arm_cmpsi_insn/1	[length = 2]
 316 000e 06D1     		bne	.L21	@,	@ 10	arm_cond_branch	[length = 2]
 152:LPC17xxLib/src/lpc17xx_systick.c **** 		//Enable System Tick counter
 153:LPC17xxLib/src/lpc17xx_systick.c **** 		SysTick->CTRL |= ST_CTRL_TICKINT;
 317              		.loc 1 153 0
 318 0010 084B     		ldr	r3, .L23	@ D.5391,	@ 12	*thumb2_movsi_insn/5	[length = 4]
 319 0012 084A     		ldr	r2, .L23	@ D.5391,	@ 13	*thumb2_movsi_insn/5	[length = 4]
 320 0014 1268     		ldr	r2, [r2]	@ D.5392, _3->CTRL	@ 14	*thumb2_movsi_insn/5	[length = 4]
 321 0016 42F00202 		orr	r2, r2, #2	@ D.5392, D.5392,	@ 15	*iorsi3_insn/1	[length = 4]
 322 001a 1A60     		str	r2, [r3]	@ D.5392, _2->CTRL	@ 16	*thumb2_movsi_insn/7	[length = 4]
 323 001c 05E0     		b	.L20	@	@ 30	*arm_jump	[length = 2]
 324              	.L21:
 154:LPC17xxLib/src/lpc17xx_systick.c **** 	else
 155:LPC17xxLib/src/lpc17xx_systick.c **** 		//Disable System Tick counter
 156:LPC17xxLib/src/lpc17xx_systick.c **** 		SysTick->CTRL &= ~ST_CTRL_TICKINT;
 325              		.loc 1 156 0
 326 001e 054B     		ldr	r3, .L23	@ D.5391,	@ 21	*thumb2_movsi_insn/5	[length = 4]
 327 0020 044A     		ldr	r2, .L23	@ D.5391,	@ 22	*thumb2_movsi_insn/5	[length = 4]
 328 0022 1268     		ldr	r2, [r2]	@ D.5392, _7->CTRL	@ 23	*thumb2_movsi_insn/5	[length = 4]
 329 0024 22F00202 		bic	r2, r2, #2	@ D.5392, D.5392,	@ 24	*arm_andsi3_insn/2	[length = 4]
 330 0028 1A60     		str	r2, [r3]	@ D.5392, _6->CTRL	@ 25	*thumb2_movsi_insn/7	[length = 4]
 331              	.L20:
 157:LPC17xxLib/src/lpc17xx_systick.c **** }
 332              		.loc 1 157 0
 333 002a 0C37     		adds	r7, r7, #12	@,,	@ 44	*thumb2_addsi_short/2	[length = 2]
 334 002c BD46     		mov	sp, r7	@,	@ 46	*thumb2_movsi_insn/1	[length = 4]
 335              		@ sp needed	@	@ 47	force_register_use	[length = 0]
 336 002e 5DF8047B 		ldr	r7, [sp], #4	@,	@ 48	*thumb2_movsi_insn/5	[length = 4]
 337 0032 7047     		bx	lr	@	@ 49	*thumb2_return	[length = 4]
 338              	.L24:
 339              		.align	2
 340              	.L23:
 341 0034 10E000E0 		.word	-536813552
 342              		.cfi_endproc
 343              	.LFE58:
 345              		.section	.text.SYSTICK_GetCurrentValue,"ax",%progbits
 346              		.align	2
 347              		.global	SYSTICK_GetCurrentValue
 348              		.thumb
 349              		.thumb_func
 351              	SYSTICK_GetCurrentValue:
 352              	.LFB59:
 158:LPC17xxLib/src/lpc17xx_systick.c **** 
 159:LPC17xxLib/src/lpc17xx_systick.c **** /*********************************************************************//**
 160:LPC17xxLib/src/lpc17xx_systick.c ****  * @brief 		Get current value of System Tick counter
 161:LPC17xxLib/src/lpc17xx_systick.c ****  * @param[in]	None
 162:LPC17xxLib/src/lpc17xx_systick.c ****  * @return 		current value of System Tick counter
 163:LPC17xxLib/src/lpc17xx_systick.c ****  **********************************************************************/
 164:LPC17xxLib/src/lpc17xx_systick.c **** uint32_t SYSTICK_GetCurrentValue(void)
 165:LPC17xxLib/src/lpc17xx_systick.c **** {
 353              		.loc 1 165 0
 354              		.cfi_startproc
 355              		@ args = 0, pretend = 0, frame = 0
 356              		@ frame_needed = 1, uses_anonymous_args = 0
 357              		@ link register save eliminated.
 358 0000 80B4     		push	{r7}	@	@ 21	*push_multi	[length = 2]
 359              		.cfi_def_cfa_offset 4
 360              		.cfi_offset 7, -4
 361 0002 00AF     		add	r7, sp, #0	@,,	@ 22	*arm_addsi3/2	[length = 4]
 362              		.cfi_def_cfa_register 7
 166:LPC17xxLib/src/lpc17xx_systick.c **** 	return (SysTick->VAL);
 363              		.loc 1 166 0
 364 0004 034B     		ldr	r3, .L27	@ D.5393,	@ 5	*thumb2_movsi_insn/5	[length = 4]
 365 0006 9B68     		ldr	r3, [r3, #8]	@ D.5394, _1->VAL	@ 6	*thumb2_movsi_insn/5	[length = 4]
 167:LPC17xxLib/src/lpc17xx_systick.c **** }
 366              		.loc 1 167 0
 367 0008 1846     		mov	r0, r3	@, <retval>	@ 13	*thumb2_movsi_insn/1	[length = 4]
 368 000a BD46     		mov	sp, r7	@,	@ 26	*thumb2_movsi_insn/1	[length = 4]
 369              		@ sp needed	@	@ 27	force_register_use	[length = 0]
 370 000c 5DF8047B 		ldr	r7, [sp], #4	@,	@ 28	*thumb2_movsi_insn/5	[length = 4]
 371 0010 7047     		bx	lr	@	@ 29	*thumb2_return	[length = 4]
 372              	.L28:
 373 0012 00BF     		.align	2
 374              	.L27:
 375 0014 10E000E0 		.word	-536813552
 376              		.cfi_endproc
 377              	.LFE59:
 379              		.section	.text.SYSTICK_ClearCounterFlag,"ax",%progbits
 380              		.align	2
 381              		.global	SYSTICK_ClearCounterFlag
 382              		.thumb
 383              		.thumb_func
 385              	SYSTICK_ClearCounterFlag:
 386              	.LFB60:
 168:LPC17xxLib/src/lpc17xx_systick.c **** 
 169:LPC17xxLib/src/lpc17xx_systick.c **** /*********************************************************************//**
 170:LPC17xxLib/src/lpc17xx_systick.c ****  * @brief 		Clear Counter flag
 171:LPC17xxLib/src/lpc17xx_systick.c ****  * @param[in]	None
 172:LPC17xxLib/src/lpc17xx_systick.c ****  * @return 		None
 173:LPC17xxLib/src/lpc17xx_systick.c ****  **********************************************************************/
 174:LPC17xxLib/src/lpc17xx_systick.c **** void SYSTICK_ClearCounterFlag(void)
 175:LPC17xxLib/src/lpc17xx_systick.c **** {
 387              		.loc 1 175 0
 388              		.cfi_startproc
 389              		@ args = 0, pretend = 0, frame = 0
 390              		@ frame_needed = 1, uses_anonymous_args = 0
 391              		@ link register save eliminated.
 392 0000 80B4     		push	{r7}	@	@ 15	*push_multi	[length = 2]
 393              		.cfi_def_cfa_offset 4
 394              		.cfi_offset 7, -4
 395 0002 00AF     		add	r7, sp, #0	@,,	@ 16	*arm_addsi3/2	[length = 4]
 396              		.cfi_def_cfa_register 7
 176:LPC17xxLib/src/lpc17xx_systick.c **** 	SysTick->CTRL &= ~ST_CTRL_COUNTFLAG;
 397              		.loc 1 176 0
 398 0004 044B     		ldr	r3, .L30	@ D.5395,	@ 5	*thumb2_movsi_insn/5	[length = 4]
 399 0006 044A     		ldr	r2, .L30	@ D.5395,	@ 6	*thumb2_movsi_insn/5	[length = 4]
 400 0008 1268     		ldr	r2, [r2]	@ D.5396, _2->CTRL	@ 7	*thumb2_movsi_insn/5	[length = 4]
 401 000a 22F48032 		bic	r2, r2, #65536	@ D.5396, D.5396,	@ 8	*arm_andsi3_insn/2	[length = 4]
 402 000e 1A60     		str	r2, [r3]	@ D.5396, _1->CTRL	@ 9	*thumb2_movsi_insn/7	[length = 4]
 177:LPC17xxLib/src/lpc17xx_systick.c **** }
 403              		.loc 1 177 0
 404 0010 BD46     		mov	sp, r7	@,	@ 20	*thumb2_movsi_insn/1	[length = 4]
 405              		@ sp needed	@	@ 21	force_register_use	[length = 0]
 406 0012 5DF8047B 		ldr	r7, [sp], #4	@,	@ 22	*thumb2_movsi_insn/5	[length = 4]
 407 0016 7047     		bx	lr	@	@ 23	*thumb2_return	[length = 4]
 408              	.L31:
 409              		.align	2
 410              	.L30:
 411 0018 10E000E0 		.word	-536813552
 412              		.cfi_endproc
 413              	.LFE60:
 415              		.text
 416              	.Letext0:
 417              		.file 2 "h:\\arm-non-eabi\\arm-none-eabi\\include\\machine\\_default_types.h"
 418              		.file 3 "h:\\arm-non-eabi\\arm-none-eabi\\include\\stdint.h"
 419              		.file 4 "CMSISv2p00_LPC17xx/inc/core_cm3.h"
 420              		.file 5 "LPC17xxLib/inc/lpc_types.h"
 421              		.file 6 "CMSISv2p00_LPC17xx/lpcinc/system_LPC17xx.h"
DEFINED SYMBOLS
                            *ABS*:00000000 lpc17xx_systick.c
C:\Users\Akil\AppData\Local\Temp\ccB4aYix.s:68     .text.SYSTICK_InternalInit:00000000 $t
C:\Users\Akil\AppData\Local\Temp\ccB4aYix.s:73     .text.SYSTICK_InternalInit:00000000 SYSTICK_InternalInit
C:\Users\Akil\AppData\Local\Temp\ccB4aYix.s:143    .text.SYSTICK_InternalInit:0000006c $d
C:\Users\Akil\AppData\Local\Temp\ccB4aYix.s:150    .text.SYSTICK_ExternalInit:00000000 $t
C:\Users\Akil\AppData\Local\Temp\ccB4aYix.s:155    .text.SYSTICK_ExternalInit:00000000 SYSTICK_ExternalInit
C:\Users\Akil\AppData\Local\Temp\ccB4aYix.s:232    .text.SYSTICK_ExternalInit:00000084 $d
C:\Users\Akil\AppData\Local\Temp\ccB4aYix.s:238    .text.SYSTICK_Cmd:00000000 $t
C:\Users\Akil\AppData\Local\Temp\ccB4aYix.s:243    .text.SYSTICK_Cmd:00000000 SYSTICK_Cmd
C:\Users\Akil\AppData\Local\Temp\ccB4aYix.s:287    .text.SYSTICK_Cmd:00000034 $d
C:\Users\Akil\AppData\Local\Temp\ccB4aYix.s:292    .text.SYSTICK_IntCmd:00000000 $t
C:\Users\Akil\AppData\Local\Temp\ccB4aYix.s:297    .text.SYSTICK_IntCmd:00000000 SYSTICK_IntCmd
C:\Users\Akil\AppData\Local\Temp\ccB4aYix.s:341    .text.SYSTICK_IntCmd:00000034 $d
C:\Users\Akil\AppData\Local\Temp\ccB4aYix.s:346    .text.SYSTICK_GetCurrentValue:00000000 $t
C:\Users\Akil\AppData\Local\Temp\ccB4aYix.s:351    .text.SYSTICK_GetCurrentValue:00000000 SYSTICK_GetCurrentValue
C:\Users\Akil\AppData\Local\Temp\ccB4aYix.s:375    .text.SYSTICK_GetCurrentValue:00000014 $d
C:\Users\Akil\AppData\Local\Temp\ccB4aYix.s:380    .text.SYSTICK_ClearCounterFlag:00000000 $t
C:\Users\Akil\AppData\Local\Temp\ccB4aYix.s:385    .text.SYSTICK_ClearCounterFlag:00000000 SYSTICK_ClearCounterFlag
C:\Users\Akil\AppData\Local\Temp\ccB4aYix.s:411    .text.SYSTICK_ClearCounterFlag:00000018 $d
                     .debug_frame:00000010 $d
                           .group:00000000 wm4.0.22a09cf5348e6b56ff33a965c4e1c30b
                           .group:00000000 wm4.LPC17xx.h.27.964facdaadd4aa3f18ac78c8a78f0013
                           .group:00000000 wm4.core_cm3.h.32.3cac756d6e704b813781f82afd94fa5f
                           .group:00000000 wm4.features.h.22.6a4ca7cd053637cc1d0db6c16f39b2d7
                           .group:00000000 wm4._default_types.h.15.8b2cb27e528498f8ff711db085d6e489
                           .group:00000000 wm4.stdint.h.20.796e373797e732130a803d4c0338fa1b
                           .group:00000000 wm4.core_cmInstr.h.25.6beb15babd14c076008ec0890c26e21c
                           .group:00000000 wm4.core_cm3.h.83.1a3cb9afc687cf157efeddb3d5f3109e
                           .group:00000000 wm4.LPC17xx.h.953.82b7a9ed60bb594048bc8738cf1d3489
                           .group:00000000 wm4.lpc_types.h.36.0fc48fca3475dd297e92c2a28984ed13
                           .group:00000000 wm4.lpc17xx_systick.h.54.efef9c39c2381591547c755a3381b45b
                           .group:00000000 wm4.lpc17xx_clkpwr.h.34.e5ed2e3680819b04bfe67282695e2098
                           .group:00000000 wm4.lpc17xx_libcfg_default.h.33.69d93704acc27b13794aa108daea19e2

UNDEFINED SYMBOLS
__aeabi_ui2f
__aeabi_fcmpgt
SystemCoreClock
