   1              		.syntax unified
   2              		.cpu cortex-m3
   3              		.fpu softvfp
   4              		.eabi_attribute 20, 1	@ Tag_ABI_FP_denormal
   5              		.eabi_attribute 21, 1	@ Tag_ABI_FP_exceptions
   6              		.eabi_attribute 23, 3	@ Tag_ABI_FP_number_model
   7              		.eabi_attribute 24, 1	@ Tag_ABI_align8_needed
   8              		.eabi_attribute 25, 1	@ Tag_ABI_align8_preserved
   9              		.eabi_attribute 26, 1	@ Tag_ABI_enum_size
  10              		.eabi_attribute 30, 6	@ Tag_ABI_optimization_goals
  11              		.eabi_attribute 34, 1	@ Tag_CPU_unaligned_access
  12              		.eabi_attribute 18, 4	@ Tag_ABI_PCS_wchar_t
  13              		.file	"lpc17xx_spi.c"
  14              	@ GNU C (GNU Tools for ARM Embedded Processors) version 4.8.4 20140526 (release) [ARM/embedded-4_8-
  15              	@	compiled by GNU C version 4.6.4, GMP version 4.3.2, MPFR version 2.4.2, MPC version 0.8.1
  16              	@ GGC heuristics: --param ggc-min-expand=100 --param ggc-min-heapsize=131072
  17              	@ options passed:  -I C:/MinGW/msys/1.0/cpu/cortex-m3 -I .
  18              	@ -I h:/Work/CANopen/PhiCanOpen_Working/common/include -I LPC17xxLib/inc
  19              	@ -I CMSISv2p00_LPC17xx/lpcinc -I CMSISv2p00_LPC17xx/inc -imultilib armv7-m
  20              	@ -iprefix h:\arm-non-eabi\bin\../lib/gcc/arm-none-eabi/4.8.4/
  21              	@ -isysroot h:\arm-non-eabi\bin\../arm-none-eabi
  22              	@ -MMD h:/Work/CANopen/PhiCanOpen_Working/build_root/HYDRA/debug_noOS/CDL/LPC17xxLib/src/lpc17xx_sp
  23              	@ -MP
  24              	@ -MQ h:/Work/CANopen/PhiCanOpen_Working/build_root/HYDRA/debug_noOS/CDL/LPC17xxLib/src/lpc17xx_spi
  25              	@ -D__USES_INITFINI__ -D __NEWLIB__ -D DEBUG_STACK_STAMP=0x5A
  26              	@ -D PHI_CFG_DEBUG_ASSERT_PRINT=1 -D __ARM_LPC1768__
  27              	@ -D PHI_CFG_EXTRAM_SIZE=0 -D PHI_CFG_OS_STACK_SIZE=0x600
  28              	@ -D PHI_CFG_STACK_SIZE=0xB00 -D PHI_CFG_KERN_MONITOR=1
  29              	@ -D PHI_CFG_KERN_PRI_INHERIT=0 -D PHI_CFG_KERN_SIGNALS=0
  30              	@ -D PHI_CFG_DEBUG_TRACE_ENABLE=1 -D PHI_DEBUG_ENABLE=1 -D __LPC17XX__
  31              	@ -D USE_OLD_STYLE_DATA_BSS_INIT=1 -D __RAM_MODE__=0
  32              	@ LPC17xxLib/src/lpc17xx_spi.c -mthumb -mno-thumb-interwork -mcpu=cortex-m3
  33              	@ -auxbase-strip h:/Work/CANopen/PhiCanOpen_Working/build_root/HYDRA/debug_noOS/CDL/LPC17xxLib/src/
  34              	@ -ggdb -g3 -O0 -Wformat=1 -Wall -Wundef -Wpointer-arith -Wcast-qual
  35              	@ -Wcast-align -Wwrite-strings -Wsign-compare -Wsuggest-attribute=noreturn
  36              	@ -Wextra -Wstrict-aliasing=2 -Wmissing-prototypes -Wstrict-prototypes
  37              	@ -std=gnu99 -fno-strict-aliasing -fwrapv -fverbose-asm -ffunction-sections
  38              	@ -fdata-sections
  39              	@ options enabled:  -faggressive-loop-optimizations -fauto-inc-dec
  40              	@ -fbranch-count-reg -fcommon -fdata-sections -fdelete-null-pointer-checks
  41              	@ -fdwarf2-cfi-asm -fearly-inlining -feliminate-unused-debug-types
  42              	@ -ffunction-cse -ffunction-sections -fgcse-lm -fgnu-runtime -fident
  43              	@ -finline-atomics -fira-hoist-pressure -fira-share-save-slots
  44              	@ -fira-share-spill-slots -fivopts -fkeep-static-consts
  45              	@ -fleading-underscore -fmath-errno -fmerge-debug-strings
  46              	@ -fmove-loop-invariants -fpeephole -fprefetch-loop-arrays
  47              	@ -freg-struct-return -fsched-critical-path-heuristic
  48              	@ -fsched-dep-count-heuristic -fsched-group-heuristic -fsched-interblock
  49              	@ -fsched-last-insn-heuristic -fsched-rank-heuristic -fsched-spec
  50              	@ -fsched-spec-insn-heuristic -fsched-stalled-insns-dep -fshow-column
  51              	@ -fsigned-zeros -fsplit-ivs-in-unroller -fstrict-volatile-bitfields
  52              	@ -fsync-libcalls -ftrapping-math -ftree-coalesce-vars -ftree-cselim
  53              	@ -ftree-forwprop -ftree-loop-if-convert -ftree-loop-im -ftree-loop-ivcanon
  54              	@ -ftree-loop-optimize -ftree-parallelize-loops= -ftree-phiprop -ftree-pta
  55              	@ -ftree-reassoc -ftree-scev-cprop -ftree-slp-vectorize
  56              	@ -ftree-vect-loop-version -funit-at-a-time -fverbose-asm -fwrapv
  57              	@ -fzero-initialized-in-bss -mfix-cortex-m3-ldrd -mlittle-endian
  58              	@ -mpic-data-is-text-relative -msched-prolog -mthumb -munaligned-access
  59              	@ -mvectorize-with-neon-quad
  60              	
  61              		.text
  62              	.Ltext0:
  63              		.cfi_sections	.debug_frame
  64              		.section	.text.SPI_SetClock,"ax",%progbits
  65              		.align	2
  66              		.global	SPI_SetClock
  67              		.thumb
  68              		.thumb_func
  70              	SPI_SetClock:
  71              	.LFB55:
  72              		.file 1 "LPC17xxLib/src/lpc17xx_spi.c"
   1:LPC17xxLib/src/lpc17xx_spi.c **** #ifdef __LPC17XX__
   2:LPC17xxLib/src/lpc17xx_spi.c **** 
   3:LPC17xxLib/src/lpc17xx_spi.c **** /**********************************************************************
   4:LPC17xxLib/src/lpc17xx_spi.c **** * $Id$		lpc17xx_spi.c				2010-05-21
   5:LPC17xxLib/src/lpc17xx_spi.c **** *//**
   6:LPC17xxLib/src/lpc17xx_spi.c **** * @file		lpc17xx_spi.c
   7:LPC17xxLib/src/lpc17xx_spi.c **** * @brief	Contains all functions support for SPI firmware library on LPC17xx
   8:LPC17xxLib/src/lpc17xx_spi.c **** * @version	2.0
   9:LPC17xxLib/src/lpc17xx_spi.c **** * @date		21. May. 2010
  10:LPC17xxLib/src/lpc17xx_spi.c **** * @author	NXP MCU SW Application Team
  11:LPC17xxLib/src/lpc17xx_spi.c **** *
  12:LPC17xxLib/src/lpc17xx_spi.c **** * Copyright(C) 2010, NXP Semiconductor
  13:LPC17xxLib/src/lpc17xx_spi.c **** * All rights reserved.
  14:LPC17xxLib/src/lpc17xx_spi.c **** *
  15:LPC17xxLib/src/lpc17xx_spi.c **** ***********************************************************************
  16:LPC17xxLib/src/lpc17xx_spi.c **** * Software that is described herein is for illustrative purposes only
  17:LPC17xxLib/src/lpc17xx_spi.c **** * which provides customers with programming information regarding the
  18:LPC17xxLib/src/lpc17xx_spi.c **** * products. This software is supplied "AS IS" without any warranties.
  19:LPC17xxLib/src/lpc17xx_spi.c **** * NXP Semiconductors assumes no responsibility or liability for the
  20:LPC17xxLib/src/lpc17xx_spi.c **** * use of the software, conveys no license or title under any patent,
  21:LPC17xxLib/src/lpc17xx_spi.c **** * copyright, or mask work right to the product. NXP Semiconductors
  22:LPC17xxLib/src/lpc17xx_spi.c **** * reserves the right to make changes in the software without
  23:LPC17xxLib/src/lpc17xx_spi.c **** * notification. NXP Semiconductors also make no representation or
  24:LPC17xxLib/src/lpc17xx_spi.c **** * warranty that such application will be suitable for the specified
  25:LPC17xxLib/src/lpc17xx_spi.c **** * use without further testing or modification.
  26:LPC17xxLib/src/lpc17xx_spi.c **** **********************************************************************/
  27:LPC17xxLib/src/lpc17xx_spi.c **** 
  28:LPC17xxLib/src/lpc17xx_spi.c **** /* Peripheral group ----------------------------------------------------------- */
  29:LPC17xxLib/src/lpc17xx_spi.c **** /** @addtogroup SPI
  30:LPC17xxLib/src/lpc17xx_spi.c ****  * @{
  31:LPC17xxLib/src/lpc17xx_spi.c ****  */
  32:LPC17xxLib/src/lpc17xx_spi.c **** 
  33:LPC17xxLib/src/lpc17xx_spi.c **** /* Includes ------------------------------------------------------------------- */
  34:LPC17xxLib/src/lpc17xx_spi.c **** #include "lpc17xx_spi.h"
  35:LPC17xxLib/src/lpc17xx_spi.c **** #include "lpc17xx_clkpwr.h"
  36:LPC17xxLib/src/lpc17xx_spi.c **** 
  37:LPC17xxLib/src/lpc17xx_spi.c **** /* If this source file built with example, the LPC17xx FW library configuration
  38:LPC17xxLib/src/lpc17xx_spi.c ****  * file in each example directory ("lpc17xx_libcfg.h") must be included,
  39:LPC17xxLib/src/lpc17xx_spi.c ****  * otherwise the default FW library configuration file must be included instead
  40:LPC17xxLib/src/lpc17xx_spi.c ****  */
  41:LPC17xxLib/src/lpc17xx_spi.c **** #ifdef __BUILD_WITH_EXAMPLE__
  42:LPC17xxLib/src/lpc17xx_spi.c **** #include "lpc17xx_libcfg.h"
  43:LPC17xxLib/src/lpc17xx_spi.c **** #else
  44:LPC17xxLib/src/lpc17xx_spi.c **** #include "lpc17xx_libcfg_default.h"
  45:LPC17xxLib/src/lpc17xx_spi.c **** #endif /* __BUILD_WITH_EXAMPLE__ */
  46:LPC17xxLib/src/lpc17xx_spi.c **** 
  47:LPC17xxLib/src/lpc17xx_spi.c **** #ifdef _SPI
  48:LPC17xxLib/src/lpc17xx_spi.c **** 
  49:LPC17xxLib/src/lpc17xx_spi.c **** 
  50:LPC17xxLib/src/lpc17xx_spi.c **** /* Public Functions ----------------------------------------------------------- */
  51:LPC17xxLib/src/lpc17xx_spi.c **** /** @addtogroup SPI_Public_Functions
  52:LPC17xxLib/src/lpc17xx_spi.c ****  * @{
  53:LPC17xxLib/src/lpc17xx_spi.c ****  */
  54:LPC17xxLib/src/lpc17xx_spi.c **** 
  55:LPC17xxLib/src/lpc17xx_spi.c **** /*********************************************************************//**
  56:LPC17xxLib/src/lpc17xx_spi.c ****  * @brief 		Setup clock rate for SPI device
  57:LPC17xxLib/src/lpc17xx_spi.c ****  * @param[in] 	SPIx	SPI peripheral definition, should be LPC_SPI
  58:LPC17xxLib/src/lpc17xx_spi.c ****  * @param[in]	target_clock : clock of SPI (Hz)
  59:LPC17xxLib/src/lpc17xx_spi.c ****  * @return 		None
  60:LPC17xxLib/src/lpc17xx_spi.c ****  ***********************************************************************/
  61:LPC17xxLib/src/lpc17xx_spi.c **** void SPI_SetClock (LPC_SPI_TypeDef *SPIx, uint32_t target_clock)
  62:LPC17xxLib/src/lpc17xx_spi.c **** {
  73              		.loc 1 62 0
  74              		.cfi_startproc
  75              		@ args = 0, pretend = 0, frame = 24
  76              		@ frame_needed = 1, uses_anonymous_args = 0
  77 0000 80B5     		push	{r7, lr}	@	@ 76	*push_multi	[length = 2]
  78              		.cfi_def_cfa_offset 8
  79              		.cfi_offset 7, -8
  80              		.cfi_offset 14, -4
  81 0002 86B0     		sub	sp, sp, #24	@,,	@ 77	*arm_addsi3/8	[length = 4]
  82              		.cfi_def_cfa_offset 32
  83 0004 00AF     		add	r7, sp, #0	@,,	@ 79	*arm_addsi3/2	[length = 4]
  84              		.cfi_def_cfa_register 7
  85 0006 7860     		str	r0, [r7, #4]	@ SPIx, SPIx	@ 2	*thumb2_movsi_insn/7	[length = 4]
  86 0008 3960     		str	r1, [r7]	@ target_clock, target_clock	@ 3	*thumb2_movsi_insn/7	[length = 4]
  63:LPC17xxLib/src/lpc17xx_spi.c **** 	uint32_t spi_pclk;
  64:LPC17xxLib/src/lpc17xx_spi.c **** 	uint32_t prescale, temp;
  65:LPC17xxLib/src/lpc17xx_spi.c **** 
  66:LPC17xxLib/src/lpc17xx_spi.c **** 	CHECK_PARAM(PARAM_SPIx(SPIx));
  67:LPC17xxLib/src/lpc17xx_spi.c **** 
  68:LPC17xxLib/src/lpc17xx_spi.c **** 	if (SPIx == LPC_SPI){
  87              		.loc 1 68 0
  88 000a 7A68     		ldr	r2, [r7, #4]	@ tmp111, SPIx	@ 7	*thumb2_movsi_insn/5	[length = 4]
  89 000c 114B     		ldr	r3, .L9	@ tmp112,	@ 8	*thumb2_movsi_insn/5	[length = 4]
  90 000e 9A42     		cmp	r2, r3	@ tmp111, tmp112	@ 9	*arm_cmpsi_insn/2	[length = 2]
  91 0010 06D1     		bne	.L2	@,	@ 10	arm_cond_branch	[length = 2]
  69:LPC17xxLib/src/lpc17xx_spi.c **** 		spi_pclk =  CLKPWR_GetPCLK (CLKPWR_PCLKSEL_SPI);
  92              		.loc 1 69 0
  93 0012 1020     		movs	r0, #16	@,	@ 12	*thumb2_movsi_shortim	[length = 2]
  94 0014 FFF7FEFF 		bl	CLKPWR_GetPCLK	@	@ 13	*call_value_symbol	[length = 4]
  95 0018 3861     		str	r0, [r7, #16]	@, spi_pclk	@ 14	*thumb2_movsi_insn/7	[length = 4]
  70:LPC17xxLib/src/lpc17xx_spi.c **** 	} else {
  71:LPC17xxLib/src/lpc17xx_spi.c **** 		return;
  72:LPC17xxLib/src/lpc17xx_spi.c **** 	}
  73:LPC17xxLib/src/lpc17xx_spi.c **** 
  74:LPC17xxLib/src/lpc17xx_spi.c **** 	prescale = 8;
  96              		.loc 1 74 0
  97 001a 0823     		movs	r3, #8	@ tmp113,	@ 23	*thumb2_movsi_shortim	[length = 2]
  98 001c 7B61     		str	r3, [r7, #20]	@ tmp113, prescale	@ 24	*thumb2_movsi_insn/7	[length = 4]
  99 001e 00E0     		b	.L8	@	@ 63	*arm_jump	[length = 2]
 100              	.L2:
  71:LPC17xxLib/src/lpc17xx_spi.c **** 		return;
 101              		.loc 1 71 0
 102 0020 15E0     		b	.L1	@	@ 65	*arm_jump	[length = 2]
 103              	.L8:
  75:LPC17xxLib/src/lpc17xx_spi.c **** 	// Find closest clock to target clock
  76:LPC17xxLib/src/lpc17xx_spi.c **** 	while (1){
  77:LPC17xxLib/src/lpc17xx_spi.c **** 		temp = target_clock * prescale;
 104              		.loc 1 77 0
 105 0022 3B68     		ldr	r3, [r7]	@ tmp115, target_clock	@ 26	*thumb2_movsi_insn/5	[length = 4]
 106 0024 7A69     		ldr	r2, [r7, #20]	@ tmp116, prescale	@ 27	*thumb2_movsi_insn/5	[length = 4]
 107 0026 02FB03F3 		mul	r3, r2, r3	@ tmp114, tmp116, tmp115	@ 28	*arm_mulsi3_v6	[length = 4]
 108 002a FB60     		str	r3, [r7, #12]	@ tmp114, temp	@ 29	*thumb2_movsi_insn/7	[length = 4]
  78:LPC17xxLib/src/lpc17xx_spi.c **** 		if (temp >= spi_pclk){
 109              		.loc 1 78 0
 110 002c FA68     		ldr	r2, [r7, #12]	@ tmp117, temp	@ 30	*thumb2_movsi_insn/5	[length = 4]
 111 002e 3B69     		ldr	r3, [r7, #16]	@ tmp118, spi_pclk	@ 31	*thumb2_movsi_insn/5	[length = 4]
 112 0030 9A42     		cmp	r2, r3	@ tmp117, tmp118	@ 32	*arm_cmpsi_insn/2	[length = 2]
 113 0032 00D3     		bcc	.L5	@,	@ 33	arm_cond_branch	[length = 2]
  79:LPC17xxLib/src/lpc17xx_spi.c **** 			break;
 114              		.loc 1 79 0
 115 0034 07E0     		b	.L6	@	@ 67	*arm_jump	[length = 2]
 116              	.L5:
  80:LPC17xxLib/src/lpc17xx_spi.c **** 		}
  81:LPC17xxLib/src/lpc17xx_spi.c **** 		prescale += 2;
 117              		.loc 1 81 0
 118 0036 7B69     		ldr	r3, [r7, #20]	@ tmp120, prescale	@ 39	*thumb2_movsi_insn/5	[length = 4]
 119 0038 0233     		adds	r3, r3, #2	@ tmp119, tmp120,	@ 40	*thumb2_addsi_short/1	[length = 2]
 120 003a 7B61     		str	r3, [r7, #20]	@ tmp119, prescale	@ 41	*thumb2_movsi_insn/7	[length = 4]
  82:LPC17xxLib/src/lpc17xx_spi.c **** 		if(prescale >= 254){
 121              		.loc 1 82 0
 122 003c 7B69     		ldr	r3, [r7, #20]	@ tmp121, prescale	@ 42	*thumb2_movsi_insn/5	[length = 4]
 123 003e FD2B     		cmp	r3, #253	@ tmp121,	@ 43	*arm_cmpsi_insn/1	[length = 2]
 124 0040 00D9     		bls	.L7	@,	@ 44	arm_cond_branch	[length = 2]
  83:LPC17xxLib/src/lpc17xx_spi.c **** 			break;
 125              		.loc 1 83 0
 126 0042 00E0     		b	.L6	@	@ 69	*arm_jump	[length = 2]
 127              	.L7:
  84:LPC17xxLib/src/lpc17xx_spi.c **** 		}
  85:LPC17xxLib/src/lpc17xx_spi.c **** 	}
 128              		.loc 1 85 0
 129 0044 EDE7     		b	.L8	@	@ 71	*arm_jump	[length = 2]
 130              	.L6:
  86:LPC17xxLib/src/lpc17xx_spi.c **** 
  87:LPC17xxLib/src/lpc17xx_spi.c **** 	// Write to register
  88:LPC17xxLib/src/lpc17xx_spi.c **** 	SPIx->SPCCR = SPI_SPCCR_COUNTER(prescale);
 131              		.loc 1 88 0
 132 0046 7B69     		ldr	r3, [r7, #20]	@ tmp122, prescale	@ 55	*thumb2_movsi_insn/5	[length = 4]
 133 0048 DAB2     		uxtb	r2, r3	@ D.5544, tmp122	@ 56	thumb2_zero_extendqisi2_v6/1	[length = 4]
 134 004a 7B68     		ldr	r3, [r7, #4]	@ tmp123, SPIx	@ 57	*thumb2_movsi_insn/5	[length = 4]
 135 004c DA60     		str	r2, [r3, #12]	@ D.5544, SPIx_3(D)->SPCCR	@ 58	*thumb2_movsi_insn/7	[length = 4]
 136              	.L1:
  89:LPC17xxLib/src/lpc17xx_spi.c **** }
 137              		.loc 1 89 0
 138 004e 1837     		adds	r7, r7, #24	@,,	@ 82	*thumb2_addsi_short/2	[length = 2]
 139 0050 BD46     		mov	sp, r7	@,	@ 84	*thumb2_movsi_insn/1	[length = 4]
 140              		@ sp needed	@	@ 85	force_register_use	[length = 0]
 141 0052 80BD     		pop	{r7, pc}	@	@ 86	*pop_multiple_with_writeback_and_return	[length = 4]
 142              	.L10:
 143              		.align	2
 144              	.L9:
 145 0054 00000240 		.word	1073872896
 146              		.cfi_endproc
 147              	.LFE55:
 149              		.section	.text.SPI_DeInit,"ax",%progbits
 150              		.align	2
 151              		.global	SPI_DeInit
 152              		.thumb
 153              		.thumb_func
 155              	SPI_DeInit:
 156              	.LFB56:
  90:LPC17xxLib/src/lpc17xx_spi.c **** 
  91:LPC17xxLib/src/lpc17xx_spi.c **** 
  92:LPC17xxLib/src/lpc17xx_spi.c **** /*********************************************************************//**
  93:LPC17xxLib/src/lpc17xx_spi.c ****  * @brief		De-initializes the SPIx peripheral registers to their
  94:LPC17xxLib/src/lpc17xx_spi.c **** *                  default reset values.
  95:LPC17xxLib/src/lpc17xx_spi.c ****  * @param[in]	SPIx	SPI peripheral selected, should be LPC_SPI
  96:LPC17xxLib/src/lpc17xx_spi.c ****  * @return 		None
  97:LPC17xxLib/src/lpc17xx_spi.c ****  **********************************************************************/
  98:LPC17xxLib/src/lpc17xx_spi.c **** void SPI_DeInit(LPC_SPI_TypeDef *SPIx)
  99:LPC17xxLib/src/lpc17xx_spi.c **** {
 157              		.loc 1 99 0
 158              		.cfi_startproc
 159              		@ args = 0, pretend = 0, frame = 8
 160              		@ frame_needed = 1, uses_anonymous_args = 0
 161 0000 80B5     		push	{r7, lr}	@	@ 21	*push_multi	[length = 2]
 162              		.cfi_def_cfa_offset 8
 163              		.cfi_offset 7, -8
 164              		.cfi_offset 14, -4
 165 0002 82B0     		sub	sp, sp, #8	@,,	@ 22	*arm_addsi3/8	[length = 4]
 166              		.cfi_def_cfa_offset 16
 167 0004 00AF     		add	r7, sp, #0	@,,	@ 24	*arm_addsi3/2	[length = 4]
 168              		.cfi_def_cfa_register 7
 169 0006 7860     		str	r0, [r7, #4]	@ SPIx, SPIx	@ 2	*thumb2_movsi_insn/7	[length = 4]
 100:LPC17xxLib/src/lpc17xx_spi.c **** 	CHECK_PARAM(PARAM_SPIx(SPIx));
 101:LPC17xxLib/src/lpc17xx_spi.c **** 
 102:LPC17xxLib/src/lpc17xx_spi.c **** 	if (SPIx == LPC_SPI){
 170              		.loc 1 102 0
 171 0008 7A68     		ldr	r2, [r7, #4]	@ tmp110, SPIx	@ 6	*thumb2_movsi_insn/5	[length = 4]
 172 000a 054B     		ldr	r3, .L13	@ tmp111,	@ 7	*thumb2_movsi_insn/5	[length = 4]
 173 000c 9A42     		cmp	r2, r3	@ tmp110, tmp111	@ 8	*arm_cmpsi_insn/2	[length = 2]
 174 000e 04D1     		bne	.L11	@,	@ 9	arm_cond_branch	[length = 2]
 103:LPC17xxLib/src/lpc17xx_spi.c **** 		/* Set up clock and power for SPI module */
 104:LPC17xxLib/src/lpc17xx_spi.c **** 		CLKPWR_ConfigPPWR (CLKPWR_PCONP_PCSPI, DISABLE);
 175              		.loc 1 104 0
 176 0010 4FF48070 		mov	r0, #256	@,	@ 11	*thumb2_movsi_insn/2	[length = 4]
 177 0014 0021     		movs	r1, #0	@,	@ 12	*thumb2_movsi_shortim	[length = 2]
 178 0016 FFF7FEFF 		bl	CLKPWR_ConfigPPWR	@	@ 13	*call_symbol	[length = 4]
 179              	.L11:
 105:LPC17xxLib/src/lpc17xx_spi.c **** 	}
 106:LPC17xxLib/src/lpc17xx_spi.c **** }
 180              		.loc 1 106 0
 181 001a 0837     		adds	r7, r7, #8	@,,	@ 27	*thumb2_addsi_short/2	[length = 2]
 182 001c BD46     		mov	sp, r7	@,	@ 29	*thumb2_movsi_insn/1	[length = 4]
 183              		@ sp needed	@	@ 30	force_register_use	[length = 0]
 184 001e 80BD     		pop	{r7, pc}	@	@ 31	*pop_multiple_with_writeback_and_return	[length = 4]
 185              	.L14:
 186              		.align	2
 187              	.L13:
 188 0020 00000240 		.word	1073872896
 189              		.cfi_endproc
 190              	.LFE56:
 192              		.section	.text.SPI_GetDataSize,"ax",%progbits
 193              		.align	2
 194              		.global	SPI_GetDataSize
 195              		.thumb
 196              		.thumb_func
 198              	SPI_GetDataSize:
 199              	.LFB57:
 107:LPC17xxLib/src/lpc17xx_spi.c **** 
 108:LPC17xxLib/src/lpc17xx_spi.c **** /*********************************************************************//**
 109:LPC17xxLib/src/lpc17xx_spi.c ****  * @brief		Get data bit size per transfer
 110:LPC17xxLib/src/lpc17xx_spi.c ****  * @param[in]	SPIx	SPI peripheral selected, should be LPC_SPI
 111:LPC17xxLib/src/lpc17xx_spi.c ****  * @return 		number of bit per transfer, could be 8-16
 112:LPC17xxLib/src/lpc17xx_spi.c ****  **********************************************************************/
 113:LPC17xxLib/src/lpc17xx_spi.c **** uint8_t SPI_GetDataSize (LPC_SPI_TypeDef *SPIx)
 114:LPC17xxLib/src/lpc17xx_spi.c **** {
 200              		.loc 1 114 0
 201              		.cfi_startproc
 202              		@ args = 0, pretend = 0, frame = 8
 203              		@ frame_needed = 1, uses_anonymous_args = 0
 204              		@ link register save eliminated.
 205 0000 80B4     		push	{r7}	@	@ 26	*push_multi	[length = 2]
 206              		.cfi_def_cfa_offset 4
 207              		.cfi_offset 7, -4
 208 0002 83B0     		sub	sp, sp, #12	@,,	@ 27	*arm_addsi3/8	[length = 4]
 209              		.cfi_def_cfa_offset 16
 210 0004 00AF     		add	r7, sp, #0	@,,	@ 29	*arm_addsi3/2	[length = 4]
 211              		.cfi_def_cfa_register 7
 212 0006 7860     		str	r0, [r7, #4]	@ SPIx, SPIx	@ 2	*thumb2_movsi_insn/7	[length = 4]
 115:LPC17xxLib/src/lpc17xx_spi.c **** 	CHECK_PARAM(PARAM_SPIx(SPIx));
 116:LPC17xxLib/src/lpc17xx_spi.c **** 	return ((SPIx->SPCR)>>8 & 0xF);
 213              		.loc 1 116 0
 214 0008 7B68     		ldr	r3, [r7, #4]	@ tmp115, SPIx	@ 6	*thumb2_movsi_insn/5	[length = 4]
 215 000a 1B68     		ldr	r3, [r3]	@ D.5545, SPIx_1(D)->SPCR	@ 7	*thumb2_movsi_insn/5	[length = 4]
 216 000c 1B0A     		lsrs	r3, r3, #8	@ D.5545, D.5545,	@ 8	*thumb2_shiftsi3_short/2	[length = 2]
 217 000e DBB2     		uxtb	r3, r3	@ D.5546, D.5545	@ 9	thumb2_zero_extendqisi2_v6/1	[length = 4]
 218 0010 03F00F03 		and	r3, r3, #15	@ tmp116, D.5546,	@ 10	*arm_andsi3_insn/1	[length = 4]
 219 0014 DBB2     		uxtb	r3, r3	@ D.5547, tmp116	@ 11	thumb2_zero_extendqisi2_v6/1	[length = 4]
 117:LPC17xxLib/src/lpc17xx_spi.c **** }
 220              		.loc 1 117 0
 221 0016 1846     		mov	r0, r3	@, <retval>	@ 18	*thumb2_movsi_insn/1	[length = 4]
 222 0018 0C37     		adds	r7, r7, #12	@,,	@ 32	*thumb2_addsi_short/2	[length = 2]
 223 001a BD46     		mov	sp, r7	@,	@ 34	*thumb2_movsi_insn/1	[length = 4]
 224              		@ sp needed	@	@ 35	force_register_use	[length = 0]
 225 001c 5DF8047B 		ldr	r7, [sp], #4	@,	@ 36	*thumb2_movsi_insn/5	[length = 4]
 226 0020 7047     		bx	lr	@	@ 37	*thumb2_return	[length = 4]
 227              		.cfi_endproc
 228              	.LFE57:
 230 0022 00BF     		.section	.text.SPI_Init,"ax",%progbits
 231              		.align	2
 232              		.global	SPI_Init
 233              		.thumb
 234              		.thumb_func
 236              	SPI_Init:
 237              	.LFB58:
 118:LPC17xxLib/src/lpc17xx_spi.c **** 
 119:LPC17xxLib/src/lpc17xx_spi.c **** /********************************************************************//**
 120:LPC17xxLib/src/lpc17xx_spi.c ****  * @brief		Initializes the SPIx peripheral according to the specified
 121:LPC17xxLib/src/lpc17xx_spi.c **** *               parameters in the UART_ConfigStruct.
 122:LPC17xxLib/src/lpc17xx_spi.c ****  * @param[in]	SPIx	SPI peripheral selected, should be LPC_SPI
 123:LPC17xxLib/src/lpc17xx_spi.c ****  * @param[in]	SPI_ConfigStruct Pointer to a SPI_CFG_Type structure
 124:LPC17xxLib/src/lpc17xx_spi.c **** *                    that contains the configuration information for the
 125:LPC17xxLib/src/lpc17xx_spi.c **** *                    specified SPI peripheral.
 126:LPC17xxLib/src/lpc17xx_spi.c ****  * @return 		None
 127:LPC17xxLib/src/lpc17xx_spi.c ****  *********************************************************************/
 128:LPC17xxLib/src/lpc17xx_spi.c **** void SPI_Init(LPC_SPI_TypeDef *SPIx, SPI_CFG_Type *SPI_ConfigStruct)
 129:LPC17xxLib/src/lpc17xx_spi.c **** {
 238              		.loc 1 129 0
 239              		.cfi_startproc
 240              		@ args = 0, pretend = 0, frame = 16
 241              		@ frame_needed = 1, uses_anonymous_args = 0
 242 0000 80B5     		push	{r7, lr}	@	@ 72	*push_multi	[length = 2]
 243              		.cfi_def_cfa_offset 8
 244              		.cfi_offset 7, -8
 245              		.cfi_offset 14, -4
 246 0002 84B0     		sub	sp, sp, #16	@,,	@ 73	*arm_addsi3/8	[length = 4]
 247              		.cfi_def_cfa_offset 24
 248 0004 00AF     		add	r7, sp, #0	@,,	@ 75	*arm_addsi3/2	[length = 4]
 249              		.cfi_def_cfa_register 7
 250 0006 7860     		str	r0, [r7, #4]	@ SPIx, SPIx	@ 2	*thumb2_movsi_insn/7	[length = 4]
 251 0008 3960     		str	r1, [r7]	@ SPI_ConfigStruct, SPI_ConfigStruct	@ 3	*thumb2_movsi_insn/7	[length = 4]
 130:LPC17xxLib/src/lpc17xx_spi.c **** 	uint32_t tmp;
 131:LPC17xxLib/src/lpc17xx_spi.c **** 
 132:LPC17xxLib/src/lpc17xx_spi.c **** 	CHECK_PARAM(PARAM_SPIx(SPIx));
 133:LPC17xxLib/src/lpc17xx_spi.c **** 
 134:LPC17xxLib/src/lpc17xx_spi.c **** 	if(SPIx == LPC_SPI){
 252              		.loc 1 134 0
 253 000a 7A68     		ldr	r2, [r7, #4]	@ tmp123, SPIx	@ 7	*thumb2_movsi_insn/5	[length = 4]
 254 000c 194B     		ldr	r3, .L22	@ tmp124,	@ 8	*thumb2_movsi_insn/5	[length = 4]
 255 000e 9A42     		cmp	r2, r3	@ tmp123, tmp124	@ 9	*arm_cmpsi_insn/2	[length = 2]
 256 0010 28D1     		bne	.L18	@,	@ 10	arm_cond_branch	[length = 2]
 135:LPC17xxLib/src/lpc17xx_spi.c **** 		/* Set up clock and power for UART module */
 136:LPC17xxLib/src/lpc17xx_spi.c **** 		CLKPWR_ConfigPPWR (CLKPWR_PCONP_PCSPI, ENABLE);
 257              		.loc 1 136 0
 258 0012 4FF48070 		mov	r0, #256	@,	@ 12	*thumb2_movsi_insn/2	[length = 4]
 259 0016 0121     		movs	r1, #1	@,	@ 13	*thumb2_movsi_shortim	[length = 2]
 260 0018 FFF7FEFF 		bl	CLKPWR_ConfigPPWR	@	@ 14	*call_symbol	[length = 4]
 137:LPC17xxLib/src/lpc17xx_spi.c **** 	} else {
 138:LPC17xxLib/src/lpc17xx_spi.c **** 		return;
 139:LPC17xxLib/src/lpc17xx_spi.c **** 	}
 140:LPC17xxLib/src/lpc17xx_spi.c **** 
 141:LPC17xxLib/src/lpc17xx_spi.c **** 	// Configure SPI, interrupt is disable as default
 142:LPC17xxLib/src/lpc17xx_spi.c **** 	tmp = ((SPI_ConfigStruct->CPHA) | (SPI_ConfigStruct->CPOL) \
 261              		.loc 1 142 0
 262 001c 3B68     		ldr	r3, [r7]	@ tmp125, SPI_ConfigStruct	@ 23	*thumb2_movsi_insn/5	[length = 4]
 263 001e 5A68     		ldr	r2, [r3, #4]	@ D.5548, SPI_ConfigStruct_2(D)->CPHA	@ 24	*thumb2_movsi_insn/5	[length = 4]
 264 0020 3B68     		ldr	r3, [r7]	@ tmp126, SPI_ConfigStruct	@ 25	*thumb2_movsi_insn/5	[length = 4]
 265 0022 9B68     		ldr	r3, [r3, #8]	@ D.5548, SPI_ConfigStruct_2(D)->CPOL	@ 26	*thumb2_movsi_insn/5	[length = 4]
 266 0024 1A43     		orrs	r2, r2, r3	@, D.5548, D.5548, D.5548	@ 27	*thumb2_alusi3_short	[length = 2]
 143:LPC17xxLib/src/lpc17xx_spi.c **** 		| (SPI_ConfigStruct->DataOrder) | (SPI_ConfigStruct->Databit) \
 267              		.loc 1 143 0
 268 0026 3B68     		ldr	r3, [r7]	@ tmp127, SPI_ConfigStruct	@ 28	*thumb2_movsi_insn/5	[length = 4]
 269 0028 1B69     		ldr	r3, [r3, #16]	@ D.5548, SPI_ConfigStruct_2(D)->DataOrder	@ 29	*thumb2_movsi_insn/5	[length = 4
 270 002a 1A43     		orrs	r2, r2, r3	@, D.5548, D.5548, D.5548	@ 30	*thumb2_alusi3_short	[length = 2]
 271 002c 3B68     		ldr	r3, [r7]	@ tmp128, SPI_ConfigStruct	@ 31	*thumb2_movsi_insn/5	[length = 4]
 272 002e 1B68     		ldr	r3, [r3]	@ D.5548, SPI_ConfigStruct_2(D)->Databit	@ 32	*thumb2_movsi_insn/5	[length = 4]
 273 0030 1A43     		orrs	r2, r2, r3	@, D.5548, D.5548, D.5548	@ 33	*thumb2_alusi3_short	[length = 2]
 144:LPC17xxLib/src/lpc17xx_spi.c **** 		| (SPI_ConfigStruct->Mode) | SPI_SPCR_BIT_EN) & SPI_SPCR_BITMASK;
 274              		.loc 1 144 0
 275 0032 3B68     		ldr	r3, [r7]	@ tmp129, SPI_ConfigStruct	@ 34	*thumb2_movsi_insn/5	[length = 4]
 276 0034 DB68     		ldr	r3, [r3, #12]	@ D.5548, SPI_ConfigStruct_2(D)->Mode	@ 35	*thumb2_movsi_insn/5	[length = 4]
 277 0036 1A43     		orrs	r2, r2, r3	@, D.5548, D.5548, D.5548	@ 36	*thumb2_alusi3_short	[length = 2]
 278 0038 40F6F873 		movw	r3, #4088	@ D.5548,	@ 37	*thumb2_movsi_insn/4	[length = 4]
 279 003c 1340     		ands	r3, r3, r2	@, D.5548, D.5548, D.5548	@ 38	*thumb2_alusi3_short	[length = 2]
 142:LPC17xxLib/src/lpc17xx_spi.c **** 	tmp = ((SPI_ConfigStruct->CPHA) | (SPI_ConfigStruct->CPOL) \
 280              		.loc 1 142 0
 281 003e 43F00403 		orr	r3, r3, #4	@ tmp130, D.5548,	@ 39	*iorsi3_insn/1	[length = 4]
 282 0042 FB60     		str	r3, [r7, #12]	@ tmp130, tmp	@ 40	*thumb2_movsi_insn/7	[length = 4]
 145:LPC17xxLib/src/lpc17xx_spi.c **** 	// write back to SPI control register
 146:LPC17xxLib/src/lpc17xx_spi.c **** 	SPIx->SPCR = tmp;
 283              		.loc 1 146 0
 284 0044 7B68     		ldr	r3, [r7, #4]	@ tmp131, SPIx	@ 41	*thumb2_movsi_insn/5	[length = 4]
 285 0046 FA68     		ldr	r2, [r7, #12]	@ tmp132, tmp	@ 42	*thumb2_movsi_insn/5	[length = 4]
 286 0048 1A60     		str	r2, [r3]	@ tmp132, SPIx_1(D)->SPCR	@ 43	*thumb2_movsi_insn/7	[length = 4]
 147:LPC17xxLib/src/lpc17xx_spi.c **** 
 148:LPC17xxLib/src/lpc17xx_spi.c **** 	// Set clock rate for SPI peripheral
 149:LPC17xxLib/src/lpc17xx_spi.c **** 	SPI_SetClock(SPIx, SPI_ConfigStruct->ClockRate);
 287              		.loc 1 149 0
 288 004a 3B68     		ldr	r3, [r7]	@ tmp133, SPI_ConfigStruct	@ 44	*thumb2_movsi_insn/5	[length = 4]
 289 004c 5B69     		ldr	r3, [r3, #20]	@ D.5548, SPI_ConfigStruct_2(D)->ClockRate	@ 45	*thumb2_movsi_insn/5	[length = 4
 290 004e 7868     		ldr	r0, [r7, #4]	@, SPIx	@ 46	*thumb2_movsi_insn/5	[length = 4]
 291 0050 1946     		mov	r1, r3	@, D.5548	@ 47	*thumb2_movsi_insn/1	[length = 4]
 292 0052 FFF7FEFF 		bl	SPI_SetClock	@	@ 48	*call_symbol	[length = 4]
 150:LPC17xxLib/src/lpc17xx_spi.c **** 
 151:LPC17xxLib/src/lpc17xx_spi.c **** 	// If interrupt flag is set, Write '1' to Clear interrupt flag
 152:LPC17xxLib/src/lpc17xx_spi.c **** 	if (SPIx->SPINT & SPI_SPINT_INTFLAG){
 293              		.loc 1 152 0
 294 0056 7B68     		ldr	r3, [r7, #4]	@ tmp134, SPIx	@ 49	*thumb2_movsi_insn/5	[length = 4]
 295 0058 DB69     		ldr	r3, [r3, #28]	@ D.5548, SPIx_1(D)->SPINT	@ 50	*thumb2_movsi_insn/5	[length = 4]
 296 005a 03F00103 		and	r3, r3, #1	@ D.5548, D.5548,	@ 51	*arm_andsi3_insn/1	[length = 4]
 297 005e 002B     		cmp	r3, #0	@ D.5548,	@ 52	*arm_cmpsi_insn/1	[length = 2]
 298 0060 04D0     		beq	.L17	@,	@ 53	arm_cond_branch	[length = 2]
 299 0062 00E0     		b	.L21	@	@ 64	*arm_jump	[length = 2]
 300              	.L18:
 138:LPC17xxLib/src/lpc17xx_spi.c **** 		return;
 301              		.loc 1 138 0
 302 0064 02E0     		b	.L17	@	@ 66	*arm_jump	[length = 2]
 303              	.L21:
 153:LPC17xxLib/src/lpc17xx_spi.c **** 		SPIx->SPINT = SPI_SPINT_INTFLAG;
 304              		.loc 1 153 0
 305 0066 7B68     		ldr	r3, [r7, #4]	@ tmp135, SPIx	@ 55	*thumb2_movsi_insn/5	[length = 4]
 306 0068 0122     		movs	r2, #1	@ tmp136,	@ 56	*thumb2_movsi_shortim	[length = 2]
 307 006a DA61     		str	r2, [r3, #28]	@ tmp136, SPIx_1(D)->SPINT	@ 57	*thumb2_movsi_insn/7	[length = 4]
 308              	.L17:
 154:LPC17xxLib/src/lpc17xx_spi.c **** 	}
 155:LPC17xxLib/src/lpc17xx_spi.c **** }
 309              		.loc 1 155 0
 310 006c 1037     		adds	r7, r7, #16	@,,	@ 78	*thumb2_addsi_short/2	[length = 2]
 311 006e BD46     		mov	sp, r7	@,	@ 80	*thumb2_movsi_insn/1	[length = 4]
 312              		@ sp needed	@	@ 81	force_register_use	[length = 0]
 313 0070 80BD     		pop	{r7, pc}	@	@ 82	*pop_multiple_with_writeback_and_return	[length = 4]
 314              	.L23:
 315 0072 00BF     		.align	2
 316              	.L22:
 317 0074 00000240 		.word	1073872896
 318              		.cfi_endproc
 319              	.LFE58:
 321              		.section	.text.SPI_ConfigStructInit,"ax",%progbits
 322              		.align	2
 323              		.global	SPI_ConfigStructInit
 324              		.thumb
 325              		.thumb_func
 327              	SPI_ConfigStructInit:
 328              	.LFB59:
 156:LPC17xxLib/src/lpc17xx_spi.c **** 
 157:LPC17xxLib/src/lpc17xx_spi.c **** 
 158:LPC17xxLib/src/lpc17xx_spi.c **** 
 159:LPC17xxLib/src/lpc17xx_spi.c **** /*****************************************************************************//**
 160:LPC17xxLib/src/lpc17xx_spi.c **** * @brief		Fills each SPI_InitStruct member with its default value:
 161:LPC17xxLib/src/lpc17xx_spi.c **** * 				- CPHA = SPI_CPHA_FIRST
 162:LPC17xxLib/src/lpc17xx_spi.c **** * 				- CPOL = SPI_CPOL_HI
 163:LPC17xxLib/src/lpc17xx_spi.c **** * 				- ClockRate = 1000000
 164:LPC17xxLib/src/lpc17xx_spi.c **** * 				- DataOrder = SPI_DATA_MSB_FIRST
 165:LPC17xxLib/src/lpc17xx_spi.c **** * 				- Databit = SPI_DATABIT_8
 166:LPC17xxLib/src/lpc17xx_spi.c **** * 				- Mode = SPI_MASTER_MODE
 167:LPC17xxLib/src/lpc17xx_spi.c **** * @param[in]	SPI_InitStruct Pointer to a SPI_CFG_Type structure
 168:LPC17xxLib/src/lpc17xx_spi.c **** *                    which will be initialized.
 169:LPC17xxLib/src/lpc17xx_spi.c **** * @return		None
 170:LPC17xxLib/src/lpc17xx_spi.c **** *******************************************************************************/
 171:LPC17xxLib/src/lpc17xx_spi.c **** void SPI_ConfigStructInit(SPI_CFG_Type *SPI_InitStruct)
 172:LPC17xxLib/src/lpc17xx_spi.c **** {
 329              		.loc 1 172 0
 330              		.cfi_startproc
 331              		@ args = 0, pretend = 0, frame = 8
 332              		@ frame_needed = 1, uses_anonymous_args = 0
 333              		@ link register save eliminated.
 334 0000 80B4     		push	{r7}	@	@ 29	*push_multi	[length = 2]
 335              		.cfi_def_cfa_offset 4
 336              		.cfi_offset 7, -4
 337 0002 83B0     		sub	sp, sp, #12	@,,	@ 30	*arm_addsi3/8	[length = 4]
 338              		.cfi_def_cfa_offset 16
 339 0004 00AF     		add	r7, sp, #0	@,,	@ 32	*arm_addsi3/2	[length = 4]
 340              		.cfi_def_cfa_register 7
 341 0006 7860     		str	r0, [r7, #4]	@ SPI_InitStruct, SPI_InitStruct	@ 2	*thumb2_movsi_insn/7	[length = 4]
 173:LPC17xxLib/src/lpc17xx_spi.c **** 	SPI_InitStruct->CPHA = SPI_CPHA_FIRST;
 342              		.loc 1 173 0
 343 0008 7B68     		ldr	r3, [r7, #4]	@ tmp110, SPI_InitStruct	@ 6	*thumb2_movsi_insn/5	[length = 4]
 344 000a 0022     		movs	r2, #0	@ tmp111,	@ 7	*thumb2_movsi_shortim	[length = 2]
 345 000c 5A60     		str	r2, [r3, #4]	@ tmp111, SPI_InitStruct_1(D)->CPHA	@ 8	*thumb2_movsi_insn/7	[length = 4]
 174:LPC17xxLib/src/lpc17xx_spi.c **** 	SPI_InitStruct->CPOL = SPI_CPOL_HI;
 346              		.loc 1 174 0
 347 000e 7B68     		ldr	r3, [r7, #4]	@ tmp112, SPI_InitStruct	@ 9	*thumb2_movsi_insn/5	[length = 4]
 348 0010 0022     		movs	r2, #0	@ tmp113,	@ 10	*thumb2_movsi_shortim	[length = 2]
 349 0012 9A60     		str	r2, [r3, #8]	@ tmp113, SPI_InitStruct_1(D)->CPOL	@ 11	*thumb2_movsi_insn/7	[length = 4]
 175:LPC17xxLib/src/lpc17xx_spi.c **** 	SPI_InitStruct->ClockRate = 1000000;
 350              		.loc 1 175 0
 351 0014 7B68     		ldr	r3, [r7, #4]	@ tmp114, SPI_InitStruct	@ 12	*thumb2_movsi_insn/5	[length = 4]
 352 0016 084A     		ldr	r2, .L25	@ tmp115,	@ 13	*thumb2_movsi_insn/5	[length = 4]
 353 0018 5A61     		str	r2, [r3, #20]	@ tmp115, SPI_InitStruct_1(D)->ClockRate	@ 14	*thumb2_movsi_insn/7	[length = 4]
 176:LPC17xxLib/src/lpc17xx_spi.c **** 	SPI_InitStruct->DataOrder = SPI_DATA_MSB_FIRST;
 354              		.loc 1 176 0
 355 001a 7B68     		ldr	r3, [r7, #4]	@ tmp116, SPI_InitStruct	@ 15	*thumb2_movsi_insn/5	[length = 4]
 356 001c 0022     		movs	r2, #0	@ tmp117,	@ 16	*thumb2_movsi_shortim	[length = 2]
 357 001e 1A61     		str	r2, [r3, #16]	@ tmp117, SPI_InitStruct_1(D)->DataOrder	@ 17	*thumb2_movsi_insn/7	[length = 4]
 177:LPC17xxLib/src/lpc17xx_spi.c **** 	SPI_InitStruct->Databit = SPI_DATABIT_8;
 358              		.loc 1 177 0
 359 0020 7B68     		ldr	r3, [r7, #4]	@ tmp118, SPI_InitStruct	@ 18	*thumb2_movsi_insn/5	[length = 4]
 360 0022 4FF40062 		mov	r2, #2048	@ tmp119,	@ 19	*thumb2_movsi_insn/2	[length = 4]
 361 0026 1A60     		str	r2, [r3]	@ tmp119, SPI_InitStruct_1(D)->Databit	@ 20	*thumb2_movsi_insn/7	[length = 4]
 178:LPC17xxLib/src/lpc17xx_spi.c **** 	SPI_InitStruct->Mode = SPI_MASTER_MODE;
 362              		.loc 1 178 0
 363 0028 7B68     		ldr	r3, [r7, #4]	@ tmp120, SPI_InitStruct	@ 21	*thumb2_movsi_insn/5	[length = 4]
 364 002a 2022     		movs	r2, #32	@ tmp121,	@ 22	*thumb2_movsi_shortim	[length = 2]
 365 002c DA60     		str	r2, [r3, #12]	@ tmp121, SPI_InitStruct_1(D)->Mode	@ 23	*thumb2_movsi_insn/7	[length = 4]
 179:LPC17xxLib/src/lpc17xx_spi.c **** }
 366              		.loc 1 179 0
 367 002e 0C37     		adds	r7, r7, #12	@,,	@ 35	*thumb2_addsi_short/2	[length = 2]
 368 0030 BD46     		mov	sp, r7	@,	@ 37	*thumb2_movsi_insn/1	[length = 4]
 369              		@ sp needed	@	@ 38	force_register_use	[length = 0]
 370 0032 5DF8047B 		ldr	r7, [sp], #4	@,	@ 39	*thumb2_movsi_insn/5	[length = 4]
 371 0036 7047     		bx	lr	@	@ 40	*thumb2_return	[length = 4]
 372              	.L26:
 373              		.align	2
 374              	.L25:
 375 0038 40420F00 		.word	1000000
 376              		.cfi_endproc
 377              	.LFE59:
 379              		.section	.text.SPI_SendData,"ax",%progbits
 380              		.align	2
 381              		.global	SPI_SendData
 382              		.thumb
 383              		.thumb_func
 385              	SPI_SendData:
 386              	.LFB60:
 180:LPC17xxLib/src/lpc17xx_spi.c **** 
 181:LPC17xxLib/src/lpc17xx_spi.c **** /*********************************************************************//**
 182:LPC17xxLib/src/lpc17xx_spi.c ****  * @brief		Transmit a single data through SPIx peripheral
 183:LPC17xxLib/src/lpc17xx_spi.c ****  * @param[in]	SPIx	SPI peripheral selected, should be LPC_SPI
 184:LPC17xxLib/src/lpc17xx_spi.c ****  * @param[in]	Data	Data to transmit (must be 16 or 8-bit long,
 185:LPC17xxLib/src/lpc17xx_spi.c ****  * 						this depend on SPI data bit number configured)
 186:LPC17xxLib/src/lpc17xx_spi.c ****  * @return 		none
 187:LPC17xxLib/src/lpc17xx_spi.c ****  **********************************************************************/
 188:LPC17xxLib/src/lpc17xx_spi.c **** void SPI_SendData(LPC_SPI_TypeDef* SPIx, uint16_t Data)
 189:LPC17xxLib/src/lpc17xx_spi.c **** {
 387              		.loc 1 189 0
 388              		.cfi_startproc
 389              		@ args = 0, pretend = 0, frame = 8
 390              		@ frame_needed = 1, uses_anonymous_args = 0
 391              		@ link register save eliminated.
 392 0000 80B4     		push	{r7}	@	@ 16	*push_multi	[length = 2]
 393              		.cfi_def_cfa_offset 4
 394              		.cfi_offset 7, -4
 395 0002 83B0     		sub	sp, sp, #12	@,,	@ 17	*arm_addsi3/8	[length = 4]
 396              		.cfi_def_cfa_offset 16
 397 0004 00AF     		add	r7, sp, #0	@,,	@ 19	*arm_addsi3/2	[length = 4]
 398              		.cfi_def_cfa_register 7
 399 0006 7860     		str	r0, [r7, #4]	@ SPIx, SPIx	@ 2	*thumb2_movsi_insn/7	[length = 4]
 400 0008 0B46     		mov	r3, r1	@ tmp111, Data	@ 3	*thumb2_movsi_insn/1	[length = 4]
 401 000a 7B80     		strh	r3, [r7, #2]	@ movhi	@ tmp112, Data	@ 5	*thumb2_movhi_insn/3	[length = 4]
 190:LPC17xxLib/src/lpc17xx_spi.c **** 	CHECK_PARAM(PARAM_SPIx(SPIx));
 191:LPC17xxLib/src/lpc17xx_spi.c **** 
 192:LPC17xxLib/src/lpc17xx_spi.c **** 	SPIx->SPDR = Data & SPI_SPDR_BITMASK;
 402              		.loc 1 192 0
 403 000c 7A88     		ldrh	r2, [r7, #2]	@ D.5549, Data	@ 9	*thumb2_zero_extendhisi2_v6/2	[length = 4]
 404 000e 7B68     		ldr	r3, [r7, #4]	@ tmp113, SPIx	@ 10	*thumb2_movsi_insn/5	[length = 4]
 405 0010 9A60     		str	r2, [r3, #8]	@ D.5549, SPIx_3(D)->SPDR	@ 11	*thumb2_movsi_insn/7	[length = 4]
 193:LPC17xxLib/src/lpc17xx_spi.c **** }
 406              		.loc 1 193 0
 407 0012 0C37     		adds	r7, r7, #12	@,,	@ 22	*thumb2_addsi_short/2	[length = 2]
 408 0014 BD46     		mov	sp, r7	@,	@ 24	*thumb2_movsi_insn/1	[length = 4]
 409              		@ sp needed	@	@ 25	force_register_use	[length = 0]
 410 0016 5DF8047B 		ldr	r7, [sp], #4	@,	@ 26	*thumb2_movsi_insn/5	[length = 4]
 411 001a 7047     		bx	lr	@	@ 27	*thumb2_return	[length = 4]
 412              		.cfi_endproc
 413              	.LFE60:
 415              		.section	.text.SPI_ReceiveData,"ax",%progbits
 416              		.align	2
 417              		.global	SPI_ReceiveData
 418              		.thumb
 419              		.thumb_func
 421              	SPI_ReceiveData:
 422              	.LFB61:
 194:LPC17xxLib/src/lpc17xx_spi.c **** 
 195:LPC17xxLib/src/lpc17xx_spi.c **** 
 196:LPC17xxLib/src/lpc17xx_spi.c **** 
 197:LPC17xxLib/src/lpc17xx_spi.c **** /*********************************************************************//**
 198:LPC17xxLib/src/lpc17xx_spi.c ****  * @brief		Receive a single data from SPIx peripheral
 199:LPC17xxLib/src/lpc17xx_spi.c ****  * @param[in]	SPIx	SPI peripheral selected, should be LPC_SPI
 200:LPC17xxLib/src/lpc17xx_spi.c ****  * @return 		Data received (16-bit long)
 201:LPC17xxLib/src/lpc17xx_spi.c ****  **********************************************************************/
 202:LPC17xxLib/src/lpc17xx_spi.c **** uint16_t SPI_ReceiveData(LPC_SPI_TypeDef* SPIx)
 203:LPC17xxLib/src/lpc17xx_spi.c **** {
 423              		.loc 1 203 0
 424              		.cfi_startproc
 425              		@ args = 0, pretend = 0, frame = 8
 426              		@ frame_needed = 1, uses_anonymous_args = 0
 427              		@ link register save eliminated.
 428 0000 80B4     		push	{r7}	@	@ 23	*push_multi	[length = 2]
 429              		.cfi_def_cfa_offset 4
 430              		.cfi_offset 7, -4
 431 0002 83B0     		sub	sp, sp, #12	@,,	@ 24	*arm_addsi3/8	[length = 4]
 432              		.cfi_def_cfa_offset 16
 433 0004 00AF     		add	r7, sp, #0	@,,	@ 26	*arm_addsi3/2	[length = 4]
 434              		.cfi_def_cfa_register 7
 435 0006 7860     		str	r0, [r7, #4]	@ SPIx, SPIx	@ 2	*thumb2_movsi_insn/7	[length = 4]
 204:LPC17xxLib/src/lpc17xx_spi.c **** 	CHECK_PARAM(PARAM_SPIx(SPIx));
 205:LPC17xxLib/src/lpc17xx_spi.c **** 
 206:LPC17xxLib/src/lpc17xx_spi.c **** 	return ((uint16_t) (SPIx->SPDR & SPI_SPDR_BITMASK));
 436              		.loc 1 206 0
 437 0008 7B68     		ldr	r3, [r7, #4]	@ tmp113, SPIx	@ 6	*thumb2_movsi_insn/5	[length = 4]
 438 000a 9B68     		ldr	r3, [r3, #8]	@ D.5550, SPIx_1(D)->SPDR	@ 7	*thumb2_movsi_insn/5	[length = 4]
 439 000c 9BB2     		uxth	r3, r3	@ D.5551, D.5550	@ 8	*thumb2_zero_extendhisi2_v6/1	[length = 4]
 207:LPC17xxLib/src/lpc17xx_spi.c **** }
 440              		.loc 1 207 0
 441 000e 1846     		mov	r0, r3	@, <retval>	@ 15	*thumb2_movsi_insn/1	[length = 4]
 442 0010 0C37     		adds	r7, r7, #12	@,,	@ 29	*thumb2_addsi_short/2	[length = 2]
 443 0012 BD46     		mov	sp, r7	@,	@ 31	*thumb2_movsi_insn/1	[length = 4]
 444              		@ sp needed	@	@ 32	force_register_use	[length = 0]
 445 0014 5DF8047B 		ldr	r7, [sp], #4	@,	@ 33	*thumb2_movsi_insn/5	[length = 4]
 446 0018 7047     		bx	lr	@	@ 34	*thumb2_return	[length = 4]
 447              		.cfi_endproc
 448              	.LFE61:
 450 001a 00BF     		.section	.text.SPI_ReadWrite,"ax",%progbits
 451              		.align	2
 452              		.global	SPI_ReadWrite
 453              		.thumb
 454              		.thumb_func
 456              	SPI_ReadWrite:
 457              	.LFB62:
 208:LPC17xxLib/src/lpc17xx_spi.c **** 
 209:LPC17xxLib/src/lpc17xx_spi.c **** /*********************************************************************//**
 210:LPC17xxLib/src/lpc17xx_spi.c ****  * @brief 		SPI 	Read write data function
 211:LPC17xxLib/src/lpc17xx_spi.c ****  * @param[in]	SPIx 	Pointer to SPI peripheral, should be LPC_SPI
 212:LPC17xxLib/src/lpc17xx_spi.c ****  * @param[in]	dataCfg	Pointer to a SPI_DATA_SETUP_Type structure that
 213:LPC17xxLib/src/lpc17xx_spi.c ****  * 						contains specified information about transmit
 214:LPC17xxLib/src/lpc17xx_spi.c ****  * 						data configuration.
 215:LPC17xxLib/src/lpc17xx_spi.c ****  * @param[in]	xfType	Transfer type, should be:
 216:LPC17xxLib/src/lpc17xx_spi.c ****  * 						- SPI_TRANSFER_POLLING: Polling mode
 217:LPC17xxLib/src/lpc17xx_spi.c ****  * 						- SPI_TRANSFER_INTERRUPT: Interrupt mode
 218:LPC17xxLib/src/lpc17xx_spi.c ****  * @return 		Actual Data length has been transferred in polling mode.
 219:LPC17xxLib/src/lpc17xx_spi.c ****  * 				In interrupt mode, always return (0)
 220:LPC17xxLib/src/lpc17xx_spi.c ****  * 				Return (-1) if error.
 221:LPC17xxLib/src/lpc17xx_spi.c ****  * Note: This function can be used in both master and slave mode.
 222:LPC17xxLib/src/lpc17xx_spi.c ****  ***********************************************************************/
 223:LPC17xxLib/src/lpc17xx_spi.c **** int32_t SPI_ReadWrite (LPC_SPI_TypeDef *SPIx, SPI_DATA_SETUP_Type *dataCfg, \
 224:LPC17xxLib/src/lpc17xx_spi.c **** 						SPI_TRANSFER_Type xfType)
 225:LPC17xxLib/src/lpc17xx_spi.c **** {
 458              		.loc 1 225 0
 459              		.cfi_startproc
 460              		@ args = 0, pretend = 0, frame = 48
 461              		@ frame_needed = 1, uses_anonymous_args = 0
 462 0000 80B5     		push	{r7, lr}	@	@ 351	*push_multi	[length = 2]
 463              		.cfi_def_cfa_offset 8
 464              		.cfi_offset 7, -8
 465              		.cfi_offset 14, -4
 466 0002 8CB0     		sub	sp, sp, #48	@,,	@ 352	*arm_addsi3/8	[length = 4]
 467              		.cfi_def_cfa_offset 56
 468 0004 00AF     		add	r7, sp, #0	@,,	@ 354	*arm_addsi3/2	[length = 4]
 469              		.cfi_def_cfa_register 7
 470 0006 F860     		str	r0, [r7, #12]	@ SPIx, SPIx	@ 2	*thumb2_movsi_insn/7	[length = 4]
 471 0008 B960     		str	r1, [r7, #8]	@ dataCfg, dataCfg	@ 3	*thumb2_movsi_insn/7	[length = 4]
 472 000a 1346     		mov	r3, r2	@ tmp143, xfType	@ 4	*thumb2_movsi_insn/1	[length = 4]
 473 000c FB71     		strb	r3, [r7, #7]	@ tmp144, xfType	@ 6	*arm_movqi_insn/5	[length = 2]
 226:LPC17xxLib/src/lpc17xx_spi.c **** 	uint8_t *rdata8;
 227:LPC17xxLib/src/lpc17xx_spi.c ****     uint8_t *wdata8;
 228:LPC17xxLib/src/lpc17xx_spi.c **** 	uint16_t *rdata16;
 229:LPC17xxLib/src/lpc17xx_spi.c ****     uint16_t *wdata16;
 230:LPC17xxLib/src/lpc17xx_spi.c ****     uint32_t stat;
 231:LPC17xxLib/src/lpc17xx_spi.c ****     uint32_t temp;
 232:LPC17xxLib/src/lpc17xx_spi.c ****     uint8_t dataword;
 233:LPC17xxLib/src/lpc17xx_spi.c **** 
 234:LPC17xxLib/src/lpc17xx_spi.c **** 	//read for empty buffer
 235:LPC17xxLib/src/lpc17xx_spi.c **** 	temp = SPIx->SPDR;
 474              		.loc 1 235 0
 475 000e FB68     		ldr	r3, [r7, #12]	@ tmp145, SPIx	@ 10	*thumb2_movsi_insn/5	[length = 4]
 476 0010 9B68     		ldr	r3, [r3, #8]	@ tmp146, SPIx_16(D)->SPDR	@ 11	*thumb2_movsi_insn/5	[length = 4]
 477 0012 7B61     		str	r3, [r7, #20]	@ tmp146, temp	@ 12	*thumb2_movsi_insn/7	[length = 4]
 236:LPC17xxLib/src/lpc17xx_spi.c **** 	//dummy to clear status
 237:LPC17xxLib/src/lpc17xx_spi.c **** 	temp = SPIx->SPSR;
 478              		.loc 1 237 0
 479 0014 FB68     		ldr	r3, [r7, #12]	@ tmp147, SPIx	@ 13	*thumb2_movsi_insn/5	[length = 4]
 480 0016 5B68     		ldr	r3, [r3, #4]	@ tmp148, SPIx_16(D)->SPSR	@ 14	*thumb2_movsi_insn/5	[length = 4]
 481 0018 7B61     		str	r3, [r7, #20]	@ tmp148, temp	@ 15	*thumb2_movsi_insn/7	[length = 4]
 238:LPC17xxLib/src/lpc17xx_spi.c **** 	dataCfg->counter = 0;
 482              		.loc 1 238 0
 483 001a BB68     		ldr	r3, [r7, #8]	@ tmp149, dataCfg	@ 16	*thumb2_movsi_insn/5	[length = 4]
 484 001c 0022     		movs	r2, #0	@ tmp150,	@ 17	*thumb2_movsi_shortim	[length = 2]
 485 001e DA60     		str	r2, [r3, #12]	@ tmp150, dataCfg_19(D)->counter	@ 18	*thumb2_movsi_insn/7	[length = 4]
 239:LPC17xxLib/src/lpc17xx_spi.c **** 	dataCfg->status = 0;
 486              		.loc 1 239 0
 487 0020 BB68     		ldr	r3, [r7, #8]	@ tmp151, dataCfg	@ 19	*thumb2_movsi_insn/5	[length = 4]
 488 0022 0022     		movs	r2, #0	@ tmp152,	@ 20	*thumb2_movsi_shortim	[length = 2]
 489 0024 1A61     		str	r2, [r3, #16]	@ tmp152, dataCfg_19(D)->status	@ 21	*thumb2_movsi_insn/7	[length = 4]
 240:LPC17xxLib/src/lpc17xx_spi.c **** 
 241:LPC17xxLib/src/lpc17xx_spi.c **** 	if(SPI_GetDataSize (SPIx) == 8)
 490              		.loc 1 241 0
 491 0026 F868     		ldr	r0, [r7, #12]	@, SPIx	@ 22	*thumb2_movsi_insn/5	[length = 4]
 492 0028 FFF7FEFF 		bl	SPI_GetDataSize	@	@ 23	*call_value_symbol	[length = 4]
 493 002c 0346     		mov	r3, r0	@ tmp153,	@ 24	*thumb2_movsi_insn/1	[length = 4]
 494 002e 082B     		cmp	r3, #8	@ D.5553,	@ 26	*arm_cmpsi_insn/1	[length = 2]
 495 0030 02D1     		bne	.L31	@,	@ 27	arm_cond_branch	[length = 2]
 242:LPC17xxLib/src/lpc17xx_spi.c **** 		dataword = 0;
 496              		.loc 1 242 0
 497 0032 0023     		movs	r3, #0	@ tmp154,	@ 29	*thumb2_movsi_shortim	[length = 2]
 498 0034 FB76     		strb	r3, [r7, #27]	@ tmp155, dataword	@ 31	*arm_movqi_insn/5	[length = 2]
 499 0036 01E0     		b	.L32	@	@ 314	*arm_jump	[length = 2]
 500              	.L31:
 243:LPC17xxLib/src/lpc17xx_spi.c **** 	else dataword = 1;
 501              		.loc 1 243 0
 502 0038 0123     		movs	r3, #1	@ tmp156,	@ 36	*thumb2_movsi_shortim	[length = 2]
 503 003a FB76     		strb	r3, [r7, #27]	@ tmp157, dataword	@ 38	*arm_movqi_insn/5	[length = 2]
 504              	.L32:
 244:LPC17xxLib/src/lpc17xx_spi.c **** 	if (xfType == SPI_TRANSFER_POLLING){
 505              		.loc 1 244 0
 506 003c FB79     		ldrb	r3, [r7, #7]	@ zero_extendqisi2	@ tmp158, xfType	@ 41	thumb2_zero_extendqisi2_v6/2	[length = 
 507 003e 002B     		cmp	r3, #0	@ tmp158,	@ 42	*arm_cmpsi_insn/1	[length = 2]
 508 0040 40F08780 		bne	.L33	@,	@ 43	arm_cond_branch	[length = 4]
 245:LPC17xxLib/src/lpc17xx_spi.c **** 
 246:LPC17xxLib/src/lpc17xx_spi.c **** 		if (dataword == 0){
 509              		.loc 1 246 0
 510 0044 FB7E     		ldrb	r3, [r7, #27]	@ zero_extendqisi2	@ tmp159, dataword	@ 45	thumb2_zero_extendqisi2_v6/2	[length
 511 0046 002B     		cmp	r3, #0	@ tmp159,	@ 46	*arm_cmpsi_insn/1	[length = 2]
 512 0048 06D1     		bne	.L34	@,	@ 47	arm_cond_branch	[length = 2]
 247:LPC17xxLib/src/lpc17xx_spi.c **** 			rdata8 = (uint8_t *)dataCfg->rx_data;
 513              		.loc 1 247 0
 514 004a BB68     		ldr	r3, [r7, #8]	@ tmp160, dataCfg	@ 49	*thumb2_movsi_insn/5	[length = 4]
 515 004c 5B68     		ldr	r3, [r3, #4]	@ tmp161, dataCfg_19(D)->rx_data	@ 50	*thumb2_movsi_insn/5	[length = 4]
 516 004e FB62     		str	r3, [r7, #44]	@ tmp161, rdata8	@ 51	*thumb2_movsi_insn/7	[length = 4]
 248:LPC17xxLib/src/lpc17xx_spi.c **** 			wdata8 = (uint8_t *)dataCfg->tx_data;
 517              		.loc 1 248 0
 518 0050 BB68     		ldr	r3, [r7, #8]	@ tmp162, dataCfg	@ 52	*thumb2_movsi_insn/5	[length = 4]
 519 0052 1B68     		ldr	r3, [r3]	@ tmp163, dataCfg_19(D)->tx_data	@ 53	*thumb2_movsi_insn/5	[length = 4]
 520 0054 BB62     		str	r3, [r7, #40]	@ tmp163, wdata8	@ 54	*thumb2_movsi_insn/7	[length = 4]
 249:LPC17xxLib/src/lpc17xx_spi.c **** 		} else {
 250:LPC17xxLib/src/lpc17xx_spi.c **** 			rdata16 = (uint16_t *)dataCfg->rx_data;
 251:LPC17xxLib/src/lpc17xx_spi.c **** 			wdata16 = (uint16_t *)dataCfg->tx_data;
 252:LPC17xxLib/src/lpc17xx_spi.c **** 		}
 253:LPC17xxLib/src/lpc17xx_spi.c **** 
 254:LPC17xxLib/src/lpc17xx_spi.c **** 		while(dataCfg->counter < dataCfg->length)
 521              		.loc 1 254 0
 522 0056 6EE0     		b	.L36	@	@ 316	*arm_jump	[length = 2]
 523              	.L34:
 250:LPC17xxLib/src/lpc17xx_spi.c **** 			rdata16 = (uint16_t *)dataCfg->rx_data;
 524              		.loc 1 250 0
 525 0058 BB68     		ldr	r3, [r7, #8]	@ tmp164, dataCfg	@ 59	*thumb2_movsi_insn/5	[length = 4]
 526 005a 5B68     		ldr	r3, [r3, #4]	@ tmp165, dataCfg_19(D)->rx_data	@ 60	*thumb2_movsi_insn/5	[length = 4]
 527 005c 7B62     		str	r3, [r7, #36]	@ tmp165, rdata16	@ 61	*thumb2_movsi_insn/7	[length = 4]
 251:LPC17xxLib/src/lpc17xx_spi.c **** 			wdata16 = (uint16_t *)dataCfg->tx_data;
 528              		.loc 1 251 0
 529 005e BB68     		ldr	r3, [r7, #8]	@ tmp166, dataCfg	@ 62	*thumb2_movsi_insn/5	[length = 4]
 530 0060 1B68     		ldr	r3, [r3]	@ tmp167, dataCfg_19(D)->tx_data	@ 63	*thumb2_movsi_insn/5	[length = 4]
 531 0062 3B62     		str	r3, [r7, #32]	@ tmp167, wdata16	@ 64	*thumb2_movsi_insn/7	[length = 4]
 532              		.loc 1 254 0
 533 0064 67E0     		b	.L36	@	@ 318	*arm_jump	[length = 2]
 534              	.L48:
 255:LPC17xxLib/src/lpc17xx_spi.c **** 		{
 256:LPC17xxLib/src/lpc17xx_spi.c **** 			// Write data to buffer
 257:LPC17xxLib/src/lpc17xx_spi.c **** 			if(dataCfg->tx_data == NULL){
 535              		.loc 1 257 0
 536 0066 BB68     		ldr	r3, [r7, #8]	@ tmp168, dataCfg	@ 70	*thumb2_movsi_insn/5	[length = 4]
 537 0068 1B68     		ldr	r3, [r3]	@ D.5555, dataCfg_19(D)->tx_data	@ 71	*thumb2_movsi_insn/5	[length = 4]
 538 006a 002B     		cmp	r3, #0	@ D.5555,	@ 72	*arm_cmpsi_insn/1	[length = 2]
 539 006c 0DD1     		bne	.L37	@,	@ 73	arm_cond_branch	[length = 2]
 258:LPC17xxLib/src/lpc17xx_spi.c **** 				if (dataword == 0){
 540              		.loc 1 258 0
 541 006e FB7E     		ldrb	r3, [r7, #27]	@ zero_extendqisi2	@ tmp169, dataword	@ 75	thumb2_zero_extendqisi2_v6/2	[length
 542 0070 002B     		cmp	r3, #0	@ tmp169,	@ 76	*arm_cmpsi_insn/1	[length = 2]
 543 0072 04D1     		bne	.L38	@,	@ 77	arm_cond_branch	[length = 2]
 259:LPC17xxLib/src/lpc17xx_spi.c **** 					SPI_SendData(SPIx, 0xFF);
 544              		.loc 1 259 0
 545 0074 F868     		ldr	r0, [r7, #12]	@, SPIx	@ 79	*thumb2_movsi_insn/5	[length = 4]
 546 0076 FF21     		movs	r1, #255	@,	@ 80	*thumb2_movsi_shortim	[length = 2]
 547 0078 FFF7FEFF 		bl	SPI_SendData	@	@ 81	*call_symbol	[length = 4]
 548 007c 1CE0     		b	.L40	@	@ 320	*arm_jump	[length = 2]
 549              	.L38:
 260:LPC17xxLib/src/lpc17xx_spi.c **** 				} else {
 261:LPC17xxLib/src/lpc17xx_spi.c **** 					SPI_SendData(SPIx, 0xFFFF);
 550              		.loc 1 261 0
 551 007e F868     		ldr	r0, [r7, #12]	@, SPIx	@ 86	*thumb2_movsi_insn/5	[length = 4]
 552 0080 4FF6FF71 		movw	r1, #65535	@,	@ 87	*thumb2_movsi_insn/4	[length = 4]
 553 0084 FFF7FEFF 		bl	SPI_SendData	@	@ 88	*call_symbol	[length = 4]
 262:LPC17xxLib/src/lpc17xx_spi.c **** 				}
 263:LPC17xxLib/src/lpc17xx_spi.c **** 			} else {
 264:LPC17xxLib/src/lpc17xx_spi.c **** 				if (dataword == 0){
 265:LPC17xxLib/src/lpc17xx_spi.c **** 					SPI_SendData(SPIx, *wdata8);
 266:LPC17xxLib/src/lpc17xx_spi.c **** 					wdata8++;
 267:LPC17xxLib/src/lpc17xx_spi.c **** 				} else {
 268:LPC17xxLib/src/lpc17xx_spi.c **** 					SPI_SendData(SPIx, *wdata16);
 269:LPC17xxLib/src/lpc17xx_spi.c **** 					wdata16++;
 270:LPC17xxLib/src/lpc17xx_spi.c **** 				}
 271:LPC17xxLib/src/lpc17xx_spi.c **** 			}
 272:LPC17xxLib/src/lpc17xx_spi.c **** 			// Wait for transfer complete
 273:LPC17xxLib/src/lpc17xx_spi.c **** 			while (!((stat = SPIx->SPSR) & SPI_SPSR_SPIF));
 554              		.loc 1 273 0
 555 0088 16E0     		b	.L57	@	@ 322	*arm_jump	[length = 2]
 556              	.L37:
 264:LPC17xxLib/src/lpc17xx_spi.c **** 				if (dataword == 0){
 557              		.loc 1 264 0
 558 008a FB7E     		ldrb	r3, [r7, #27]	@ zero_extendqisi2	@ tmp170, dataword	@ 95	thumb2_zero_extendqisi2_v6/2	[length
 559 008c 002B     		cmp	r3, #0	@ tmp170,	@ 96	*arm_cmpsi_insn/1	[length = 2]
 560 008e 09D1     		bne	.L41	@,	@ 97	arm_cond_branch	[length = 2]
 265:LPC17xxLib/src/lpc17xx_spi.c **** 					SPI_SendData(SPIx, *wdata8);
 561              		.loc 1 265 0
 562 0090 BB6A     		ldr	r3, [r7, #40]	@ tmp171, wdata8	@ 99	*thumb2_movsi_insn/5	[length = 4]
 563 0092 1B78     		ldrb	r3, [r3]	@ zero_extendqisi2	@ D.5553, *wdata8_6	@ 100	thumb2_zero_extendqisi2_v6/2	[length = 
 564 0094 F868     		ldr	r0, [r7, #12]	@, SPIx	@ 102	*thumb2_movsi_insn/5	[length = 4]
 565 0096 1946     		mov	r1, r3	@, D.5556	@ 103	*thumb2_movsi_insn/1	[length = 4]
 566 0098 FFF7FEFF 		bl	SPI_SendData	@	@ 104	*call_symbol	[length = 4]
 266:LPC17xxLib/src/lpc17xx_spi.c **** 					wdata8++;
 567              		.loc 1 266 0
 568 009c BB6A     		ldr	r3, [r7, #40]	@ tmp173, wdata8	@ 105	*thumb2_movsi_insn/5	[length = 4]
 569 009e 0133     		adds	r3, r3, #1	@ tmp172, tmp173,	@ 106	*thumb2_addsi_short/1	[length = 2]
 570 00a0 BB62     		str	r3, [r7, #40]	@ tmp172, wdata8	@ 107	*thumb2_movsi_insn/7	[length = 4]
 571 00a2 09E0     		b	.L40	@	@ 324	*arm_jump	[length = 2]
 572              	.L41:
 268:LPC17xxLib/src/lpc17xx_spi.c **** 					SPI_SendData(SPIx, *wdata16);
 573              		.loc 1 268 0
 574 00a4 3B6A     		ldr	r3, [r7, #32]	@ tmp174, wdata16	@ 112	*thumb2_movsi_insn/5	[length = 4]
 575 00a6 1B88     		ldrh	r3, [r3]	@ D.5556, *wdata16_12	@ 113	*thumb2_zero_extendhisi2_v6/2	[length = 4]
 576 00a8 F868     		ldr	r0, [r7, #12]	@, SPIx	@ 114	*thumb2_movsi_insn/5	[length = 4]
 577 00aa 1946     		mov	r1, r3	@, D.5556	@ 115	*thumb2_movsi_insn/1	[length = 4]
 578 00ac FFF7FEFF 		bl	SPI_SendData	@	@ 116	*call_symbol	[length = 4]
 269:LPC17xxLib/src/lpc17xx_spi.c **** 					wdata16++;
 579              		.loc 1 269 0
 580 00b0 3B6A     		ldr	r3, [r7, #32]	@ tmp176, wdata16	@ 117	*thumb2_movsi_insn/5	[length = 4]
 581 00b2 0233     		adds	r3, r3, #2	@ tmp175, tmp176,	@ 118	*thumb2_addsi_short/1	[length = 2]
 582 00b4 3B62     		str	r3, [r7, #32]	@ tmp175, wdata16	@ 119	*thumb2_movsi_insn/7	[length = 4]
 583              		.loc 1 273 0
 584 00b6 FFE7     		b	.L57	@	@ 326	*arm_jump	[length = 2]
 585              	.L40:
 586              	.L57:
 587 00b8 00BF     		nop	@ 345	nop	[length = 2]
 588              	.L42:
 589              		.loc 1 273 0 is_stmt 0 discriminator 1
 590 00ba FB68     		ldr	r3, [r7, #12]	@ tmp177, SPIx	@ 123	*thumb2_movsi_insn/5	[length = 4]
 591 00bc 5B68     		ldr	r3, [r3, #4]	@ tmp178, SPIx_16(D)->SPSR	@ 124	*thumb2_movsi_insn/5	[length = 4]
 592 00be FB61     		str	r3, [r7, #28]	@ tmp178, stat	@ 125	*thumb2_movsi_insn/7	[length = 4]
 593 00c0 FB69     		ldr	r3, [r7, #28]	@ tmp179, stat	@ 126	*thumb2_movsi_insn/5	[length = 4]
 594 00c2 03F08003 		and	r3, r3, #128	@ D.5554, tmp179,	@ 127	*arm_andsi3_insn/1	[length = 4]
 595 00c6 002B     		cmp	r3, #0	@ D.5554,	@ 129	*arm_cmpsi_insn/1	[length = 2]
 596 00c8 F7D0     		beq	.L42	@,	@ 130	arm_cond_branch	[length = 2]
 274:LPC17xxLib/src/lpc17xx_spi.c **** 			// Check for error
 275:LPC17xxLib/src/lpc17xx_spi.c **** 			if (stat & (SPI_SPSR_ABRT | SPI_SPSR_MODF | SPI_SPSR_ROVR | SPI_SPSR_WCOL)){
 597              		.loc 1 275 0 is_stmt 1
 598 00ca FB69     		ldr	r3, [r7, #28]	@ tmp180, stat	@ 132	*thumb2_movsi_insn/5	[length = 4]
 599 00cc 03F07803 		and	r3, r3, #120	@ D.5554, tmp180,	@ 133	*arm_andsi3_insn/1	[length = 4]
 600 00d0 002B     		cmp	r3, #0	@ D.5554,	@ 134	*arm_cmpsi_insn/1	[length = 2]
 601 00d2 07D0     		beq	.L43	@,	@ 135	arm_cond_branch	[length = 2]
 276:LPC17xxLib/src/lpc17xx_spi.c **** 				// save status
 277:LPC17xxLib/src/lpc17xx_spi.c **** 				dataCfg->status = stat | SPI_STAT_ERROR;
 602              		.loc 1 277 0
 603 00d4 FB69     		ldr	r3, [r7, #28]	@ tmp181, stat	@ 137	*thumb2_movsi_insn/5	[length = 4]
 604 00d6 43F40072 		orr	r2, r3, #512	@ D.5554, tmp181,	@ 138	*iorsi3_insn/1	[length = 4]
 605 00da BB68     		ldr	r3, [r7, #8]	@ tmp182, dataCfg	@ 139	*thumb2_movsi_insn/5	[length = 4]
 606 00dc 1A61     		str	r2, [r3, #16]	@ D.5554, dataCfg_19(D)->status	@ 140	*thumb2_movsi_insn/7	[length = 4]
 278:LPC17xxLib/src/lpc17xx_spi.c **** 				return (dataCfg->counter);
 607              		.loc 1 278 0
 608 00de BB68     		ldr	r3, [r7, #8]	@ tmp183, dataCfg	@ 141	*thumb2_movsi_insn/5	[length = 4]
 609 00e0 DB68     		ldr	r3, [r3, #12]	@ D.5554, dataCfg_19(D)->counter	@ 142	*thumb2_movsi_insn/5	[length = 4]
 610 00e2 73E0     		b	.L44	@	@ 328	*arm_jump	[length = 2]
 611              	.L43:
 279:LPC17xxLib/src/lpc17xx_spi.c **** 			}
 280:LPC17xxLib/src/lpc17xx_spi.c **** 			// Read data from SPI dat
 281:LPC17xxLib/src/lpc17xx_spi.c **** 			temp = (uint32_t) SPI_ReceiveData(SPIx);
 612              		.loc 1 281 0
 613 00e4 F868     		ldr	r0, [r7, #12]	@, SPIx	@ 148	*thumb2_movsi_insn/5	[length = 4]
 614 00e6 FFF7FEFF 		bl	SPI_ReceiveData	@	@ 149	*call_value_symbol	[length = 4]
 615 00ea 0346     		mov	r3, r0	@ tmp184,	@ 150	*thumb2_movsi_insn/1	[length = 4]
 616 00ec 7B61     		str	r3, [r7, #20]	@ D.5556, temp	@ 152	*thumb2_movsi_insn/7	[length = 4]
 282:LPC17xxLib/src/lpc17xx_spi.c **** 
 283:LPC17xxLib/src/lpc17xx_spi.c **** 			// Store data to destination
 284:LPC17xxLib/src/lpc17xx_spi.c **** 			if (dataCfg->rx_data != NULL)
 617              		.loc 1 284 0
 618 00ee BB68     		ldr	r3, [r7, #8]	@ tmp185, dataCfg	@ 153	*thumb2_movsi_insn/5	[length = 4]
 619 00f0 5B68     		ldr	r3, [r3, #4]	@ D.5555, dataCfg_19(D)->rx_data	@ 154	*thumb2_movsi_insn/5	[length = 4]
 620 00f2 002B     		cmp	r3, #0	@ D.5555,	@ 155	*arm_cmpsi_insn/1	[length = 2]
 621 00f4 11D0     		beq	.L45	@,	@ 156	arm_cond_branch	[length = 2]
 285:LPC17xxLib/src/lpc17xx_spi.c **** 			{
 286:LPC17xxLib/src/lpc17xx_spi.c **** 				if (dataword == 0){
 622              		.loc 1 286 0
 623 00f6 FB7E     		ldrb	r3, [r7, #27]	@ zero_extendqisi2	@ tmp186, dataword	@ 158	thumb2_zero_extendqisi2_v6/2	[lengt
 624 00f8 002B     		cmp	r3, #0	@ tmp186,	@ 159	*arm_cmpsi_insn/1	[length = 2]
 625 00fa 07D1     		bne	.L46	@,	@ 160	arm_cond_branch	[length = 2]
 287:LPC17xxLib/src/lpc17xx_spi.c **** 					*(rdata8) = (uint8_t) temp;
 626              		.loc 1 287 0
 627 00fc 7B69     		ldr	r3, [r7, #20]	@ tmp187, temp	@ 162	*thumb2_movsi_insn/5	[length = 4]
 628 00fe DAB2     		uxtb	r2, r3	@ D.5553, tmp187	@ 163	thumb2_zero_extendqisi2_v6/1	[length = 4]
 629 0100 FB6A     		ldr	r3, [r7, #44]	@ tmp188, rdata8	@ 164	*thumb2_movsi_insn/5	[length = 4]
 630 0102 1A70     		strb	r2, [r3]	@ tmp189, *rdata8_3	@ 166	*arm_movqi_insn/5	[length = 2]
 288:LPC17xxLib/src/lpc17xx_spi.c **** 					rdata8++;
 631              		.loc 1 288 0
 632 0104 FB6A     		ldr	r3, [r7, #44]	@ tmp191, rdata8	@ 167	*thumb2_movsi_insn/5	[length = 4]
 633 0106 0133     		adds	r3, r3, #1	@ tmp190, tmp191,	@ 168	*thumb2_addsi_short/1	[length = 2]
 634 0108 FB62     		str	r3, [r7, #44]	@ tmp190, rdata8	@ 169	*thumb2_movsi_insn/7	[length = 4]
 635 010a 06E0     		b	.L45	@	@ 330	*arm_jump	[length = 2]
 636              	.L46:
 289:LPC17xxLib/src/lpc17xx_spi.c **** 				} else {
 290:LPC17xxLib/src/lpc17xx_spi.c **** 					*(rdata16) = (uint16_t) temp;
 637              		.loc 1 290 0
 638 010c 7B69     		ldr	r3, [r7, #20]	@ tmp192, temp	@ 174	*thumb2_movsi_insn/5	[length = 4]
 639 010e 9AB2     		uxth	r2, r3	@ D.5556, tmp192	@ 175	*thumb2_zero_extendhisi2_v6/1	[length = 4]
 640 0110 7B6A     		ldr	r3, [r7, #36]	@ tmp193, rdata16	@ 176	*thumb2_movsi_insn/5	[length = 4]
 641 0112 1A80     		strh	r2, [r3]	@ movhi	@ tmp194, *rdata16_9	@ 178	*thumb2_movhi_insn/3	[length = 4]
 291:LPC17xxLib/src/lpc17xx_spi.c **** 					rdata16++;
 642              		.loc 1 291 0
 643 0114 7B6A     		ldr	r3, [r7, #36]	@ tmp196, rdata16	@ 179	*thumb2_movsi_insn/5	[length = 4]
 644 0116 0233     		adds	r3, r3, #2	@ tmp195, tmp196,	@ 180	*thumb2_addsi_short/1	[length = 2]
 645 0118 7B62     		str	r3, [r7, #36]	@ tmp195, rdata16	@ 181	*thumb2_movsi_insn/7	[length = 4]
 646              	.L45:
 292:LPC17xxLib/src/lpc17xx_spi.c **** 				}
 293:LPC17xxLib/src/lpc17xx_spi.c **** 			}
 294:LPC17xxLib/src/lpc17xx_spi.c **** 			// Increase counter
 295:LPC17xxLib/src/lpc17xx_spi.c **** 			if (dataword == 0){
 647              		.loc 1 295 0
 648 011a FB7E     		ldrb	r3, [r7, #27]	@ zero_extendqisi2	@ tmp197, dataword	@ 184	thumb2_zero_extendqisi2_v6/2	[lengt
 649 011c 002B     		cmp	r3, #0	@ tmp197,	@ 185	*arm_cmpsi_insn/1	[length = 2]
 650 011e 05D1     		bne	.L47	@,	@ 186	arm_cond_branch	[length = 2]
 296:LPC17xxLib/src/lpc17xx_spi.c **** 				dataCfg->counter++;
 651              		.loc 1 296 0
 652 0120 BB68     		ldr	r3, [r7, #8]	@ tmp198, dataCfg	@ 188	*thumb2_movsi_insn/5	[length = 4]
 653 0122 DB68     		ldr	r3, [r3, #12]	@ D.5554, dataCfg_19(D)->counter	@ 189	*thumb2_movsi_insn/5	[length = 4]
 654 0124 5A1C     		adds	r2, r3, #1	@ D.5554, D.5554,	@ 190	*thumb2_addsi_short/1	[length = 2]
 655 0126 BB68     		ldr	r3, [r7, #8]	@ tmp199, dataCfg	@ 191	*thumb2_movsi_insn/5	[length = 4]
 656 0128 DA60     		str	r2, [r3, #12]	@ D.5554, dataCfg_19(D)->counter	@ 192	*thumb2_movsi_insn/7	[length = 4]
 657 012a 04E0     		b	.L36	@	@ 332	*arm_jump	[length = 2]
 658              	.L47:
 297:LPC17xxLib/src/lpc17xx_spi.c **** 			} else {
 298:LPC17xxLib/src/lpc17xx_spi.c **** 				dataCfg->counter += 2;
 659              		.loc 1 298 0
 660 012c BB68     		ldr	r3, [r7, #8]	@ tmp200, dataCfg	@ 197	*thumb2_movsi_insn/5	[length = 4]
 661 012e DB68     		ldr	r3, [r3, #12]	@ D.5554, dataCfg_19(D)->counter	@ 198	*thumb2_movsi_insn/5	[length = 4]
 662 0130 9A1C     		adds	r2, r3, #2	@ D.5554, D.5554,	@ 199	*thumb2_addsi_short/1	[length = 2]
 663 0132 BB68     		ldr	r3, [r7, #8]	@ tmp201, dataCfg	@ 200	*thumb2_movsi_insn/5	[length = 4]
 664 0134 DA60     		str	r2, [r3, #12]	@ D.5554, dataCfg_19(D)->counter	@ 201	*thumb2_movsi_insn/7	[length = 4]
 665              	.L36:
 254:LPC17xxLib/src/lpc17xx_spi.c **** 		while(dataCfg->counter < dataCfg->length)
 666              		.loc 1 254 0 discriminator 1
 667 0136 BB68     		ldr	r3, [r7, #8]	@ tmp202, dataCfg	@ 204	*thumb2_movsi_insn/5	[length = 4]
 668 0138 DA68     		ldr	r2, [r3, #12]	@ D.5554, dataCfg_19(D)->counter	@ 205	*thumb2_movsi_insn/5	[length = 4]
 669 013a BB68     		ldr	r3, [r7, #8]	@ tmp203, dataCfg	@ 206	*thumb2_movsi_insn/5	[length = 4]
 670 013c 9B68     		ldr	r3, [r3, #8]	@ D.5554, dataCfg_19(D)->length	@ 207	*thumb2_movsi_insn/5	[length = 4]
 671 013e 9A42     		cmp	r2, r3	@ D.5554, D.5554	@ 209	*arm_cmpsi_insn/2	[length = 2]
 672 0140 91D3     		bcc	.L48	@,	@ 210	arm_cond_branch	[length = 4]
 299:LPC17xxLib/src/lpc17xx_spi.c **** 			}
 300:LPC17xxLib/src/lpc17xx_spi.c **** 		}
 301:LPC17xxLib/src/lpc17xx_spi.c **** 
 302:LPC17xxLib/src/lpc17xx_spi.c **** 		// Return length of actual data transferred
 303:LPC17xxLib/src/lpc17xx_spi.c **** 		// save status
 304:LPC17xxLib/src/lpc17xx_spi.c **** 		dataCfg->status = stat | SPI_STAT_DONE;
 673              		.loc 1 304 0
 674 0142 FB69     		ldr	r3, [r7, #28]	@ tmp204, stat	@ 212	*thumb2_movsi_insn/5	[length = 4]
 675 0144 43F48072 		orr	r2, r3, #256	@ D.5554, tmp204,	@ 213	*iorsi3_insn/1	[length = 4]
 676 0148 BB68     		ldr	r3, [r7, #8]	@ tmp205, dataCfg	@ 214	*thumb2_movsi_insn/5	[length = 4]
 677 014a 1A61     		str	r2, [r3, #16]	@ D.5554, dataCfg_19(D)->status	@ 215	*thumb2_movsi_insn/7	[length = 4]
 305:LPC17xxLib/src/lpc17xx_spi.c **** 		return (dataCfg->counter);
 678              		.loc 1 305 0
 679 014c BB68     		ldr	r3, [r7, #8]	@ tmp206, dataCfg	@ 216	*thumb2_movsi_insn/5	[length = 4]
 680 014e DB68     		ldr	r3, [r3, #12]	@ D.5554, dataCfg_19(D)->counter	@ 217	*thumb2_movsi_insn/5	[length = 4]
 681 0150 3CE0     		b	.L44	@	@ 334	*arm_jump	[length = 2]
 682              	.L33:
 306:LPC17xxLib/src/lpc17xx_spi.c **** 	}
 307:LPC17xxLib/src/lpc17xx_spi.c **** 	// Interrupt mode
 308:LPC17xxLib/src/lpc17xx_spi.c **** 	else {
 309:LPC17xxLib/src/lpc17xx_spi.c **** 
 310:LPC17xxLib/src/lpc17xx_spi.c **** 		// Check if interrupt flag is already set
 311:LPC17xxLib/src/lpc17xx_spi.c **** 		if(SPIx->SPINT & SPI_SPINT_INTFLAG){
 683              		.loc 1 311 0
 684 0152 FB68     		ldr	r3, [r7, #12]	@ tmp207, SPIx	@ 223	*thumb2_movsi_insn/5	[length = 4]
 685 0154 DB69     		ldr	r3, [r3, #28]	@ D.5554, SPIx_16(D)->SPINT	@ 224	*thumb2_movsi_insn/5	[length = 4]
 686 0156 03F00103 		and	r3, r3, #1	@ D.5554, D.5554,	@ 225	*arm_andsi3_insn/1	[length = 4]
 687 015a 002B     		cmp	r3, #0	@ D.5554,	@ 226	*arm_cmpsi_insn/1	[length = 2]
 688 015c 02D0     		beq	.L49	@,	@ 227	arm_cond_branch	[length = 2]
 312:LPC17xxLib/src/lpc17xx_spi.c **** 			SPIx->SPINT = SPI_SPINT_INTFLAG;
 689              		.loc 1 312 0
 690 015e FB68     		ldr	r3, [r7, #12]	@ tmp208, SPIx	@ 229	*thumb2_movsi_insn/5	[length = 4]
 691 0160 0122     		movs	r2, #1	@ tmp209,	@ 230	*thumb2_movsi_shortim	[length = 2]
 692 0162 DA61     		str	r2, [r3, #28]	@ tmp209, SPIx_16(D)->SPINT	@ 231	*thumb2_movsi_insn/7	[length = 4]
 693              	.L49:
 313:LPC17xxLib/src/lpc17xx_spi.c **** 		}
 314:LPC17xxLib/src/lpc17xx_spi.c **** 		if (dataCfg->counter < dataCfg->length){
 694              		.loc 1 314 0
 695 0164 BB68     		ldr	r3, [r7, #8]	@ tmp210, dataCfg	@ 234	*thumb2_movsi_insn/5	[length = 4]
 696 0166 DA68     		ldr	r2, [r3, #12]	@ D.5554, dataCfg_19(D)->counter	@ 235	*thumb2_movsi_insn/5	[length = 4]
 697 0168 BB68     		ldr	r3, [r7, #8]	@ tmp211, dataCfg	@ 236	*thumb2_movsi_insn/5	[length = 4]
 698 016a 9B68     		ldr	r3, [r3, #8]	@ D.5554, dataCfg_19(D)->length	@ 237	*thumb2_movsi_insn/5	[length = 4]
 699 016c 9A42     		cmp	r2, r3	@ D.5554, D.5554	@ 238	*arm_cmpsi_insn/2	[length = 2]
 700 016e 28D2     		bcs	.L50	@,	@ 239	arm_cond_branch	[length = 2]
 315:LPC17xxLib/src/lpc17xx_spi.c **** 			// Write data to buffer
 316:LPC17xxLib/src/lpc17xx_spi.c **** 			if(dataCfg->tx_data == NULL){
 701              		.loc 1 316 0
 702 0170 BB68     		ldr	r3, [r7, #8]	@ tmp212, dataCfg	@ 241	*thumb2_movsi_insn/5	[length = 4]
 703 0172 1B68     		ldr	r3, [r3]	@ D.5555, dataCfg_19(D)->tx_data	@ 242	*thumb2_movsi_insn/5	[length = 4]
 704 0174 002B     		cmp	r3, #0	@ D.5555,	@ 243	*arm_cmpsi_insn/1	[length = 2]
 705 0176 0DD1     		bne	.L51	@,	@ 244	arm_cond_branch	[length = 2]
 317:LPC17xxLib/src/lpc17xx_spi.c **** 				if (dataword == 0){
 706              		.loc 1 317 0
 707 0178 FB7E     		ldrb	r3, [r7, #27]	@ zero_extendqisi2	@ tmp213, dataword	@ 246	thumb2_zero_extendqisi2_v6/2	[lengt
 708 017a 002B     		cmp	r3, #0	@ tmp213,	@ 247	*arm_cmpsi_insn/1	[length = 2]
 709 017c 04D1     		bne	.L52	@,	@ 248	arm_cond_branch	[length = 2]
 318:LPC17xxLib/src/lpc17xx_spi.c **** 					SPI_SendData(SPIx, 0xFF);
 710              		.loc 1 318 0
 711 017e F868     		ldr	r0, [r7, #12]	@, SPIx	@ 250	*thumb2_movsi_insn/5	[length = 4]
 712 0180 FF21     		movs	r1, #255	@,	@ 251	*thumb2_movsi_shortim	[length = 2]
 713 0182 FFF7FEFF 		bl	SPI_SendData	@	@ 252	*call_symbol	[length = 4]
 714 0186 17E0     		b	.L54	@	@ 336	*arm_jump	[length = 2]
 715              	.L52:
 319:LPC17xxLib/src/lpc17xx_spi.c **** 				} else {
 320:LPC17xxLib/src/lpc17xx_spi.c **** 					SPI_SendData(SPIx, 0xFFFF);
 716              		.loc 1 320 0
 717 0188 F868     		ldr	r0, [r7, #12]	@, SPIx	@ 257	*thumb2_movsi_insn/5	[length = 4]
 718 018a 4FF6FF71 		movw	r1, #65535	@,	@ 258	*thumb2_movsi_insn/4	[length = 4]
 719 018e FFF7FEFF 		bl	SPI_SendData	@	@ 259	*call_symbol	[length = 4]
 720 0192 11E0     		b	.L54	@	@ 338	*arm_jump	[length = 2]
 721              	.L51:
 321:LPC17xxLib/src/lpc17xx_spi.c **** 				}
 322:LPC17xxLib/src/lpc17xx_spi.c **** 			} else {
 323:LPC17xxLib/src/lpc17xx_spi.c **** 				if (dataword == 0){
 722              		.loc 1 323 0
 723 0194 FB7E     		ldrb	r3, [r7, #27]	@ zero_extendqisi2	@ tmp214, dataword	@ 266	thumb2_zero_extendqisi2_v6/2	[lengt
 724 0196 002B     		cmp	r3, #0	@ tmp214,	@ 267	*arm_cmpsi_insn/1	[length = 2]
 725 0198 07D1     		bne	.L55	@,	@ 268	arm_cond_branch	[length = 2]
 324:LPC17xxLib/src/lpc17xx_spi.c **** 					SPI_SendData(SPIx, (*(uint8_t *)dataCfg->tx_data));
 726              		.loc 1 324 0
 727 019a BB68     		ldr	r3, [r7, #8]	@ tmp215, dataCfg	@ 270	*thumb2_movsi_insn/5	[length = 4]
 728 019c 1B68     		ldr	r3, [r3]	@ D.5555, dataCfg_19(D)->tx_data	@ 271	*thumb2_movsi_insn/5	[length = 4]
 729 019e 1B78     		ldrb	r3, [r3]	@ zero_extendqisi2	@ D.5553, MEM[(uint8_t *)_66]	@ 272	thumb2_zero_extendqisi2_v6/2	
 730 01a0 F868     		ldr	r0, [r7, #12]	@, SPIx	@ 274	*thumb2_movsi_insn/5	[length = 4]
 731 01a2 1946     		mov	r1, r3	@, D.5556	@ 275	*thumb2_movsi_insn/1	[length = 4]
 732 01a4 FFF7FEFF 		bl	SPI_SendData	@	@ 276	*call_symbol	[length = 4]
 733 01a8 06E0     		b	.L54	@	@ 340	*arm_jump	[length = 2]
 734              	.L55:
 325:LPC17xxLib/src/lpc17xx_spi.c **** 				} else {
 326:LPC17xxLib/src/lpc17xx_spi.c **** 					SPI_SendData(SPIx, (*(uint16_t *)dataCfg->tx_data));
 735              		.loc 1 326 0
 736 01aa BB68     		ldr	r3, [r7, #8]	@ tmp216, dataCfg	@ 281	*thumb2_movsi_insn/5	[length = 4]
 737 01ac 1B68     		ldr	r3, [r3]	@ D.5555, dataCfg_19(D)->tx_data	@ 282	*thumb2_movsi_insn/5	[length = 4]
 738 01ae 1B88     		ldrh	r3, [r3]	@ D.5556, MEM[(uint16_t *)_69]	@ 283	*thumb2_zero_extendhisi2_v6/2	[length = 4]
 739 01b0 F868     		ldr	r0, [r7, #12]	@, SPIx	@ 284	*thumb2_movsi_insn/5	[length = 4]
 740 01b2 1946     		mov	r1, r3	@, D.5556	@ 285	*thumb2_movsi_insn/1	[length = 4]
 741 01b4 FFF7FEFF 		bl	SPI_SendData	@	@ 286	*call_symbol	[length = 4]
 742              	.L54:
 327:LPC17xxLib/src/lpc17xx_spi.c **** 				}
 328:LPC17xxLib/src/lpc17xx_spi.c **** 			}
 329:LPC17xxLib/src/lpc17xx_spi.c **** 			SPI_IntCmd(SPIx, ENABLE);
 743              		.loc 1 329 0 discriminator 3
 744 01b8 F868     		ldr	r0, [r7, #12]	@, SPIx	@ 289	*thumb2_movsi_insn/5	[length = 4]
 745 01ba 0121     		movs	r1, #1	@,	@ 290	*thumb2_movsi_shortim	[length = 2]
 746 01bc FFF7FEFF 		bl	SPI_IntCmd	@	@ 291	*call_symbol	[length = 4]
 747 01c0 03E0     		b	.L56	@	@ 342	*arm_jump	[length = 2]
 748              	.L50:
 330:LPC17xxLib/src/lpc17xx_spi.c **** 		} else {
 331:LPC17xxLib/src/lpc17xx_spi.c **** 			// Save status
 332:LPC17xxLib/src/lpc17xx_spi.c **** 			dataCfg->status = SPI_STAT_DONE;
 749              		.loc 1 332 0
 750 01c2 BB68     		ldr	r3, [r7, #8]	@ tmp217, dataCfg	@ 296	*thumb2_movsi_insn/5	[length = 4]
 751 01c4 4FF48072 		mov	r2, #256	@ tmp218,	@ 297	*thumb2_movsi_insn/2	[length = 4]
 752 01c8 1A61     		str	r2, [r3, #16]	@ tmp218, dataCfg_19(D)->status	@ 298	*thumb2_movsi_insn/7	[length = 4]
 753              	.L56:
 333:LPC17xxLib/src/lpc17xx_spi.c **** 		}
 334:LPC17xxLib/src/lpc17xx_spi.c **** 		return (0);
 754              		.loc 1 334 0
 755 01ca 0023     		movs	r3, #0	@ D.5552,	@ 301	*thumb2_movsi_shortim	[length = 2]
 756              	.L44:
 335:LPC17xxLib/src/lpc17xx_spi.c **** 	}
 336:LPC17xxLib/src/lpc17xx_spi.c **** }
 757              		.loc 1 336 0
 758 01cc 1846     		mov	r0, r3	@, <retval>	@ 308	*thumb2_movsi_insn/1	[length = 4]
 759 01ce 3037     		adds	r7, r7, #48	@,,	@ 357	*thumb2_addsi_short/2	[length = 2]
 760 01d0 BD46     		mov	sp, r7	@,	@ 359	*thumb2_movsi_insn/1	[length = 4]
 761              		@ sp needed	@	@ 360	force_register_use	[length = 0]
 762 01d2 80BD     		pop	{r7, pc}	@	@ 361	*pop_multiple_with_writeback_and_return	[length = 4]
 763              		.cfi_endproc
 764              	.LFE62:
 766              		.section	.text.SPI_IntCmd,"ax",%progbits
 767              		.align	2
 768              		.global	SPI_IntCmd
 769              		.thumb
 770              		.thumb_func
 772              	SPI_IntCmd:
 773              	.LFB63:
 337:LPC17xxLib/src/lpc17xx_spi.c **** 
 338:LPC17xxLib/src/lpc17xx_spi.c **** 
 339:LPC17xxLib/src/lpc17xx_spi.c **** /********************************************************************//**
 340:LPC17xxLib/src/lpc17xx_spi.c ****  * @brief 		Enable or disable SPIx interrupt.
 341:LPC17xxLib/src/lpc17xx_spi.c ****  * @param[in]	SPIx	SPI peripheral selected, should be LPC_SPI
 342:LPC17xxLib/src/lpc17xx_spi.c ****  * @param[in]	NewState New state of specified UART interrupt type,
 343:LPC17xxLib/src/lpc17xx_spi.c ****  * 				should be:
 344:LPC17xxLib/src/lpc17xx_spi.c ****  * 				- ENALBE: Enable this SPI interrupt.
 345:LPC17xxLib/src/lpc17xx_spi.c **** * 				- DISALBE: Disable this SPI interrupt.
 346:LPC17xxLib/src/lpc17xx_spi.c ****  * @return 		None
 347:LPC17xxLib/src/lpc17xx_spi.c ****  *********************************************************************/
 348:LPC17xxLib/src/lpc17xx_spi.c **** void SPI_IntCmd(LPC_SPI_TypeDef *SPIx, FunctionalState NewState)
 349:LPC17xxLib/src/lpc17xx_spi.c **** {
 774              		.loc 1 349 0
 775              		.cfi_startproc
 776              		@ args = 0, pretend = 0, frame = 8
 777              		@ frame_needed = 1, uses_anonymous_args = 0
 778              		@ link register save eliminated.
 779 0000 80B4     		push	{r7}	@	@ 37	*push_multi	[length = 2]
 780              		.cfi_def_cfa_offset 4
 781              		.cfi_offset 7, -4
 782 0002 83B0     		sub	sp, sp, #12	@,,	@ 38	*arm_addsi3/8	[length = 4]
 783              		.cfi_def_cfa_offset 16
 784 0004 00AF     		add	r7, sp, #0	@,,	@ 40	*arm_addsi3/2	[length = 4]
 785              		.cfi_def_cfa_register 7
 786 0006 7860     		str	r0, [r7, #4]	@ SPIx, SPIx	@ 2	*thumb2_movsi_insn/7	[length = 4]
 787 0008 0B46     		mov	r3, r1	@ tmp114, NewState	@ 3	*thumb2_movsi_insn/1	[length = 4]
 788 000a FB70     		strb	r3, [r7, #3]	@ tmp115, NewState	@ 5	*arm_movqi_insn/5	[length = 2]
 350:LPC17xxLib/src/lpc17xx_spi.c **** 	CHECK_PARAM(PARAM_SPIx(SPIx));
 351:LPC17xxLib/src/lpc17xx_spi.c **** 	CHECK_PARAM(PARAM_FUNCTIONALSTATE(NewState));
 352:LPC17xxLib/src/lpc17xx_spi.c **** 
 353:LPC17xxLib/src/lpc17xx_spi.c **** 	if (NewState == ENABLE)
 789              		.loc 1 353 0
 790 000c FB78     		ldrb	r3, [r7, #3]	@ zero_extendqisi2	@ tmp116, NewState	@ 9	thumb2_zero_extendqisi2_v6/2	[length =
 791 000e 012B     		cmp	r3, #1	@ tmp116,	@ 10	*arm_cmpsi_insn/1	[length = 2]
 792 0010 06D1     		bne	.L59	@,	@ 11	arm_cond_branch	[length = 2]
 354:LPC17xxLib/src/lpc17xx_spi.c **** 	{
 355:LPC17xxLib/src/lpc17xx_spi.c **** 		SPIx->SPCR |= SPI_SPCR_SPIE;
 793              		.loc 1 355 0
 794 0012 7B68     		ldr	r3, [r7, #4]	@ tmp117, SPIx	@ 13	*thumb2_movsi_insn/5	[length = 4]
 795 0014 1B68     		ldr	r3, [r3]	@ D.5557, SPIx_2(D)->SPCR	@ 14	*thumb2_movsi_insn/5	[length = 4]
 796 0016 43F08002 		orr	r2, r3, #128	@ D.5557, D.5557,	@ 15	*iorsi3_insn/1	[length = 4]
 797 001a 7B68     		ldr	r3, [r7, #4]	@ tmp118, SPIx	@ 16	*thumb2_movsi_insn/5	[length = 4]
 798 001c 1A60     		str	r2, [r3]	@ D.5557, SPIx_2(D)->SPCR	@ 17	*thumb2_movsi_insn/7	[length = 4]
 799 001e 06E0     		b	.L58	@	@ 32	*arm_jump	[length = 2]
 800              	.L59:
 356:LPC17xxLib/src/lpc17xx_spi.c **** 	}
 357:LPC17xxLib/src/lpc17xx_spi.c **** 	else
 358:LPC17xxLib/src/lpc17xx_spi.c **** 	{
 359:LPC17xxLib/src/lpc17xx_spi.c **** 		SPIx->SPCR &= (~SPI_SPCR_SPIE) & SPI_SPCR_BITMASK;
 801              		.loc 1 359 0
 802 0020 7B68     		ldr	r3, [r7, #4]	@ tmp119, SPIx	@ 22	*thumb2_movsi_insn/5	[length = 4]
 803 0022 1A68     		ldr	r2, [r3]	@ D.5557, SPIx_2(D)->SPCR	@ 23	*thumb2_movsi_insn/5	[length = 4]
 804 0024 40F67C73 		movw	r3, #3964	@ D.5557,	@ 24	*thumb2_movsi_insn/4	[length = 4]
 805 0028 1340     		ands	r3, r3, r2	@, D.5557, D.5557, D.5557	@ 25	*thumb2_alusi3_short	[length = 2]
 806 002a 7A68     		ldr	r2, [r7, #4]	@ tmp120, SPIx	@ 26	*thumb2_movsi_insn/5	[length = 4]
 807 002c 1360     		str	r3, [r2]	@ D.5557, SPIx_2(D)->SPCR	@ 27	*thumb2_movsi_insn/7	[length = 4]
 808              	.L58:
 360:LPC17xxLib/src/lpc17xx_spi.c **** 	}
 361:LPC17xxLib/src/lpc17xx_spi.c **** }
 809              		.loc 1 361 0
 810 002e 0C37     		adds	r7, r7, #12	@,,	@ 43	*thumb2_addsi_short/2	[length = 2]
 811 0030 BD46     		mov	sp, r7	@,	@ 45	*thumb2_movsi_insn/1	[length = 4]
 812              		@ sp needed	@	@ 46	force_register_use	[length = 0]
 813 0032 5DF8047B 		ldr	r7, [sp], #4	@,	@ 47	*thumb2_movsi_insn/5	[length = 4]
 814 0036 7047     		bx	lr	@	@ 48	*thumb2_return	[length = 4]
 815              		.cfi_endproc
 816              	.LFE63:
 818              		.section	.text.SPI_GetIntStatus,"ax",%progbits
 819              		.align	2
 820              		.global	SPI_GetIntStatus
 821              		.thumb
 822              		.thumb_func
 824              	SPI_GetIntStatus:
 825              	.LFB64:
 362:LPC17xxLib/src/lpc17xx_spi.c **** 
 363:LPC17xxLib/src/lpc17xx_spi.c **** 
 364:LPC17xxLib/src/lpc17xx_spi.c **** /********************************************************************//**
 365:LPC17xxLib/src/lpc17xx_spi.c ****  * @brief 		Checks whether the SPI interrupt flag is set or not.
 366:LPC17xxLib/src/lpc17xx_spi.c ****  * @param[in]	SPIx	SPI peripheral selected, should be LPC_SPI
 367:LPC17xxLib/src/lpc17xx_spi.c ****  * @return 		The new state of SPI Interrupt Flag (SET or RESET)
 368:LPC17xxLib/src/lpc17xx_spi.c ****  *********************************************************************/
 369:LPC17xxLib/src/lpc17xx_spi.c **** IntStatus SPI_GetIntStatus (LPC_SPI_TypeDef *SPIx)
 370:LPC17xxLib/src/lpc17xx_spi.c **** {
 826              		.loc 1 370 0
 827              		.cfi_startproc
 828              		@ args = 0, pretend = 0, frame = 8
 829              		@ frame_needed = 1, uses_anonymous_args = 0
 830              		@ link register save eliminated.
 831 0000 80B4     		push	{r7}	@	@ 28	*push_multi	[length = 2]
 832              		.cfi_def_cfa_offset 4
 833              		.cfi_offset 7, -4
 834 0002 83B0     		sub	sp, sp, #12	@,,	@ 29	*arm_addsi3/8	[length = 4]
 835              		.cfi_def_cfa_offset 16
 836 0004 00AF     		add	r7, sp, #0	@,,	@ 31	*arm_addsi3/2	[length = 4]
 837              		.cfi_def_cfa_register 7
 838 0006 7860     		str	r0, [r7, #4]	@ SPIx, SPIx	@ 2	*thumb2_movsi_insn/7	[length = 4]
 371:LPC17xxLib/src/lpc17xx_spi.c **** 	CHECK_PARAM(PARAM_SPIx(SPIx));
 372:LPC17xxLib/src/lpc17xx_spi.c **** 
 373:LPC17xxLib/src/lpc17xx_spi.c **** 	return ((SPIx->SPINT & SPI_SPINT_INTFLAG) ? SET : RESET);
 839              		.loc 1 373 0
 840 0008 7B68     		ldr	r3, [r7, #4]	@ tmp115, SPIx	@ 6	*thumb2_movsi_insn/5	[length = 4]
 841 000a DB69     		ldr	r3, [r3, #28]	@ D.5558, SPIx_1(D)->SPINT	@ 7	*thumb2_movsi_insn/5	[length = 4]
 842 000c 03F00103 		and	r3, r3, #1	@ D.5558, D.5558,	@ 8	*arm_andsi3_insn/1	[length = 4]
 843 0010 002B     		cmp	r3, #0	@ D.5558,	@ 9	*arm_cmpsi_insn/1	[length = 2]
 844 0012 0CBF     		ite	eq	@	@ 10	*thumb2_mov_scc	[length = 10]
 845 0014 0023     		moveq	r3, #0	@, tmp117
 846 0016 0123     		movne	r3, #1	@, tmp117
 847 0018 DBB2     		uxtb	r3, r3	@ D.5559, tmp116	@ 12	thumb2_zero_extendqisi2_v6/1	[length = 4]
 374:LPC17xxLib/src/lpc17xx_spi.c **** }
 848              		.loc 1 374 0
 849 001a 1846     		mov	r0, r3	@, <retval>	@ 20	*thumb2_movsi_insn/1	[length = 4]
 850 001c 0C37     		adds	r7, r7, #12	@,,	@ 34	*thumb2_addsi_short/2	[length = 2]
 851 001e BD46     		mov	sp, r7	@,	@ 36	*thumb2_movsi_insn/1	[length = 4]
 852              		@ sp needed	@	@ 37	force_register_use	[length = 0]
 853 0020 5DF8047B 		ldr	r7, [sp], #4	@,	@ 38	*thumb2_movsi_insn/5	[length = 4]
 854 0024 7047     		bx	lr	@	@ 39	*thumb2_return	[length = 4]
 855              		.cfi_endproc
 856              	.LFE64:
 858 0026 00BF     		.section	.text.SPI_ClearIntPending,"ax",%progbits
 859              		.align	2
 860              		.global	SPI_ClearIntPending
 861              		.thumb
 862              		.thumb_func
 864              	SPI_ClearIntPending:
 865              	.LFB65:
 375:LPC17xxLib/src/lpc17xx_spi.c **** 
 376:LPC17xxLib/src/lpc17xx_spi.c **** /********************************************************************//**
 377:LPC17xxLib/src/lpc17xx_spi.c ****  * @brief 		Clear SPI interrupt flag.
 378:LPC17xxLib/src/lpc17xx_spi.c ****  * @param[in]	SPIx	SPI peripheral selected, should be LPC_SPI
 379:LPC17xxLib/src/lpc17xx_spi.c ****  * @return 		None
 380:LPC17xxLib/src/lpc17xx_spi.c ****  *********************************************************************/
 381:LPC17xxLib/src/lpc17xx_spi.c **** void SPI_ClearIntPending(LPC_SPI_TypeDef *SPIx)
 382:LPC17xxLib/src/lpc17xx_spi.c **** {
 866              		.loc 1 382 0
 867              		.cfi_startproc
 868              		@ args = 0, pretend = 0, frame = 8
 869              		@ frame_needed = 1, uses_anonymous_args = 0
 870              		@ link register save eliminated.
 871 0000 80B4     		push	{r7}	@	@ 13	*push_multi	[length = 2]
 872              		.cfi_def_cfa_offset 4
 873              		.cfi_offset 7, -4
 874 0002 83B0     		sub	sp, sp, #12	@,,	@ 14	*arm_addsi3/8	[length = 4]
 875              		.cfi_def_cfa_offset 16
 876 0004 00AF     		add	r7, sp, #0	@,,	@ 16	*arm_addsi3/2	[length = 4]
 877              		.cfi_def_cfa_register 7
 878 0006 7860     		str	r0, [r7, #4]	@ SPIx, SPIx	@ 2	*thumb2_movsi_insn/7	[length = 4]
 383:LPC17xxLib/src/lpc17xx_spi.c **** 	CHECK_PARAM(PARAM_SPIx(SPIx));
 384:LPC17xxLib/src/lpc17xx_spi.c **** 
 385:LPC17xxLib/src/lpc17xx_spi.c **** 	SPIx->SPINT = SPI_SPINT_INTFLAG;
 879              		.loc 1 385 0
 880 0008 7B68     		ldr	r3, [r7, #4]	@ tmp110, SPIx	@ 6	*thumb2_movsi_insn/5	[length = 4]
 881 000a 0122     		movs	r2, #1	@ tmp111,	@ 7	*thumb2_movsi_shortim	[length = 2]
 882 000c DA61     		str	r2, [r3, #28]	@ tmp111, SPIx_1(D)->SPINT	@ 8	*thumb2_movsi_insn/7	[length = 4]
 386:LPC17xxLib/src/lpc17xx_spi.c **** }
 883              		.loc 1 386 0
 884 000e 0C37     		adds	r7, r7, #12	@,,	@ 19	*thumb2_addsi_short/2	[length = 2]
 885 0010 BD46     		mov	sp, r7	@,	@ 21	*thumb2_movsi_insn/1	[length = 4]
 886              		@ sp needed	@	@ 22	force_register_use	[length = 0]
 887 0012 5DF8047B 		ldr	r7, [sp], #4	@,	@ 23	*thumb2_movsi_insn/5	[length = 4]
 888 0016 7047     		bx	lr	@	@ 24	*thumb2_return	[length = 4]
 889              		.cfi_endproc
 890              	.LFE65:
 892              		.section	.text.SPI_GetStatus,"ax",%progbits
 893              		.align	2
 894              		.global	SPI_GetStatus
 895              		.thumb
 896              		.thumb_func
 898              	SPI_GetStatus:
 899              	.LFB66:
 387:LPC17xxLib/src/lpc17xx_spi.c **** 
 388:LPC17xxLib/src/lpc17xx_spi.c **** /********************************************************************//**
 389:LPC17xxLib/src/lpc17xx_spi.c ****  * @brief 		Get current value of SPI Status register in SPIx peripheral.
 390:LPC17xxLib/src/lpc17xx_spi.c ****  * @param[in]	SPIx	SPI peripheral selected, should be LPC_SPI
 391:LPC17xxLib/src/lpc17xx_spi.c ****  * @return		Current value of SPI Status register in SPI peripheral.
 392:LPC17xxLib/src/lpc17xx_spi.c ****  * Note:	The return value of this function must be used with
 393:LPC17xxLib/src/lpc17xx_spi.c ****  * 			SPI_CheckStatus() to determine current flag status
 394:LPC17xxLib/src/lpc17xx_spi.c ****  * 			corresponding to each SPI status type. Because some flags in
 395:LPC17xxLib/src/lpc17xx_spi.c ****  * 			SPI Status register will be cleared after reading, the next reading
 396:LPC17xxLib/src/lpc17xx_spi.c ****  * 			SPI Status register could not be correct. So this function used to
 397:LPC17xxLib/src/lpc17xx_spi.c ****  * 			read SPI status register in one time only, then the return value
 398:LPC17xxLib/src/lpc17xx_spi.c ****  * 			used to check all flags.
 399:LPC17xxLib/src/lpc17xx_spi.c ****  *********************************************************************/
 400:LPC17xxLib/src/lpc17xx_spi.c **** uint32_t SPI_GetStatus(LPC_SPI_TypeDef* SPIx)
 401:LPC17xxLib/src/lpc17xx_spi.c **** {
 900              		.loc 1 401 0
 901              		.cfi_startproc
 902              		@ args = 0, pretend = 0, frame = 8
 903              		@ frame_needed = 1, uses_anonymous_args = 0
 904              		@ link register save eliminated.
 905 0000 80B4     		push	{r7}	@	@ 23	*push_multi	[length = 2]
 906              		.cfi_def_cfa_offset 4
 907              		.cfi_offset 7, -4
 908 0002 83B0     		sub	sp, sp, #12	@,,	@ 24	*arm_addsi3/8	[length = 4]
 909              		.cfi_def_cfa_offset 16
 910 0004 00AF     		add	r7, sp, #0	@,,	@ 26	*arm_addsi3/2	[length = 4]
 911              		.cfi_def_cfa_register 7
 912 0006 7860     		str	r0, [r7, #4]	@ SPIx, SPIx	@ 2	*thumb2_movsi_insn/7	[length = 4]
 402:LPC17xxLib/src/lpc17xx_spi.c **** 	CHECK_PARAM(PARAM_SPIx(SPIx));
 403:LPC17xxLib/src/lpc17xx_spi.c **** 
 404:LPC17xxLib/src/lpc17xx_spi.c **** 	return (SPIx->SPSR & SPI_SPSR_BITMASK);
 913              		.loc 1 404 0
 914 0008 7B68     		ldr	r3, [r7, #4]	@ tmp113, SPIx	@ 6	*thumb2_movsi_insn/5	[length = 4]
 915 000a 5B68     		ldr	r3, [r3, #4]	@ D.5561, SPIx_1(D)->SPSR	@ 7	*thumb2_movsi_insn/5	[length = 4]
 916 000c 03F0F803 		and	r3, r3, #248	@ D.5562, D.5561,	@ 8	*arm_andsi3_insn/1	[length = 4]
 405:LPC17xxLib/src/lpc17xx_spi.c **** }
 917              		.loc 1 405 0
 918 0010 1846     		mov	r0, r3	@, <retval>	@ 15	*thumb2_movsi_insn/1	[length = 4]
 919 0012 0C37     		adds	r7, r7, #12	@,,	@ 29	*thumb2_addsi_short/2	[length = 2]
 920 0014 BD46     		mov	sp, r7	@,	@ 31	*thumb2_movsi_insn/1	[length = 4]
 921              		@ sp needed	@	@ 32	force_register_use	[length = 0]
 922 0016 5DF8047B 		ldr	r7, [sp], #4	@,	@ 33	*thumb2_movsi_insn/5	[length = 4]
 923 001a 7047     		bx	lr	@	@ 34	*thumb2_return	[length = 4]
 924              		.cfi_endproc
 925              	.LFE66:
 927              		.section	.text.SPI_CheckStatus,"ax",%progbits
 928              		.align	2
 929              		.global	SPI_CheckStatus
 930              		.thumb
 931              		.thumb_func
 933              	SPI_CheckStatus:
 934              	.LFB67:
 406:LPC17xxLib/src/lpc17xx_spi.c **** 
 407:LPC17xxLib/src/lpc17xx_spi.c **** /********************************************************************//**
 408:LPC17xxLib/src/lpc17xx_spi.c ****  * @brief 		Checks whether the specified SPI Status flag is set or not
 409:LPC17xxLib/src/lpc17xx_spi.c ****  * 				via inputSPIStatus parameter.
 410:LPC17xxLib/src/lpc17xx_spi.c ****  * @param[in]	inputSPIStatus Value to check status of each flag type.
 411:LPC17xxLib/src/lpc17xx_spi.c ****  * 				This value is the return value from SPI_GetStatus().
 412:LPC17xxLib/src/lpc17xx_spi.c ****  * @param[in]	SPIStatus	Specifies the SPI status flag to check,
 413:LPC17xxLib/src/lpc17xx_spi.c ****  * 				should be one of the following:
 414:LPC17xxLib/src/lpc17xx_spi.c **** 				- SPI_STAT_ABRT: Slave abort.
 415:LPC17xxLib/src/lpc17xx_spi.c **** 				- SPI_STAT_MODF: Mode fault.
 416:LPC17xxLib/src/lpc17xx_spi.c **** 				- SPI_STAT_ROVR: Read overrun.
 417:LPC17xxLib/src/lpc17xx_spi.c **** 				- SPI_STAT_WCOL: Write collision.
 418:LPC17xxLib/src/lpc17xx_spi.c **** 				- SPI_STAT_SPIF: SPI transfer complete.
 419:LPC17xxLib/src/lpc17xx_spi.c ****  * @return 		The new state of SPIStatus (SET or RESET)
 420:LPC17xxLib/src/lpc17xx_spi.c ****  *********************************************************************/
 421:LPC17xxLib/src/lpc17xx_spi.c **** FlagStatus SPI_CheckStatus (uint32_t inputSPIStatus,  uint8_t SPIStatus)
 422:LPC17xxLib/src/lpc17xx_spi.c **** {
 935              		.loc 1 422 0
 936              		.cfi_startproc
 937              		@ args = 0, pretend = 0, frame = 8
 938              		@ frame_needed = 1, uses_anonymous_args = 0
 939              		@ link register save eliminated.
 940 0000 80B4     		push	{r7}	@	@ 31	*push_multi	[length = 2]
 941              		.cfi_def_cfa_offset 4
 942              		.cfi_offset 7, -4
 943 0002 83B0     		sub	sp, sp, #12	@,,	@ 32	*arm_addsi3/8	[length = 4]
 944              		.cfi_def_cfa_offset 16
 945 0004 00AF     		add	r7, sp, #0	@,,	@ 34	*arm_addsi3/2	[length = 4]
 946              		.cfi_def_cfa_register 7
 947 0006 7860     		str	r0, [r7, #4]	@ inputSPIStatus, inputSPIStatus	@ 2	*thumb2_movsi_insn/7	[length = 4]
 948 0008 0B46     		mov	r3, r1	@ tmp115, SPIStatus	@ 3	*thumb2_movsi_insn/1	[length = 4]
 949 000a FB70     		strb	r3, [r7, #3]	@ tmp116, SPIStatus	@ 5	*arm_movqi_insn/5	[length = 2]
 423:LPC17xxLib/src/lpc17xx_spi.c **** 	CHECK_PARAM(PARAM_SPI_STAT(SPIStatus));
 424:LPC17xxLib/src/lpc17xx_spi.c **** 
 425:LPC17xxLib/src/lpc17xx_spi.c **** 	return ((inputSPIStatus & SPIStatus) ? SET : RESET);
 950              		.loc 1 425 0
 951 000c FA78     		ldrb	r2, [r7, #3]	@ zero_extendqisi2	@ D.5563, SPIStatus	@ 9	thumb2_zero_extendqisi2_v6/2	[length 
 952 000e 7B68     		ldr	r3, [r7, #4]	@ tmp117, inputSPIStatus	@ 10	*thumb2_movsi_insn/5	[length = 4]
 953 0010 1340     		ands	r3, r3, r2	@, D.5563, tmp117, D.5563	@ 11	*thumb2_alusi3_short	[length = 2]
 954 0012 002B     		cmp	r3, #0	@ D.5563,	@ 12	*arm_cmpsi_insn/1	[length = 2]
 955 0014 0CBF     		ite	eq	@	@ 13	*thumb2_mov_scc	[length = 10]
 956 0016 0023     		moveq	r3, #0	@, tmp119
 957 0018 0123     		movne	r3, #1	@, tmp119
 958 001a DBB2     		uxtb	r3, r3	@ D.5564, tmp118	@ 15	thumb2_zero_extendqisi2_v6/1	[length = 4]
 426:LPC17xxLib/src/lpc17xx_spi.c **** }
 959              		.loc 1 426 0
 960 001c 1846     		mov	r0, r3	@, <retval>	@ 23	*thumb2_movsi_insn/1	[length = 4]
 961 001e 0C37     		adds	r7, r7, #12	@,,	@ 37	*thumb2_addsi_short/2	[length = 2]
 962 0020 BD46     		mov	sp, r7	@,	@ 39	*thumb2_movsi_insn/1	[length = 4]
 963              		@ sp needed	@	@ 40	force_register_use	[length = 0]
 964 0022 5DF8047B 		ldr	r7, [sp], #4	@,	@ 41	*thumb2_movsi_insn/5	[length = 4]
 965 0026 7047     		bx	lr	@	@ 42	*thumb2_return	[length = 4]
 966              		.cfi_endproc
 967              	.LFE67:
 969              		.text
 970              	.Letext0:
 971              		.file 2 "h:\\arm-non-eabi\\arm-none-eabi\\include\\machine\\_default_types.h"
 972              		.file 3 "h:\\arm-non-eabi\\arm-none-eabi\\include\\stdint.h"
 973              		.file 4 "CMSISv2p00_LPC17xx/lpcinc/LPC17xx.h"
 974              		.file 5 "LPC17xxLib/inc/lpc_types.h"
 975              		.file 6 "LPC17xxLib/inc/lpc17xx_spi.h"
 976              		.file 7 "CMSISv2p00_LPC17xx/inc/core_cm3.h"
DEFINED SYMBOLS
                            *ABS*:00000000 lpc17xx_spi.c
C:\Users\Akil\AppData\Local\Temp\ccS56TKG.s:65     .text.SPI_SetClock:00000000 $t
C:\Users\Akil\AppData\Local\Temp\ccS56TKG.s:70     .text.SPI_SetClock:00000000 SPI_SetClock
C:\Users\Akil\AppData\Local\Temp\ccS56TKG.s:145    .text.SPI_SetClock:00000054 $d
C:\Users\Akil\AppData\Local\Temp\ccS56TKG.s:150    .text.SPI_DeInit:00000000 $t
C:\Users\Akil\AppData\Local\Temp\ccS56TKG.s:155    .text.SPI_DeInit:00000000 SPI_DeInit
C:\Users\Akil\AppData\Local\Temp\ccS56TKG.s:188    .text.SPI_DeInit:00000020 $d
C:\Users\Akil\AppData\Local\Temp\ccS56TKG.s:193    .text.SPI_GetDataSize:00000000 $t
C:\Users\Akil\AppData\Local\Temp\ccS56TKG.s:198    .text.SPI_GetDataSize:00000000 SPI_GetDataSize
C:\Users\Akil\AppData\Local\Temp\ccS56TKG.s:231    .text.SPI_Init:00000000 $t
C:\Users\Akil\AppData\Local\Temp\ccS56TKG.s:236    .text.SPI_Init:00000000 SPI_Init
C:\Users\Akil\AppData\Local\Temp\ccS56TKG.s:317    .text.SPI_Init:00000074 $d
C:\Users\Akil\AppData\Local\Temp\ccS56TKG.s:322    .text.SPI_ConfigStructInit:00000000 $t
C:\Users\Akil\AppData\Local\Temp\ccS56TKG.s:327    .text.SPI_ConfigStructInit:00000000 SPI_ConfigStructInit
C:\Users\Akil\AppData\Local\Temp\ccS56TKG.s:375    .text.SPI_ConfigStructInit:00000038 $d
C:\Users\Akil\AppData\Local\Temp\ccS56TKG.s:380    .text.SPI_SendData:00000000 $t
C:\Users\Akil\AppData\Local\Temp\ccS56TKG.s:385    .text.SPI_SendData:00000000 SPI_SendData
C:\Users\Akil\AppData\Local\Temp\ccS56TKG.s:416    .text.SPI_ReceiveData:00000000 $t
C:\Users\Akil\AppData\Local\Temp\ccS56TKG.s:421    .text.SPI_ReceiveData:00000000 SPI_ReceiveData
C:\Users\Akil\AppData\Local\Temp\ccS56TKG.s:451    .text.SPI_ReadWrite:00000000 $t
C:\Users\Akil\AppData\Local\Temp\ccS56TKG.s:456    .text.SPI_ReadWrite:00000000 SPI_ReadWrite
C:\Users\Akil\AppData\Local\Temp\ccS56TKG.s:772    .text.SPI_IntCmd:00000000 SPI_IntCmd
C:\Users\Akil\AppData\Local\Temp\ccS56TKG.s:767    .text.SPI_IntCmd:00000000 $t
C:\Users\Akil\AppData\Local\Temp\ccS56TKG.s:819    .text.SPI_GetIntStatus:00000000 $t
C:\Users\Akil\AppData\Local\Temp\ccS56TKG.s:824    .text.SPI_GetIntStatus:00000000 SPI_GetIntStatus
C:\Users\Akil\AppData\Local\Temp\ccS56TKG.s:859    .text.SPI_ClearIntPending:00000000 $t
C:\Users\Akil\AppData\Local\Temp\ccS56TKG.s:864    .text.SPI_ClearIntPending:00000000 SPI_ClearIntPending
C:\Users\Akil\AppData\Local\Temp\ccS56TKG.s:893    .text.SPI_GetStatus:00000000 $t
C:\Users\Akil\AppData\Local\Temp\ccS56TKG.s:898    .text.SPI_GetStatus:00000000 SPI_GetStatus
C:\Users\Akil\AppData\Local\Temp\ccS56TKG.s:928    .text.SPI_CheckStatus:00000000 $t
C:\Users\Akil\AppData\Local\Temp\ccS56TKG.s:933    .text.SPI_CheckStatus:00000000 SPI_CheckStatus
                     .debug_frame:00000010 $d
                           .group:00000000 wm4.0.22a09cf5348e6b56ff33a965c4e1c30b
                           .group:00000000 wm4.LPC17xx.h.27.964facdaadd4aa3f18ac78c8a78f0013
                           .group:00000000 wm4.core_cm3.h.32.3cac756d6e704b813781f82afd94fa5f
                           .group:00000000 wm4.features.h.22.6a4ca7cd053637cc1d0db6c16f39b2d7
                           .group:00000000 wm4._default_types.h.15.8b2cb27e528498f8ff711db085d6e489
                           .group:00000000 wm4.stdint.h.20.796e373797e732130a803d4c0338fa1b
                           .group:00000000 wm4.core_cmInstr.h.25.6beb15babd14c076008ec0890c26e21c
                           .group:00000000 wm4.core_cm3.h.83.1a3cb9afc687cf157efeddb3d5f3109e
                           .group:00000000 wm4.LPC17xx.h.953.82b7a9ed60bb594048bc8738cf1d3489
                           .group:00000000 wm4.lpc_types.h.36.0fc48fca3475dd297e92c2a28984ed13
                           .group:00000000 wm4.lpc17xx_spi.h.55.9c3b3420b4b23ecaadbd6f787f498aa5
                           .group:00000000 wm4.lpc17xx_clkpwr.h.34.e5ed2e3680819b04bfe67282695e2098
                           .group:00000000 wm4.lpc17xx_libcfg_default.h.33.69d93704acc27b13794aa108daea19e2

UNDEFINED SYMBOLS
CLKPWR_GetPCLK
CLKPWR_ConfigPPWR
