   1              		.syntax unified
   2              		.cpu cortex-m3
   3              		.fpu softvfp
   4              		.eabi_attribute 20, 1	@ Tag_ABI_FP_denormal
   5              		.eabi_attribute 21, 1	@ Tag_ABI_FP_exceptions
   6              		.eabi_attribute 23, 3	@ Tag_ABI_FP_number_model
   7              		.eabi_attribute 24, 1	@ Tag_ABI_align8_needed
   8              		.eabi_attribute 25, 1	@ Tag_ABI_align8_preserved
   9              		.eabi_attribute 26, 1	@ Tag_ABI_enum_size
  10              		.eabi_attribute 30, 6	@ Tag_ABI_optimization_goals
  11              		.eabi_attribute 34, 1	@ Tag_CPU_unaligned_access
  12              		.eabi_attribute 18, 4	@ Tag_ABI_PCS_wchar_t
  13              		.file	"lpc17xx_libcfg_default.c"
  14              	@ GNU C (GNU Tools for ARM Embedded Processors) version 4.8.4 20140526 (release) [ARM/embedded-4_8-
  15              	@	compiled by GNU C version 4.6.4, GMP version 4.3.2, MPFR version 2.4.2, MPC version 0.8.1
  16              	@ GGC heuristics: --param ggc-min-expand=100 --param ggc-min-heapsize=131072
  17              	@ options passed:  -I C:/MinGW/msys/1.0/cpu/cortex-m3 -I .
  18              	@ -I h:/Work/CANopen/PhiCanOpen_Working/common/include -I LPC17xxLib/inc
  19              	@ -I CMSISv2p00_LPC17xx/lpcinc -I CMSISv2p00_LPC17xx/inc -imultilib armv7-m
  20              	@ -iprefix h:\arm-non-eabi\bin\../lib/gcc/arm-none-eabi/4.8.4/
  21              	@ -isysroot h:\arm-non-eabi\bin\../arm-none-eabi
  22              	@ -MMD h:/Work/CANopen/PhiCanOpen_Working/build_root/HYDRA/debug_noOS/CDL/LPC17xxLib/src/lpc17xx_li
  23              	@ -MP
  24              	@ -MQ h:/Work/CANopen/PhiCanOpen_Working/build_root/HYDRA/debug_noOS/CDL/LPC17xxLib/src/lpc17xx_lib
  25              	@ -D__USES_INITFINI__ -D __NEWLIB__ -D DEBUG_STACK_STAMP=0x5A
  26              	@ -D PHI_CFG_DEBUG_ASSERT_PRINT=1 -D __ARM_LPC1768__
  27              	@ -D PHI_CFG_EXTRAM_SIZE=0 -D PHI_CFG_OS_STACK_SIZE=0x600
  28              	@ -D PHI_CFG_STACK_SIZE=0xB00 -D PHI_CFG_KERN_MONITOR=1
  29              	@ -D PHI_CFG_KERN_PRI_INHERIT=0 -D PHI_CFG_KERN_SIGNALS=0
  30              	@ -D PHI_CFG_DEBUG_TRACE_ENABLE=1 -D PHI_DEBUG_ENABLE=1 -D __LPC17XX__
  31              	@ -D USE_OLD_STYLE_DATA_BSS_INIT=1 -D __RAM_MODE__=0
  32              	@ LPC17xxLib/src/lpc17xx_libcfg_default.c -mthumb -mno-thumb-interwork
  33              	@ -mcpu=cortex-m3
  34              	@ -auxbase-strip h:/Work/CANopen/PhiCanOpen_Working/build_root/HYDRA/debug_noOS/CDL/LPC17xxLib/src/
  35              	@ -ggdb -g3 -O0 -Wformat=1 -Wall -Wundef -Wpointer-arith -Wcast-qual
  36              	@ -Wcast-align -Wwrite-strings -Wsign-compare -Wsuggest-attribute=noreturn
  37              	@ -Wextra -Wstrict-aliasing=2 -Wmissing-prototypes -Wstrict-prototypes
  38              	@ -std=gnu99 -fno-strict-aliasing -fwrapv -fverbose-asm -ffunction-sections
  39              	@ -fdata-sections
  40              	@ options enabled:  -faggressive-loop-optimizations -fauto-inc-dec
  41              	@ -fbranch-count-reg -fcommon -fdata-sections -fdelete-null-pointer-checks
  42              	@ -fdwarf2-cfi-asm -fearly-inlining -feliminate-unused-debug-types
  43              	@ -ffunction-cse -ffunction-sections -fgcse-lm -fgnu-runtime -fident
  44              	@ -finline-atomics -fira-hoist-pressure -fira-share-save-slots
  45              	@ -fira-share-spill-slots -fivopts -fkeep-static-consts
  46              	@ -fleading-underscore -fmath-errno -fmerge-debug-strings
  47              	@ -fmove-loop-invariants -fpeephole -fprefetch-loop-arrays
  48              	@ -freg-struct-return -fsched-critical-path-heuristic
  49              	@ -fsched-dep-count-heuristic -fsched-group-heuristic -fsched-interblock
  50              	@ -fsched-last-insn-heuristic -fsched-rank-heuristic -fsched-spec
  51              	@ -fsched-spec-insn-heuristic -fsched-stalled-insns-dep -fshow-column
  52              	@ -fsigned-zeros -fsplit-ivs-in-unroller -fstrict-volatile-bitfields
  53              	@ -fsync-libcalls -ftrapping-math -ftree-coalesce-vars -ftree-cselim
  54              	@ -ftree-forwprop -ftree-loop-if-convert -ftree-loop-im -ftree-loop-ivcanon
  55              	@ -ftree-loop-optimize -ftree-parallelize-loops= -ftree-phiprop -ftree-pta
  56              	@ -ftree-reassoc -ftree-scev-cprop -ftree-slp-vectorize
  57              	@ -ftree-vect-loop-version -funit-at-a-time -fverbose-asm -fwrapv
  58              	@ -fzero-initialized-in-bss -mfix-cortex-m3-ldrd -mlittle-endian
  59              	@ -mpic-data-is-text-relative -msched-prolog -mthumb -munaligned-access
  60              	@ -mvectorize-with-neon-quad
  61              	
  62              		.text
  63              	.Ltext0:
  64              		.cfi_sections	.debug_frame
  65              	.Letext0:
DEFINED SYMBOLS
                            *ABS*:00000000 lpc17xx_libcfg_default.c
                           .group:00000000 wm4.0.22a09cf5348e6b56ff33a965c4e1c30b
                           .group:00000000 wm4.features.h.22.6a4ca7cd053637cc1d0db6c16f39b2d7
                           .group:00000000 wm4._default_types.h.15.8b2cb27e528498f8ff711db085d6e489
                           .group:00000000 wm4.stdint.h.20.796e373797e732130a803d4c0338fa1b
                           .group:00000000 wm4.lpc_types.h.56.73463d992606033e5e652aeadf351b3e
                           .group:00000000 wm4.lpc17xx_libcfg_default.h.55.ae2455dda53f17a3194686f06407db93

NO UNDEFINED SYMBOLS
